<?xml version="1.0" encoding="UTF-8"?>
<svg width="30px" height="30px" viewBox="0 0 30 30" version="1.1" xmlns="http://www.w3.org/2000/svg" xmlns:xlink="http://www.w3.org/1999/xlink">
    <!-- Generator: Sketch 61.2 (89653) - https://sketch.com -->
    <title>Error</title>
    <desc>Created with Sketch.</desc>
    <g id="Guidelines-ATMs-Copy" stroke="none" stroke-width="1" fill="none" fill-rule="evenodd">
        <g id="Notificiación" transform="translate(-60.000000, -30.000000)">
            <g id="Group-3" transform="translate(60.000000, 29.000000)">
                <g id="Error" transform="translate(0.000000, 1.000000)">
                    <g id="alert_icon">
                        <g>
                            <circle id="Oval" fill="#F2B10D" cx="15" cy="15" r="15"></circle>
                            <path d="M16.5,22.5039999 C16.4998214,21.967923 16.2136626,21.4726627 15.749317,21.2047788 C15.2849714,20.936895 14.712984,20.9370856 14.248817,21.2052788 C13.78465,21.4734721 13.4988214,21.968923 13.4989999,22.505 C13.4989999,23.3337033 14.1707967,24.0055 14.9995,24.0055 C15.8282033,24.0055 16.5,23.3337033 16.5,22.505 M16.5,18.005 L16.5,9 C16.5,8.17157288 15.8284271,7.5 15,7.5 C14.1715729,7.5 13.5,8.17157288 13.5,9 L13.5,18.004 C13.5,18.8324271 14.1715729,19.504 15,19.504 C15.8284271,19.504 16.5,18.8324271 16.5,18.004" id="Shape" fill="#FFFFFF" fill-rule="nonzero"></path>
                        </g>
                    </g>
                </g>
            </g>
        </g>
    </g>
</svg>