<svg xmlns="http://www.w3.org/2000/svg" width="56" height="56.006" viewBox="0 0 56 56.006">
  <path id="home" d="M55,24.36l0,0L32.145,1.51a5.155,5.155,0,0,0-7.292,0L2.02,24.344,2,24.367a5.154,5.154,0,0,0,3.431,8.784c.053.005.106.008.159.008H6.5V49.971a6.041,6.041,0,0,0,6.035,6.034H21.47a1.641,1.641,0,0,0,1.641-1.641V41.184a2.756,2.756,0,0,1,2.753-2.753h5.272a2.756,2.756,0,0,1,2.753,2.753V54.365a1.641,1.641,0,0,0,1.641,1.641h8.938A6.041,6.041,0,0,0,50.5,49.971V33.159h.844A5.157,5.157,0,0,0,55,24.36Zm-2.324,4.969a1.863,1.863,0,0,1-1.325.549H48.861a1.641,1.641,0,0,0-1.641,1.641V49.971a2.756,2.756,0,0,1-2.753,2.753h-7.3V41.184a6.041,6.041,0,0,0-6.035-6.035H25.864a6.042,6.042,0,0,0-6.035,6.035v11.54h-7.3a2.756,2.756,0,0,1-2.753-2.753V31.519a1.641,1.641,0,0,0-1.641-1.641H5.7l-.077,0a1.872,1.872,0,0,1-1.291-3.2h0L27.175,3.831a1.873,1.873,0,0,1,2.65,0L52.665,26.67l.011.01A1.878,1.878,0,0,1,52.672,29.328Zm0,0" transform="translate(-0.499)" fill="#fff"/>
</svg>
