<svg xmlns="http://www.w3.org/2000/svg" xmlns:xlink="http://www.w3.org/1999/xlink" width="30.74" height="27.945" viewBox="0 0 30.74 27.945">
  <defs>
    <clipPath id="clip-path">
      <path id="Trazado_1251" data-name="Trazado 1251" d="M18.419-20.16a1.5,1.5,0,0,1,1.441,1.552,1.5,1.5,0,0,1-1.441,1.552H4.442A1.5,1.5,0,0,1,3-18.607,1.5,1.5,0,0,1,4.442-20.16ZM32.3-28.444a1.5,1.5,0,0,1,1.441,1.552A1.5,1.5,0,0,1,32.3-25.339H4.441A1.5,1.5,0,0,1,3-26.891a1.5,1.5,0,0,1,1.441-1.552Zm-8.116-8.278a1.5,1.5,0,0,1,1.441,1.552,1.5,1.5,0,0,1-1.441,1.552H4.442A1.5,1.5,0,0,1,3-35.169a1.5,1.5,0,0,1,1.441-1.552ZM32.27-45a1.5,1.5,0,0,1,1.441,1.552A1.5,1.5,0,0,1,32.27-41.9H4.441A1.5,1.5,0,0,1,3-43.448,1.5,1.5,0,0,1,4.441-45Z" transform="translate(-3 45)" fill="none"/>
    </clipPath>
    <clipPath id="clip-path-2">
      <path id="Trazado_1250" data-name="Trazado 1250" d="M-572,3464.819H680.643V-2134H-572Z" transform="translate(572 2134)" fill="none"/>
    </clipPath>
  </defs>
  <g id="Grupo_2713" data-name="Grupo 2713" transform="translate(0)">
    <g id="Grupo_2115" data-name="Grupo 2115" transform="translate(0)" clip-path="url(#clip-path)">
      <g id="Grupo_2114" data-name="Grupo 2114" transform="translate(-401.712 -1459.438)" clip-path="url(#clip-path-2)">
        <path id="Trazado_1249" data-name="Trazado 1249" d="M-2-50H35.726v34.931H-2Z" transform="translate(400.219 1505.944)" fill="#0d8d71"/>
      </g>
    </g>
  </g>
</svg>
