<svg id="Grupo_2222" data-name="Grupo 2222" xmlns="http://www.w3.org/2000/svg" xmlns:xlink="http://www.w3.org/1999/xlink" width="42.112" height="43.52" viewBox="0 0 42.112 43.52">
  <defs>
    <clipPath id="clip-path">
      <path id="Trazado_1289" data-name="Trazado 1289" d="M39.949-43.832a3.686,3.686,0,0,1,.126.913h0V-7.26a3.789,3.789,0,0,1-3.789,3.78H13.676A3.789,3.789,0,0,1,9.887-7.26h0V-42.919a3.687,3.687,0,0,1,.126-.913H39.949Zm-3.664.146H13.676a.77.77,0,0,0-.77.767h0V-7.26a.77.77,0,0,0,.77.769H36.285a.77.77,0,0,0,.77-.769h0V-42.919a.77.77,0,0,0-.77-.767ZM32.6-16.883a1.431,1.431,0,0,1,1.433,1.43A1.431,1.431,0,0,1,32.6-14.021H29.609a1.432,1.432,0,0,1-1.435-1.431,1.432,1.432,0,0,1,1.435-1.43H32.6Zm-9.024,0a1.431,1.431,0,0,1,1.433,1.43,1.431,1.431,0,0,1-1.433,1.43H17.358a1.431,1.431,0,0,1-1.433-1.43,1.431,1.431,0,0,1,1.433-1.43h6.221ZM32.6-28.93A1.431,1.431,0,0,1,34.036-27.5a1.431,1.431,0,0,1-1.433,1.43H17.358a1.432,1.432,0,0,1-1.435-1.43,1.432,1.432,0,0,1,1.435-1.431Zm0-6.174a1.431,1.431,0,0,1,1.433,1.431,1.431,1.431,0,0,1-1.433,1.43H17.358a1.432,1.432,0,0,1-1.435-1.43A1.432,1.432,0,0,1,17.358-35.1ZM46.112-47v7.6a1.584,1.584,0,0,1-1.584,1.582A1.583,1.583,0,0,1,42.942-39.4h0v-4.442H7.17V-39.4a1.584,1.584,0,0,1-1.585,1.582A1.583,1.583,0,0,1,4-39.4H4V-47Z" transform="translate(-4 47)" fill="none"/>
    </clipPath>
    <clipPath id="clip-path-2">
      <path id="Trazado_1288" data-name="Trazado 1288" d="M-1559,5693.863H226.139V-2285H-1559Z" transform="translate(1559 2285)" fill="none"/>
    </clipPath>
  </defs>
  <g id="Grupo_2141" data-name="Grupo 2141" transform="translate(0 0)" clip-path="url(#clip-path)">
    <g id="Grupo_2140" data-name="Grupo 2140" transform="translate(-1556.147 -2228.188)" clip-path="url(#clip-path-2)">
      <path id="Trazado_1287" data-name="Trazado 1287" d="M-1-52H51.068V1.476H-1Z" transform="translate(1552.169 2275.209)" fill="#fff"/>
    </g>
  </g>
</svg>
