<svg id="Grupo_2221" data-name="Grupo 2221" xmlns="http://www.w3.org/2000/svg" xmlns:xlink="http://www.w3.org/1999/xlink" width="36.115" height="38.294" viewBox="0 0 36.115 38.294">
  <defs>
    <clipPath id="clip-path">
      <path id="Trazado_1286" data-name="Trazado 1286" d="M39.679-46.693a1.435,1.435,0,0,1,1.436,1.433V-9.833A1.435,1.435,0,0,1,39.679-8.4H27.669a1.436,1.436,0,0,1-1.437-1.433,1.436,1.436,0,0,1,1.437-1.434h9.036A1.434,1.434,0,0,0,38.141-12.7V-42.29a1.435,1.435,0,0,0-1.436-1.433H27.669a1.436,1.436,0,0,1-1.437-1.433v-.1a1.436,1.436,0,0,1,1.437-1.433ZM10.956-35.047a.632.632,0,0,1,1.107.414h0v5.2H28.9a1.724,1.724,0,0,1,1.726,1.722A1.724,1.724,0,0,1,28.9-25.988H12.063v4.818a.632.632,0,0,1-1.112.41h0l-5.8-6.8a.628.628,0,0,1,0-.822h0Z" transform="translate(-5 46.693)" fill="none"/>
    </clipPath>
    <clipPath id="clip-path-2">
      <path id="Trazado_1285" data-name="Trazado 1285" d="M-1019,4868.493H581.476V-2285H-1019Z" transform="translate(1019 2285)" fill="none"/>
    </clipPath>
  </defs>
  <g id="Grupo_2139" data-name="Grupo 2139" transform="translate(0 0)" clip-path="url(#clip-path)">
    <g id="Grupo_2138" data-name="Grupo 2138" transform="translate(-914.047 -1997.968)" clip-path="url(#clip-path-2)">
      <path id="Trazado_1284" data-name="Trazado 1284" d="M0-51.693H45.041v47.22H0Z" transform="translate(909.584 2045.198)" fill="#fff"/>
    </g>
  </g>
</svg>
