<svg xmlns="http://www.w3.org/2000/svg" width="20" height="20" viewBox="0 0 20 20">
  <path id="Combined_Shape" data-name="Combined Shape" d="M0,10A10,10,0,1,1,10,20,10.011,10.011,0,0,1,0,10Zm1.69,0A8.31,8.31,0,1,0,10,1.69,8.319,8.319,0,0,0,1.69,10Zm8.982,4.529H9.52V13.321a2.483,2.483,0,0,1-1.86-1.338.576.576,0,0,1,.293-.744.569.569,0,0,1,.24-.052.575.575,0,0,1,.516.316,1.259,1.259,0,0,0,.812.642V10.329a2.63,2.63,0,0,1-1.8-1.337,1.713,1.713,0,0,1,.3-1.745,2.508,2.508,0,0,1,1.5-.783V5.25h1.153V6.512A2.67,2.67,0,0,1,12.416,7.8a.577.577,0,0,1-1.007.563,1.44,1.44,0,0,0-.736-.644V9.486c.412.139,1.661.56,1.813,1.73a1.992,1.992,0,0,1,.012.337,2.091,2.091,0,0,1-1.824,1.792v1.184h0Zm0-2.37c.193-.065.648-.258.673-.673a.721.721,0,0,0-.005-.124c-.031-.242-.243-.445-.668-.637ZM8.9,7.994a.565.565,0,0,0-.138.466.448.448,0,0,0,.025.095,1.2,1.2,0,0,0,.735.553V7.637A1.262,1.262,0,0,0,8.9,7.994Z" fill="#17a54d"/>
</svg>
