<?xml version="1.0" encoding="UTF-8"?>
<svg width="50px" height="50px" viewBox="0 0 50 50" version="1.1" xmlns="http://www.w3.org/2000/svg" xmlns:xlink="http://www.w3.org/1999/xlink">
    <!-- Generator: Sketch 61.2 (89653) - https://sketch.com -->
    <title>Symbol/Remesas Copy</title>
    <desc>Created with Sketch.</desc>
    <g id="Symbol/Remesas-Copy" stroke="none" stroke-width="1" fill="none" fill-rule="evenodd">
        <path d="M38.7,2.7 L23.8,2.7 C21.8,2.7 20.1,4.3 20.1,6.4 L20.1,10.2 L11.3,10.2 C9.3,10.2 7.6,11.8 7.6,13.9 L7.6,43.6 C7.6,45.6 9.2,47.3 11.3,47.3 L26.2,47.3 C28.2,47.3 29.9,45.7 29.9,43.6 L29.9,39.8 L38.7,39.8 C40.7,39.8 42.4,38.2 42.4,36.1 L42.4,6.4 C42.3,4.4 40.7,2.7 38.7,2.7 Z M38.7,37.5 L22.5,37.5 L22.5,30 L25.6,30 C26,30 26.2,29.5 25.9,29.3 L21.9,25.8 C21.7,25.7 21.5,25.7 21.4,25.8 L17,29.3 C16.7,29.5 16.9,30 17.3,30 L20.4,30 L20.4,37.5 C20.4,38.8 21.4,39.8 22.7,39.8 L27.8,39.8 L27.8,43.7 C27.8,44.4 27.2,45 26.5,45 L11.6,45 C10.9,45 10.3,44.4 10.3,43.7 L10.3,14 C10.3,13.3 10.9,12.7 11.6,12.7 L26.5,12.7 C27.2,12.7 27.8,13.3 27.8,14 L27.8,18.9 L24.9,18.9 C24.5,18.9 24.3,19.4 24.6,19.6 L28.6,23.1 C28.8,23.2 29,23.2 29.1,23.1 L33.5,19.6 C33.8,19.4 33.6,18.9 33.2,18.9 L30,18.9 L30,14 C30,12 28.4,10.3 26.3,10.3 L22.6,10.3 L22.6,6.4 C22.6,5.7 23.2,5.1 23.9,5.1 L38.8,5.1 C39.4,5 40,5.6 40,6.4 L40,36.1 C40,36.9 39.4,37.5 38.7,37.5 Z" id="Shape" fill="#FFFFFF"></path>
    </g>
</svg>