<?xml version="1.0" encoding="UTF-8"?>
<svg width="50px" height="50px" viewBox="0 0 50 50" version="1.1" xmlns="http://www.w3.org/2000/svg" xmlns:xlink="http://www.w3.org/1999/xlink">
    <!-- Generator: Sketch 61.2 (89653) - https://sketch.com -->
    <title>Symbol/RetiroQR Copy</title>
    <desc>Created with Sketch.</desc>
    <g id="Symbol/RetiroQR-Copy" stroke="none" stroke-width="1" fill="none" fill-rule="evenodd">
        <path d="M39.145,32.82 C39.375,32.82 39.49,32.935 39.49,33.165 L39.49,33.165 L39.49,42.825 L42.48,42.825 C42.94,42.825 43.4,43.055 43.515,43.515 C43.63,43.975 43.515,44.435 43.17,44.665 L43.17,44.665 L38.225,49.38 C38.11,49.61 37.765,49.725 37.535,49.725 C37.19,49.725 36.96,49.61 36.73,49.38 L36.73,49.38 L31.9,44.665 C31.555,44.32 31.555,43.86 31.67,43.515 C31.9,43.055 32.245,42.825 32.705,42.825 L32.705,42.825 L35.81,42.825 L35.81092,33.10796 C35.8146,33.0454 35.833,33.027 35.925,32.935 C35.925,32.82 36.04,32.82 36.155,32.82 L36.155,32.82 Z M21.32,26.84 C22.4151275,26.84 23.275,27.6998725 23.275,28.795 L23.275,28.795 L23.275,47.31 C23.275,48.4051275 22.4151275,49.265 21.32,49.265 L21.32,49.265 L2.805,49.265 C1.70987254,49.265 0.85,48.4051275 0.85,47.31 L0.85,47.31 L0.85,28.795 C0.85,28.1598725 1.36487254,27.645 2,27.645 C2.63512746,27.645 3.15,28.1598725 3.15,28.795 L3.15,28.795 L3.15,46.965 L20.975,46.965 L20.975,29.14 L12.235,29.14 C11.5998725,29.14 11.085,28.6251275 11.085,27.99 C11.085,27.3548725 11.5998725,26.84 12.235,26.84 L12.235,26.84 Z M15.57,32.59 C16.7652104,32.59 17.64,33.5443159 17.64,34.66 L17.64,41.675 C17.64,42.8851275 16.7801275,43.745 15.57,43.745 L8.555,43.745 C7.35978959,43.745 6.485,42.7906841 6.485,41.675 L6.485,34.66 C6.485,33.4647896 7.43931592,32.59 8.555,32.59 L15.57,32.59 Z M15.34,34.89 L8.785,34.89 L8.785,41.445 L15.34,41.445 L15.34,34.89 Z M46.85,26.84 C47.9451275,26.84 48.805,27.6998725 48.805,28.795 L48.805,28.795 L48.805,38.225 L46.505,38.225 L46.505,29.14 L28.68,29.14 L28.68,38.34 L26.38,38.34 L26.38,28.795 C26.38,27.6998725 27.2398725,26.84 28.335,26.84 L28.335,26.84 Z M21.55,1.425 C22.6451275,1.425 23.505,2.28487254 23.505,3.38 L23.505,21.7870241 C23.6776828,22.9247149 22.703286,23.85 21.665,23.85 L3.035,23.85 C1.93987254,23.85 1.08,22.9901275 1.08,21.895 L1.08,3.38 C1.08,2.28487254 1.93987254,1.425 3.035,1.425 L21.55,1.425 Z M47.195,1.425 C48.2901275,1.425 49.15,2.28487254 49.15,3.38 L49.15,3.38 L49.15,21.895 C49.15,22.5301275 48.6351275,23.045 48,23.045 C47.3648725,23.045 46.85,22.5301275 46.85,21.895 L46.85,21.895 L46.85,3.725 L29.025,3.725 L29.025,21.55 L41.215,21.55 C41.8501275,21.55 42.365,22.0648725 42.365,22.7 C42.365,23.3351275 41.8501275,23.85 41.215,23.85 L41.215,23.85 L28.68,23.85 C27.5848725,23.85 26.725,22.9901275 26.725,21.895 L26.725,21.895 L26.725,3.38 C26.725,2.28487254 27.5848725,1.425 28.68,1.425 L28.68,1.425 Z M21.205,3.725 L3.38,3.725 L3.38,21.55 L21.205,21.55 L21.205,3.725 Z M41.56,7.29 C42.7552104,7.29 43.63,8.24431592 43.63,9.36 L43.63,16.375 C43.63,17.4906841 42.7552104,18.445 41.56,18.445 L34.545,18.445 C33.3497896,18.445 32.475,17.4906841 32.475,16.375 L32.475,9.36 C32.475,8.16478959 33.4293159,7.29 34.545,7.29 L41.56,7.29 Z M15.8,7.175 C16.4351275,7.175 16.95,7.68987254 16.95,8.325 C16.95,8.96012746 16.4351275,9.475 15.8,9.475 L15.8,9.475 L9.36,9.475 L9.36,15.8 L15.34,15.8 L15.34,14.075 C15.34,13.4398725 15.8548725,12.925 16.49,12.925 C17.1251275,12.925 17.64,13.4398725 17.64,14.075 L17.64,14.075 L17.64,16.26 C17.64,17.2401275 16.7801275,18.1 15.8,18.1 L15.8,18.1 L8.9,18.1 C7.91987254,18.1 7.06,17.2401275 7.06,16.26 L7.06,16.26 L7.06,9.015 C7.06,8.03487254 7.91987254,7.175 8.9,7.175 L8.9,7.175 Z M41.33,9.59 L34.775,9.59 L34.775,16.145 L41.33,16.145 L41.33,9.59 Z" id="Combined-Shape" fill="#FFFFFF"></path>
    </g>
</svg>