<svg xmlns="http://www.w3.org/2000/svg" width="21.12" height="17.28" viewBox="0 0 21.12 17.28">
  <path id="_success" data-name="🎨 success" d="M7.953,17.28a2.263,2.263,0,0,1-1.579-.649L.739,11.151A2.5,2.5,0,0,1,.62,7.726,2.251,2.251,0,0,1,3.9,7.6l3.922,3.815L17.092.791A2.245,2.245,0,0,1,20.365.633a2.5,2.5,0,0,1,.15,3.421L9.665,16.49a2.28,2.28,0,0,1-1.616.788c-.032,0-.063,0-.1,0" fill="#fff"/>
</svg>
