<svg xmlns="http://www.w3.org/2000/svg" width="38.126" height="34.014" viewBox="0 0 38.126 34.014">
  <path id="_icon" data-name="🎨 icon" d="M34.123,34.014H4a4,4,0,0,1-3.46-6L15.6,1.994a4,4,0,0,1,6.921,0L37.582,28.015a4,4,0,0,1-3.46,6Zm-17.06-10v4h4v-4Zm2-12a2,2,0,0,0-2,2v4a2,2,0,0,0,4,0v-4A2,2,0,0,0,19.062,12.015Z" fill="#f2b10d"/>
</svg>
