<?xml version="1.0" encoding="UTF-8"?>
<svg width="50px" height="50px" viewBox="0 0 50 50" version="1.1" xmlns="http://www.w3.org/2000/svg" xmlns:xlink="http://www.w3.org/1999/xlink">
    <!-- Generator: Sketch 61.2 (89653) - https://sketch.com -->
    <title>Symbol/CambiarNIP Copy</title>
    <desc>Created with Sketch.</desc>
    <defs>
        <polygon id="path-1" points="0.0715000055 0.0100100008 2.47962019 0.0100100008 2.47962019 2.76848021 0.0700700054 2.76848021"></polygon>
        <polygon id="path-3" points="0.0715000055 0.0100100008 2.47962019 0.0100100008 2.47962019 2.76848021 0.0700700054 2.76848021"></polygon>
        <polygon id="path-5" points="0.0715000055 0.0100100008 2.47962019 0.0100100008 2.47962019 2.76848021 0.0700700054 2.76848021"></polygon>
    </defs>
    <g id="Symbol/CambiarNIP-Copy" stroke="none" stroke-width="1" fill="none" fill-rule="evenodd">
        <g id="nip" transform="translate(2.000000, 14.000000)">
            <path d="M0,15.4196912 L12.0420309,15.4196912 L12.0420309,13.011571 L0,13.011571 L0,15.4196912 Z M16.8597013,15.4196912 L28.8988722,15.4196912 L28.8988722,13.011571 L16.8582713,13.011571 L16.8597013,15.4196912 Z M33.7179726,15.4196912 L45.7585735,15.4196912 L45.7585735,13.011571 L33.7179726,13.011571 L33.7179726,15.4196912 Z M6.06749047,8.18532063 C4.73752241,8.18532063 3.65937028,7.1071685 3.65937028,5.77720044 C3.65937028,4.44723239 4.73752241,3.36908026 6.06749047,3.36908026 C7.39745849,3.36908026 8.47561058,4.44723242 8.47561058,5.77720044 C8.47561058,7.10716847 7.39745849,8.18532063 6.06749047,8.18532063" id="Shape" fill="#FFFFFF" fill-rule="nonzero"></path>
            <g id="Group" transform="translate(4.816240, 0.969540)">
                <g id="Clipped">
                    <mask id="mask-2" fill="white">
                        <use xlink:href="#path-1"></use>
                    </mask>
                    <g id="a"></g>
                    <polygon id="Path" fill="#FFFFFF" fill-rule="nonzero" mask="url(#mask-2)" points="2.47962019 2.76848021 0.0700700054 2.74846021 0.0700700054 0.00858000066 2.47962019 0.00858000066"></polygon>
                </g>
            </g>
            <path d="M11.0210108,5.47547042 L8.20820063,6.34205049 L7.40168057,4.06120031 L10.3103008,3.17460024 L11.0210108,5.47547042 Z M9.89131076,8.91605068 L7.97940061,10.3818008 L6.19476048,8.06091062 L8.14814062,6.64235051 L9.89131076,8.91605068 Z M1.02102008,5.47547042 L3.83383029,6.34205049 L4.64035036,4.06120031 L1.73173013,3.17460024 L1.02102008,5.47547042 Z M2.15072016,8.91605068 L4.06120031,10.3818008 L5.84584045,8.06091062 L3.8924603,6.64235051 L2.15072016,8.91605068 Z M22.9271918,8.18532073 C22.0668533,8.18557609 21.2717314,7.72682703 20.841341,6.98187976 C20.4109505,6.2369325 20.4106779,5.31896225 20.840626,4.57375954 C21.270574,3.82855683 22.0654233,3.36933568 22.9257618,3.36908026 C24.2557298,3.36908026 25.3338819,4.44723242 25.3338819,5.77720044 C25.3338819,7.10716847 24.2557298,8.18532073 22.9257618,8.18532073" id="Shape" fill="#FFFFFF" fill-rule="nonzero"></path>
            <g id="Group" transform="translate(21.675942, 0.969540)">
                <g id="Clipped">
                    <mask id="mask-4" fill="white">
                        <use xlink:href="#path-3"></use>
                    </mask>
                    <g id="c"></g>
                    <polygon id="Path" fill="#FFFFFF" fill-rule="nonzero" mask="url(#mask-4)" points="2.47962019 2.76848021 0.0700700054 2.74846021 0.0700700054 0.00858000066 2.47962019 0.00858000066"></polygon>
                </g>
            </g>
            <path d="M27.8807121,5.47547042 L25.0679019,6.34205049 L24.2599519,4.06120031 L27.1700021,3.17460024 L27.8807121,5.47547042 Z M26.7495821,8.91605068 L24.8405319,10.3803708 L23.0558918,8.05948062 L25.0092719,6.64092051 L26.7495821,8.91605068 Z M17.8792914,5.47547042 L20.6921016,6.34205049 L21.5000516,4.06120031 L18.5900014,3.17460024 L17.8792914,5.47547042 Z M19.0104215,8.91605068 L20.9194716,10.3803708 L22.7041117,8.05948062 L20.7507316,6.64092051 L19.0104215,8.91605068 Z M39.7854631,8.18532063 C38.455495,8.18532063 37.3773429,7.1071685 37.3773429,5.77720044 C37.3773429,4.44723239 38.455495,3.36908026 39.7854631,3.36908026 C41.1154311,3.36908026 42.1935832,4.44723242 42.1935832,5.77720044 C42.1935832,7.10716847 41.1154311,8.18532063 39.7854631,8.18532063" id="Shape" fill="#FFFFFF" fill-rule="nonzero"></path>
            <g id="Group" transform="translate(38.534213, 0.969540)">
                <g id="Clipped">
                    <mask id="mask-6" fill="white">
                        <use xlink:href="#path-5"></use>
                    </mask>
                    <g id="e"></g>
                    <polygon id="Path" fill="#FFFFFF" fill-rule="nonzero" mask="url(#mask-6)" points="2.47962019 2.76848021 0.0700700054 2.74846021 0.0700700054 0.00858000066 2.47962019 0.00858000066"></polygon>
                </g>
            </g>
            <path d="M44.7389834,5.47547042 L41.9261732,6.34205049 L41.1196532,4.06120031 L44.0282734,3.17460024 L44.7389834,5.47547042 Z M43.6092833,8.91605068 L41.6988032,10.3818008 L39.9141631,8.06091062 L41.8675432,6.64235051 L43.6092833,8.91605068 Z M34.7389927,5.47547042 L37.5518029,6.34205049 L38.3583229,4.06120031 L35.4497027,3.17460024 L34.7389927,5.47547042 Z M35.8686928,8.91605068 L37.7791729,10.3803708 L39.563813,8.05948062 L37.6104329,6.64092051 L35.8686928,8.91605068 Z" id="Shape" fill="#FFFFFF" fill-rule="nonzero"></path>
        </g>
    </g>
</svg>