<?xml version="1.0" encoding="UTF-8"?>
<svg width="365px" height="240px" viewBox="0 0 365 240" version="1.1" xmlns="http://www.w3.org/2000/svg" xmlns:xlink="http://www.w3.org/1999/xlink">
    <!-- Generator: Sketch 61 (89581) - https://sketch.com -->
    <title>Op Ok/Efectivo green</title>
    <desc>Created with Sketch.</desc>
    <defs>
        <linearGradient x1="50%" y1="71.8844426%" x2="16.1205425%" y2="11.7660793%" id="linearGradient-1">
            <stop stop-color="#B7B7B7" stop-opacity="0" offset="0%"></stop>
            <stop stop-color="#6A7594" offset="100%"></stop>
        </linearGradient>
    </defs>
    <g id="Op-Ok/Efectivo-green" stroke="none" stroke-width="1" fill="none" fill-rule="evenodd">
        <path d="M61.9013498,171.3942 L126.664964,230.714621 C249.854467,172.690681 311.449219,143.678711 311.449219,143.678711 C311.449219,143.678711 281.282552,112.619141 220.949219,50.5 L50.078125,59.5146484 L48,150.568784 L63.5659,163.661642 L61.9013498,171.3942 Z" id="Path-2" fill-opacity="0.3" fill="url(#linearGradient-1)"></path>
        <g id="Ko-efectivo" transform="translate(42.000000, 48.000000)" fill-rule="nonzero">
            <path d="M19.2,116.4 L19.1,115.1 L17.8,114.5 L17.8,116.4 C17.8,123 23.3,126.4 30.1,126.4 L125.3,126.4 C125.4,122.2 126.1,120.2 127.3,116.4 L127.3,114.5 L19.2,116.4 Z" id="Path" fill="#16623A"></path>
            <path d="M169.7,2.5 L17.2,2.5 C7.9,2.5 0.3,10.1 0.3,19.4 L0.3,90.1 C0.3,99.4 7.9,107 17.2,107 L129.9,107 C132.5,102.4 136.1,98.3 140.2,95 C140.2,94.2 140.2,92.7 140.2,92.7 L17.2,95 C14.5,95 12.3,92.8 12.3,90.1 L12.3,19.3 C12.3,16.6 14.5,14.4 17.2,14.4 L169.7,14.4 C172.4,14.4 174.6,16.6 174.6,19.3 L174.6,86.7 C178.9,87.6 182.9,89.1 186.5,91.2 C186.5,90.8 186.6,90.5 186.6,90.1 L186.6,19.3 C186.6,10 179,2.5 169.7,2.5 Z" id="Path" fill="#16623A"></path>
            <path d="M17.2,92.6 C14.5,92.6 12.3,90.4 12.3,87.7 L12.3,17 C12.3,14.3 14.5,12.1 17.2,12.1 L116.6,12.1 L116.6,0.1 L17.2,0.1 C7.9,0.1 0.3,7.7 0.3,17 L0.3,87.7 C0.3,97 7.9,104.6 17.2,104.6 L116.6,104.6 L116.6,92.6 L17.2,92.6 Z" id="Path" fill="#15A964"></path>
            <path d="M160,23.7 L27,23.7 C24.5,23.7 22.5,25.7 22.5,28.2 L22.5,81.2 C22.5,83.7 24.5,85.7 27,85.7 L160,85.7 C162.5,85.7 164.5,83.7 164.5,81.2 L164.5,28.2 C164.5,25.7 162.5,23.7 160,23.7 Z" id="Path" fill="#16623A"></path>
            <path d="M27,21.4 C24.5,21.4 22.5,23.4 22.5,25.9 L22.5,78.9 C22.5,81.4 24.5,83.4 27,83.4 L116.6,83.4 L116.6,21.4 L27,21.4 Z" id="Path" fill="#15A964"></path>
            <g id="Group" transform="translate(116.000000, 0.000000)" fill="#278252">
                <path d="M58.6,17 L58.6,84.4 C62.9,85.3 66.9,86.8 70.5,88.9 C70.5,88.5 70.6,88.2 70.6,87.8 L70.6,17 C70.6,7.7 63,0.1 53.7,0.1 L0.5,0.1 L0.5,12.1 L53.7,12.1 C56.4,12.2 58.6,14.3 58.6,17 Z" id="Path"></path>
                <path d="M24.2,92.6 L0.6,92.6 L0.6,104.6 L13.9,104.6 C16.5,100 20,95.9 24.2,92.6 Z" id="Path"></path>
            </g>
            <g id="Group" transform="translate(139.000000, 101.000000)">
                <path d="M16.408637,37.3345327 C15.0412506,37.3345327 13.7715346,36.8458608 12.6971596,35.7707827 L2.24642054,25.4109385 C0.195340917,23.3585166 0.195340917,20.0355477 2.24642054,18.0808601 C4.29750017,16.1261725 7.61829576,16.0284381 9.57170493,18.0808601 L16.3109666,24.8245322 L38.6775015,2.44335947 C40.7285812,0.390937516 44.0493768,0.390937516 46.0027859,2.44335947 C47.9561951,4.49578143 48.0538655,7.81875031 46.0027859,9.77343789 L19.9247735,35.8685171 C19.0457394,36.8458608 17.7760234,37.3345327 16.408637,37.3345327 Z" id="Path" fill="#278252"></path>
                <path d="M38.775172,2.34562509 L16.408637,24.7267979 L9.66937538,17.9831257 C7.61829576,15.9307038 4.29750017,15.9307038 2.344091,17.9831257 C2.24642054,18.0808601 2.14875009,18.1785945 2.05107963,18.2763289 C2.14875009,18.3740632 2.24642054,18.4717976 2.344091,18.569532 L12.7948301,29.0271105 C13.7715346,30.0044543 15.1389211,30.5908606 16.5063075,30.5908606 C17.8736939,30.5908606 19.1434099,30.1021887 20.2177849,29.0271105 L46.0027859,3.02976575 C46.1004564,2.93203137 46.1981268,2.83429699 46.2957973,2.73656261 C46.1981268,2.63882823 46.1004564,2.54109385 46.0027859,2.44335947 C44.3861973,0.612076602 40.9904869,0.141882866 38.775172,2.34562509 Z" id="Path" fill="#15A964"></path>
            </g>
            <path d="M164.5,78.9 L164.5,25.9 C164.5,23.4 162.5,21.4 160,21.4 L116.6,21.4 L116.6,83.5 L160,83.5 C162.5,83.4 164.5,81.4 164.5,78.9 Z" id="Path" fill="#278252"></path>
            <path d="M106.2,59.3 C105.5,53.5 99.5,51.2 96.8,50.3 L96.8,41.1 C98.5,41.8 99.8,42.9 100.6,44.5 C101.4,45.9 103.2,46.5 104.7,45.7 C106.1,44.9 106.7,43.1 105.9,41.6 C104,38.2 100.8,35.8 96.8,34.9 L96.8,28.3 L90.8,28.3 L90.8,34.6 C87.7,35.1 84.7,36.6 83,38.7 C81.3,40.7 80.6,43.2 80.9,45.8 C81,46.5 81.2,47.2 81.4,47.8 C83,51.7 86.8,53.5 90.8,54.8 L90.8,64.3 C89.2,63.8 87.4,62.9 86.6,61 C85.9,59.5 84.1,58.8 82.6,59.5 C81.9,59.8 81.3,60.4 81,61.2 C80.7,62 80.8,62.8 81.1,63.5 C82.8,67.1 86.3,69.6 90.8,70.5 L90.8,76.8 L96.8,76.8 L96.8,70.6 C101.3,69.7 106,66.5 106.3,61.3 C106.3,60.5 106.2,59.9 106.2,59.3 Z M100.2,60.7 C100.1,62.5 98.4,63.6 96.7,64.2 L96.7,56.7 C98.9,57.7 100,58.8 100.2,60 C100.2,60.3 100.2,60.5 100.2,60.7 Z M86.7,44.9 C86.6,44 86.8,43.2 87.4,42.5 C88.1,41.7 89.3,41 90.6,40.6 L90.6,48.3 C89,47.7 87.3,46.8 86.8,45.4 C86.8,45.3 86.8,45.1 86.7,44.9 Z" id="Shape" fill="#FFFFFF"></path>
            <path d="M127.3,114.5 L17.9,114.5 C17.9,121.1 23.4,124.5 30.2,124.5 L125.4,124.5 C125.4,120.3 126.1,118.3 127.3,114.5 Z" id="Path" fill="#0F9A5A"></path>
        </g>
    </g>
</svg>