<?xml version="1.0" encoding="UTF-8"?>
<svg  width="367px" height="410px" viewBox="0 0 367 365" version="1.1" xmlns="http://www.w3.org/2000/svg" xmlns:xlink="http://www.w3.org/1999/xlink">
    <title>Group 6 + Group 4 Mask</title>


<style type="text/css">

  .myCircle{
     animation: pulse-black 2s infinite;
 }

 @keyframes pulse-black {
	0% {r:130;opacity: 1;}
    

    15% {r:130;opacity: 1;}

	90% {r:150;}

    100% {r:150;opacity:0;}
    
}


.myCircle2{
     animation: pulse-black2 2s infinite;
 }

 @keyframes pulse-black2 {
	0% {r:130;opacity: 1;}
    
	

	90% {r:175;}

     100% {r:170;opacity:0;}
    
    
}

	</style>






    <defs>
        <linearGradient x1="50.2936704%" y1="4.48288543%" x2="49.6988331%" y2="96.6776874%" id="linearGradient-1">
            <stop stop-color="#00B472" offset="0.05993717%"></stop>
            <stop stop-color="#007657" offset="99.52%"></stop>
        </linearGradient>
        <circle id="path-2" cx="132.5" cy="132.5" r="132.5"></circle>
        <linearGradient x1="50%" y1="0.20287%" x2="50%" y2="100%" id="linearGradient-4">
            <stop stop-color="#6C7385" offset="0%"></stop>
            <stop stop-color="#8991A8" offset="100%"></stop>
        </linearGradient>
        <linearGradient x1="50%" y1="0.960123797%" x2="50%" y2="99.79%" id="linearGradient-5">
            <stop stop-color="#848DA4" offset="0%"></stop>
            <stop stop-color="#A4ADC8" offset="100%"></stop>
        </linearGradient>
    </defs>



    <g id="Symbols" stroke="none" stroke-width="1" fill="none" fill-rule="evenodd">


<g id="Cajero/No-hay-efectivo" transform="translate(-50.000000, -50.000000)">
<g id="Group-6-+-Group-4-Mask" transform="translate(50.000000, 50.000000)">




<circle class="myCircle" id="Oval" fill="#EE862A" fill-opacity="0.8" cx="182.199998" cy="152.199998" r="130.199998"></circle>
<circle class="myCircle2" id="Oval" fill="#EE862A" fill-opacity="0.4" cx="182.199998" cy="152.199998" r="130.199998"></circle>



                <mask id="mask-3" fill="white" >
                    <use xlink:href="#path-2"></use>
                </mask>
                <use id="Mask" fill="url(#linearGradient-1)" fill-rule="nonzero" xlink:href="#path-2" transform="translate(50, 20)"></use>
                <g id="Group-6" mask="url(#mask-3)" transform="translate(50, 20)">
                
                    <g transform="translate(76.000000, 41.000000)">
                        <path d="M198.978603,204.5 L-55.6786096,204.5 C-59.1553743,204.5 -62,201.413713 -62,197.641589 L-62,71.8584069 C-62,68.0862831 -59.1553743,65 -55.6786096,65 L198.978603,65 C202.455367,65 205.299993,68.0862831 205.299993,71.8584069 L205.299993,197.641589 C205.299993,201.448005 202.455367,204.5 198.978603,204.5 Z" id="Path" fill="url(#linearGradient-4)" fill-rule="nonzero" transform="translate(71.649996, 134.749998) rotate(-270.000000) translate(-71.649996, -134.749998) "></path>
                        <polygon id="Rectangle" fill="#909AB5" fill-rule="nonzero" transform="translate(72.000002, 61.299998) rotate(-270.000000) translate(-72.000002, -61.299998) " points="65.7000018 -7.70000184 78.3000015 -7.70000184 78.3000015 130.299998 65.7000018 130.299998"></polygon>
                        <path d="M103.770566,84.3069135 L103.770566,84.3069135 C99.4437736,84.3069135 95.9411322,80.7801167 95.9411322,76.4234854 L95.9411322,56.2999982 L29.7000018,56.2999982 L29.7000018,196.299998 L95.9411322,196.299998 L95.9411322,184.33655 C95.9411322,179.979919 99.4437736,176.453122 103.770566,176.453122 L103.770566,176.453122 C108.097358,176.453122 111.6,172.926326 111.6,168.569694 L111.6,92.1903415 C111.6,87.8337102 108.097358,84.3069135 103.770566,84.3069135 Z" id="Path" fill="#909AB5" fill-rule="nonzero" transform="translate(70.650001, 126.299998) rotate(-270.000000) translate(-70.650001, -126.299998) "></path>
                        <polygon id="Rectangle" fill="#A5B0CF" fill-rule="nonzero" transform="translate(46.899999, 36.224999) rotate(-270.000000) translate(-46.899999, -36.224999) " points="11.5749997 3.37499991 82.2249978 3.37499991 82.2249978 69.0749982 11.5749997 69.0749982"></polygon>
                        <g id="Group" opacity="0.5" stroke-width="1" fill="none" fill-rule="evenodd" transform="translate(74.749997, 24.950000) rotate(-270.000000) translate(-74.749997, -24.950000) translate(51.249997, -29.550000)">
                            <path d="M36.118661,98.9278627 L36.1522525,103.413688 L17.8112671,103.413688 L17.8112671,103.55066 C18.1807741,104.269762 20.5321825,107.899514 21.1368304,108.858316 L17.0386615,108.858316 C16.333239,107.865271 14.0826052,104.304005 13.5451405,103.310959 L13.5451405,98.9278627 L36.118661,98.9278627 Z M46.6664072,58.0417886 L46.6664072,102.900044 L40.2504214,102.900044 L40.2504214,58.0417886 L46.6664072,58.0417886 Z M25.6380979,77.4575373 C31.9197174,77.4575373 36.5553511,80.4024304 36.5553511,86.1894878 C36.5553511,91.8053305 32.1884498,94.8529524 25.6380979,94.8529524 L24.0592951,94.8529524 C17.5089432,94.8529524 13.1420419,91.7026017 13.1420419,86.1210019 C13.1420419,80.5051593 17.4753516,77.4575373 24.0592951,77.4575373 L25.6380979,77.4575373 Z M25.6045063,81.9433629 L24.0928867,81.9433629 C19.2892952,81.9433629 16.8035207,83.5527812 16.8035207,86.1210019 C16.8035207,88.6549797 19.2892952,90.298641 24.0928867,90.298641 L25.6045063,90.298641 C30.4416893,90.298641 32.9274639,88.6549797 32.9274639,86.1210019 C32.9274639,83.5870241 30.4080978,81.9433629 25.6045063,81.9433629 Z M25.6380979,57.3911727 C31.9197174,57.3911727 36.5553511,60.3360658 36.5553511,66.1231232 C36.5553511,71.7389658 32.1884498,74.7865878 25.6380979,74.7865878 L24.0592951,74.7865878 C17.5089432,74.7865878 13.1420419,71.636237 13.1420419,66.0546373 C13.1420419,60.4387946 17.4753516,57.3911727 24.0592951,57.3911727 L25.6380979,57.3911727 Z M25.6045063,61.8769982 L24.0928867,61.8769982 C19.2892952,61.8769982 16.8035207,63.4864165 16.8035207,66.0546373 C16.8035207,68.5886151 19.2892952,70.2322763 24.0928867,70.2322763 L25.6045063,70.2322763 C30.4416893,70.2322763 32.9274639,68.5886151 32.9274639,66.0546373 C32.9274639,63.5206595 30.4080978,61.8769982 25.6045063,61.8769982 Z M8.96894342,0.308186488 L8.96894342,32.5650389 L0.0671830968,32.5650389 L0.0671830968,0.308186488 L8.96894342,0.308186488 Z" id="Combined-Shape" fill="#191A1B" fill-rule="nonzero"></path>
                        </g>
                        <path d="M198.978603,204.5 L-55.6786096,204.5 C-59.1553743,204.5 -62,201.413713 -62,197.641589 L-62,71.8584069 C-62,68.0862831 -59.1553743,65 -55.6786096,65 L198.978603,65 C202.455367,65 205.299993,68.0862831 205.299993,71.8584069 L205.299993,197.641589 C205.299993,201.448005 202.455367,204.5 198.978603,204.5 Z" id="Path" fill="url(#linearGradient-4)" fill-rule="nonzero" opacity="0.4" style="mix-blend-mode: multiply;" transform="translate(71.649996, 134.749998) rotate(-270.000000) translate(-71.649996, -134.749998) "></path>
                    </g>
                </g>
                <g id="Group-4" mask="url(#mask-3)" transform="translate(50, 20)">
                    <g transform="translate(36.000000, 87.000000)">
                        <path d="M197.376021,204.299995 L-56.0760249,204.299995 C-59.8842103,204.299995 -62.9999983,201.1938 -62.9999983,197.39734 L-62.9999983,70.802653 C-62.9999983,67.0061929 -59.8842103,63.8999983 -56.0760249,63.8999983 L197.376021,63.8999983 C201.184207,63.8999983 204.299995,67.0061929 204.299995,70.802653 L204.299995,197.39734 C204.299995,201.228313 201.218826,204.299995 197.376021,204.299995 Z" id="Path" fill="url(#linearGradient-5)" fill-rule="nonzero" transform="translate(70.649998, 134.099996) rotate(-270.000000) translate(-70.649998, -134.099996) "></path>
                        <polygon id="Path" fill="#B3BEDE" fill-rule="nonzero" transform="translate(70.649998, 134.549996) rotate(-270.000000) translate(-70.649998, -134.549996) " points="204.299995 147.682841 187.47038 147.682841 187.47038 64.7999983 119.147684 64.7999983 119.147684 147.682841 -62.9999983 147.682841 -62.9999983 191.905336 119.147684 191.905336 119.147684 204.299995 187.47038 204.299995 187.47038 186.858203 204.299995 186.858203"></polygon>
                        <g id="Group" stroke-width="1" fill="none" fill-rule="evenodd" transform="translate(35.099999, 33.200000) rotate(-270.000000) translate(-35.099999, -33.200000) translate(18.099999, 15.200000)" opacity="0.5">
                            <g fill="#141415" fill-rule="nonzero">
                                <path d="M16.9604077,31.7423069 C18.7751015,31.4653838 19.8918362,29.9076915 19.8918362,27.7269223 C19.8918362,25.7192301 18.3214281,23.6076917 15.6342853,23.6076917 C13.0867343,23.6076917 11.4116324,25.4076916 11.4116324,27.692307 C11.4116324,29.9076915 12.6679588,31.1538453 13.7846935,31.6384607 L13.7846935,35.4807683 L0.697959165,34.4423068 L0.697959165,20.9769225 L4.25755091,20.9769225 L4.25755091,30.946153 L9.98081606,31.4999992 L9.98081606,31.3615376 C9.24795894,30.8769223 8.06142836,29.1807685 8.06142836,26.6192301 C8.06142836,22.7423071 10.888163,19.3499995 15.4248976,19.3499995 C20.2757137,19.3499995 23.381632,22.9499994 23.381632,27.8307685 C23.381632,32.8499995 20.4502035,35.6192298 16.9604077,35.7576914 L16.9604077,31.7423069 Z" id="Path"></path>
                                <path d="M11.0626528,16.7538457 C4.57163253,16.7538457 0.279183666,13.7423073 0.279183666,8.34230747 C0.279183666,2.94230761 4.53673457,0.0346153837 11.0626528,0.0346153837 L12.5981629,0.0346153837 C18.8099995,0.0346153837 23.381632,2.87307685 23.381632,8.44615362 C23.381632,13.8461535 19.0542852,16.7538457 12.5981629,16.7538457 L11.0626528,16.7538457 Z M12.563265,12.3923074 C17.3093873,12.3923074 19.7871423,10.8346151 19.7871423,8.41153824 C19.7871423,5.953846 17.3093873,4.43076911 12.563265,4.43076911 L11.0626528,4.43076911 C6.31653044,4.43076911 3.87367337,5.98846138 3.87367337,8.41153824 C3.87367337,10.8346151 6.31653044,12.3923074 11.0626528,12.3923074 L12.563265,12.3923074 Z" id="Shape"></path>
                            </g>
                            <rect id="Rectangle" fill="#141415" fill-rule="nonzero" x="27.2553054" y="0.553846139" width="6.66551003" height="35.1692298"></rect>
                        </g>
                        <rect id="Rectangle" fill-opacity="0.33126639" fill="#909AB5" fill-rule="nonzero" transform="translate(70.649998, 105.749997) rotate(-270.000000) translate(-70.649998, -105.749997) " x="50.3999987" y="35.999999" width="40.4999989" height="139.499996"></rect>
                        <polygon id="Path" fill="#50555F" fill-rule="nonzero" opacity="0.5" transform="translate(114.299997, 19.249999) rotate(-270.000000) translate(-114.299997, -19.249999) " points="123.108594 33.1999991 95.3999975 33.1999991 95.3999975 5.29999983 133.199996 5.29999983"></polygon>
                    </g>
                </g>
            </g>
        </g>
    </g>
</svg>