<?xml version="1.0" encoding="UTF-8"?>
<svg width="367px" height="410px" viewBox="0 0 367 365" version="1.1" xmlns="http://www.w3.org/2000/svg" xmlns:xlink="http://www.w3.org/1999/xlink">
    <title>Cajero/Chip </title>

<style type="text/css">

  .myCircle{
     animation: pulse-black 2s infinite;
 }

 @keyframes pulse-black {
	0% {r:130;opacity: 1;}
    

    15% {r:130;opacity: 1;}

	90% {r:150;}

    100% {r:150;opacity:0;}
    
}


.myCircle2{
     animation: pulse-black2 2s infinite;
 }

 @keyframes pulse-black2 {
	0% {r:130;opacity: 1;}
    
	

	90% {r:175;}

     100% {r:170;opacity:0;}
    
    
}

	</style>

    <defs>
        <linearGradient x1="50.2936704%" y1="4.48288543%" x2="49.6988331%" y2="96.6776874%" id="linearGradient-1">
            <stop stop-color="#00B472" offset="0.05993717%"></stop>
            <stop stop-color="#007657" offset="99.52%"></stop>
        </linearGradient>
        <circle id="path-2" cx="132.5" cy="132.5" r="132.5"></circle>
        <linearGradient x1="68.6828637%" y1="31.0251206%" x2="-7.08034749%" y2="100.469795%" id="linearGradient-4">
            <stop stop-color="#B8C0D8" offset="0%"></stop>
            <stop stop-color="#4E5C88" offset="100%"></stop>
        </linearGradient>
        <linearGradient x1="71.8131877%" y1="11.1770876%" x2="26.4684135%" y2="50%" id="linearGradient-5">
            <stop stop-color="#FFFFFF" offset="0%"></stop>
            <stop stop-color="#BFD1FF" stop-opacity="0" offset="100%"></stop>
        </linearGradient>
        <linearGradient x1="127.683859%" y1="-40.3236555%" x2="41.1729539%" y2="50%" id="linearGradient-6">
            <stop stop-color="#FFFFFF" offset="0%"></stop>
            <stop stop-color="#BFD1FF" stop-opacity="0" offset="100%"></stop>
        </linearGradient>
    </defs>



    <g id="Symbols" stroke="none" stroke-width="1" fill="none" fill-rule="evenodd">
        <g id="Cajero/Chip" transform="translate(-10.000000, -10.000000)">
            <g id="Cajero/Huella-" transform="translate(10.000000, 10.000000)">



<circle class="myCircle" id="Oval" fill="#EE862A" fill-opacity="0.8" cx="182.5" cy="153.5" r="130.199998"></circle>
<circle class="myCircle2" id="Oval" fill="#EE862A" fill-opacity="0.4" cx="182.5" cy="153.5" r="130.199998"></circle>


                <g id="Group-6-+-Group-4-Mask" transform="translate(50.000000, 21.000000)">


                    <mask id="mask-3" fill="white">
                        <use xlink:href="#path-2"></use>
                    </mask>
                    <use id="Mask" fill="url(#linearGradient-1)" fill-rule="nonzero" xlink:href="#path-2"></use>
                    <g id="Group" mask="url(#mask-3)">
                        <g transform="translate(59.000000, 34.000000)">
                            <path d="M300.164168,192.720012 L12.6758517,192.720012 C5.70413325,192.720012 0,187.07024 0,180.164962 L0,12.5550496 C0,5.64977233 5.70413325,0 12.6758517,0 L300.164168,0 C307.135886,0 312.840019,5.64977233 312.840019,12.5550496 L312.840019,180.164962 C312.840019,187.07024 307.135886,192.720012 300.164168,192.720012 Z" id="Path" fill="url(#linearGradient-4)" fill-rule="nonzero"></path>
                            <polygon id="Path" fill="url(#linearGradient-5)" fill-rule="nonzero" opacity="0.719982329" points="165.689562 174.240011 92.4000057 174.240011 223.583223 0 297.000018 0"></polygon>
                            <polygon id="Path" fill="url(#linearGradient-6)" fill-rule="nonzero" opacity="0.719982329" points="76.6676442 174.240011 30.3600019 174.240011 160.93237 0 207.240013 0"></polygon>
                            <path d="M302.072048,188.487951 L12.3424552,188.487951 C5.59863947,188.487951 0.127241806,183.288561 0.127241806,176.880011 L0,181.112072 C0,187.520622 5.47139766,192.720012 12.2152134,192.720012 L301.944806,192.720012 C308.688622,192.720012 314.160019,187.520622 314.160019,181.112072 L314.160019,178.814667 C313.142085,184.376805 308.052413,188.487951 302.072048,188.487951 Z" id="Path" fill="#485C9D" fill-rule="nonzero" opacity="0.5"></path>
                            <path d="M79.2696735,149.160009 L26.3255396,149.160009 C23.4053596,149.160009 21.1200013,146.71318 21.1200013,143.880009 L21.1200013,143.880009 C21.1200013,140.918057 23.5323239,138.600009 26.3255396,138.600009 L79.2696735,138.600009 C82.1898535,138.600009 84.4752118,141.046838 84.4752118,143.880009 L84.4752118,143.880009 C84.6021761,146.71318 82.1898535,149.160009 79.2696735,149.160009 Z" id="Path" fill="#B5BFE6" fill-rule="nonzero" opacity="0.7"></path>
                            <path d="M52.886307,167.64001 L26.3089198,167.64001 C23.3980631,167.64001 21.1200013,165.193181 21.1200013,162.36001 L21.1200013,162.36001 C21.1200013,159.398059 23.524622,157.08001 26.3089198,157.08001 L52.886307,157.08001 C55.7971637,157.08001 58.0752255,159.526839 58.0752255,162.36001 L58.0752255,162.36001 C58.2017845,165.193181 55.7971637,167.64001 52.886307,167.64001 Z" id="Path" fill="#B5BFE6" fill-rule="nonzero" opacity="0.7"></path>
                            <path d="M99.090417,167.64001 L72.5095935,167.64001 C69.5983604,167.64001 67.3200041,165.193181 67.3200041,162.36001 L67.3200041,162.36001 C67.3200041,159.398059 69.7249358,157.08001 72.5095935,157.08001 L99.090417,157.08001 C102.00165,157.08001 104.280006,159.526839 104.280006,162.36001 L104.280006,162.36001 C104.280006,165.193181 102.00165,167.64001 99.090417,167.64001 Z" id="Path" fill="#B5BFE6" fill-rule="nonzero" opacity="0.7"></path>
                            <path d="M149.229678,149.160009 L96.2855439,149.160009 C93.3653639,149.160009 91.0800056,146.71318 91.0800056,143.880009 L91.0800056,143.880009 C91.0800056,140.918057 93.4923282,138.600009 96.2855439,138.600009 L149.229678,138.600009 C152.149858,138.600009 154.435216,141.046838 154.435216,143.880009 L154.435216,143.880009 C154.56218,146.71318 152.149858,149.160009 149.229678,149.160009 Z" id="Path" fill="#B5BFE6" fill-rule="nonzero" opacity="0.7"></path>
                            <g id="Group" opacity="0.8" stroke-width="1" fill="none" fill-rule="evenodd" transform="translate(21.120001, 76.560005)">
                                <g transform="translate(0.702547, 0.693126)" fill="#444E65" fill-rule="nonzero" id="Combined-Shape">
                                    <path d="M12.4385178,31.5971249 C16.045688,31.5971249 19.0309323,34.7025802 19.0309323,38.4550053 C19.0309323,41.6898545 16.9163842,44.2777339 14.0555251,45.0540977 L14.0555251,45.0540977 L6.96556998,45.0540977 C3.60717017,45.0540977 0.995081426,42.2074304 0.995081426,38.8431872 L0.995081426,38.8431872 L0.995081426,31.5971249 Z M61.1975077,31.5971249 L61.1975077,38.8431872 C61.1975077,42.3368243 58.5854189,45.0540977 55.2270191,45.0540977 L55.2270191,45.0540977 L48.137064,45.0540977 C45.2762049,44.4071278 43.1616568,41.6898545 43.1616568,38.4550053 C43.1616568,34.7025802 46.1469011,31.5971249 49.7540713,31.5971249 L49.7540713,31.5971249 L61.1975077,31.5971249 Z M44.1567383,0.0249965621 C42.4153458,1.57772419 41.2958792,4.03620959 41.2958792,6.62408897 C41.2958792,10.1177261 43.1616568,13.2231814 46.0225159,14.646515 C43.286042,16.1992427 41.2958792,19.1753039 41.2958792,22.6689411 C41.2958792,26.1625782 43.1616568,29.0092456 45.8981308,30.5619732 C43.1616568,32.1147008 41.2958792,35.0907621 41.2958792,38.4550053 C41.2958792,41.0428847 42.4153458,43.3719761 44.1567383,45.0540977 L44.1567383,45.0540977 L18.160236,45.0540977 C19.9016285,43.5013701 21.0210951,41.0428847 21.0210951,38.4550053 C21.0210951,34.9613681 19.1553174,32.1147008 16.4188435,30.5619732 C19.1553174,29.0092456 21.0210951,26.0331843 21.0210951,22.6689411 C21.0210951,19.1753039 19.1553174,16.0698487 16.2944583,14.646515 C19.0309323,13.0937874 21.0210951,10.1177261 21.0210951,6.62408897 C21.0210951,4.03620959 19.9016285,1.70711816 18.160236,0.0249965621 L18.160236,0.0249965621 Z M12.4385178,15.8110607 C16.045688,15.8110607 19.0309323,18.916516 19.0309323,22.6689411 C19.0309323,26.5507602 16.045688,29.5268214 12.4385178,29.5268214 L12.4385178,29.5268214 L0.995081426,29.5268214 L0.995081426,15.8110607 Z M61.1975077,15.8110607 L61.1975077,29.5268214 L49.7540713,29.5268214 C46.1469011,29.5268214 43.1616568,26.4213662 43.1616568,22.6689411 C43.1616568,18.916516 46.1469011,15.9404547 49.7540713,15.8110607 L49.7540713,15.8110607 L61.1975077,15.8110607 Z M14.0555251,0.154390531 C16.9163842,0.801360375 19.0309323,3.51863372 19.0309323,6.75348294 C19.0309323,10.505908 16.045688,13.6113633 12.4385178,13.6113633 L12.4385178,13.6113633 L0.995081426,13.6113633 L0.995081426,6.36530103 C0.995081426,2.87166387 3.73155535,0.154390531 6.96556998,0.154390531 L6.96556998,0.154390531 Z M55.2270191,0.154390531 C58.5854189,0.154390531 61.1975077,3.00105784 61.1975077,6.36530103 L61.1975077,6.36530103 L61.1975077,13.6113633 L49.7540713,13.6113633 C46.1469011,13.6113633 43.1616568,10.505908 43.1616568,6.75348294 C43.1616568,3.51863372 45.2762049,0.930754343 48.137064,0.154390531 L48.137064,0.154390531 Z"></path>
                                </g>
                            </g>
                        </g>
                    </g>
                </g>
            </g>
        </g>
    </g>
</svg>