<?xml version="1.0" encoding="UTF-8"?>
<svg  width="367px" height="410px" viewBox="0 0 367 365" version="1.1" xmlns="http://www.w3.org/2000/svg" xmlns:xlink="http://www.w3.org/1999/xlink">
    <title>Cajero/Huella </title>

<style type="text/css">

  .myCircle{
     animation: pulse-black 2s infinite;
 }

 @keyframes pulse-black {
	0% {r:130;opacity: 1;}
    

    15% {r:130;opacity: 1;}

	90% {r:150;}

    100% {r:150;opacity:0;}
    
}


.myCircle2{
     animation: pulse-black2 2s infinite;
 }

 @keyframes pulse-black2 {
	0% {r:130;opacity: 1;}
    
	

	90% {r:175;}

     100% {r:170;opacity:0;}
    
    
}

	</style>




    <defs>
        <linearGradient x1="50.2936704%" y1="4.48288543%" x2="49.6988331%" y2="96.6776874%" id="linearGradient-1">
            <stop stop-color="#00B472" offset="0.05993717%"></stop>
            <stop stop-color="#007657" offset="99.52%"></stop>
        </linearGradient>
        <circle id="path-2" cx="132.5" cy="132.5" r="132.5"></circle>
        <linearGradient x1="68.2463679%" y1="31.0251206%" x2="48.4224651%" y2="85.6777389%" id="linearGradient-4">
            <stop stop-color="#D8DEF1" offset="0%"></stop>
            <stop stop-color="#4E5C88" offset="100%"></stop>
        </linearGradient>
        <linearGradient x1="85.8611265%" y1="-11.2933284%" x2="24.7491155%" y2="49.7460132%" id="linearGradient-5">
            <stop stop-color="#FFFFFF" offset="0%"></stop>
            <stop stop-color="#BFD1FF" stop-opacity="0" offset="100%"></stop>
        </linearGradient>
        <linearGradient x1="85.8611265%" y1="-32.0100364%" x2="24.4948263%" y2="50%" id="linearGradient-6">
            <stop stop-color="#FFFFFF" offset="0%"></stop>
            <stop stop-color="#BFD1FF" stop-opacity="0" offset="99.5856208%"></stop>
        </linearGradient>
    </defs>



    <g id="✅-Ingreso-con-rostro" stroke="none" stroke-width="1" fill="none" fill-rule="evenodd">
        <g id="06-C-Reconocimiento-Facial" transform="translate(-608.000000, -212.000000)">
            <g id="Group" transform="translate(599.000000, 202.000000)">


<circle class="myCircle" id="Oval" fill="#EE862A" fill-opacity="0.8" cx="192.199998" cy="163.199998" r="130.199998"></circle>
<circle class="myCircle2" id="Oval" fill="#EE862A" fill-opacity="0.4" cx="192.199998" cy="163.199998" r="130.199998"></circle>


<g id="Group-6-+-Group-4-Mask" transform="translate(60.000000, 30.000000)">



                    <mask id="mask-3" fill="white">
                        <use xlink:href="#path-2"></use>
                    </mask>
                    <use id="Mask" fill="url(#linearGradient-1)" fill-rule="nonzero" xlink:href="#path-2"></use>
                    <g id="Group" mask="url(#mask-3)">
                        <g transform="translate(14.000000, 74.000000)">
                            <path d="M227.397083,146 L9.60291734,146 C4.3213128,146 0,141.71987 0,136.488599 L0,9.51140065 C0,4.28013029 4.3213128,0 9.60291734,0 L227.397083,0 C232.678687,0 237,4.28013029 237,9.51140065 L237,136.488599 C237,141.71987 232.678687,146 227.397083,146 Z" id="Path" fill="url(#linearGradient-4)" fill-rule="nonzero"></path>
                            <polygon id="Path" fill="url(#linearGradient-5)" fill-rule="nonzero" opacity="0.368722098" points="125.522388 132 70 132 169.381219 0 225 0"></polygon>
                            <polygon id="Path" fill="url(#linearGradient-6)" fill-rule="nonzero" opacity="0.368722098" points="58.0815451 132 23 132 121.918455 0 157 0"></polygon>
                            <path d="M228.842446,142.793893 L9.35034427,142.793893 C4.24139328,142.793893 0.0963953017,138.854962 0.0963953017,134 L0,137.206107 C0,142.061069 4.14499797,146 9.25394897,146 L228.746051,146 C233.855002,146 238,142.061069 238,137.206107 L238,135.465649 C237.228838,139.679389 233.373026,142.793893 228.842446,142.793893 Z" id="Path" fill="#485C9D" fill-rule="nonzero" opacity="0.5"></path>
                            <g id="Group" stroke-width="1" fill="none" fill-rule="evenodd" transform="translate(146.000000, 9.000000)">
                                <path d="M41.095172,7.27279424 C37.8815685,7.27279424 35.3496384,9.82810032 35.3496384,13.0713734 C35.3496384,16.3146465 37.8815685,18.8699526 41.095172,18.8699526 C44.3087755,18.8699526 46.8407055,16.3146465 46.8407055,13.0713734 C46.8407055,9.92638132 44.3087755,7.27279424 41.095172,7.27279424" id="Path" fill="#FFFFFF" fill-rule="nonzero"></path>
                                <path d="M44.1140116,1.47421505 C44.1140116,1.47421505 44.0166297,1.47421505 43.7244839,1.37593404 C45.0878308,0.982810032 46.7433236,0.589686019 48.5935801,0.196562006 C45.9642682,0.196562006 43.8218658,0.29484301 41.8742273,0.589686019 C41.5820816,0.589686019 41.3873177,0.687967022 41.095172,0.687967022 C40.8030262,0.687967022 40.6082623,0.589686019 40.3161166,0.589686019 C38.46586,0.29484301 36.2260758,0.196562006 33.5967638,0.196562006 C35.4470204,0.491405016 37.1025131,0.982810032 38.46586,1.37593404 C38.1737142,1.47421505 38.0763323,1.47421505 38.0763323,1.47421505 C29.506723,4.22608314 22.9821341,10.1229433 23.4690437,15.0369935 C23.8585714,19.0665146 27.9486122,21.1304157 34.570583,20.4424487 C30.8700699,19.7544816 29.3119591,17.8871426 29.1171953,15.0369935 C28.7276676,10.6143483 33.5967638,5.50373618 40.6082623,2.45702508 C40.6082623,2.45702508 40.8030262,2.35874408 41.095172,2.26046307 C41.3873177,2.35874408 41.5820816,2.45702508 41.5820816,2.45702508 C48.5935801,5.40545518 53.4626763,10.6143483 53.0731486,15.0369935 C52.7810028,17.8871426 51.320274,19.7544816 47.6197609,20.4424487 C54.2417317,21.1304157 58.3317725,19.0665146 58.7213002,15.0369935 C59.2082098,10.1229433 52.6836209,4.12780213 44.1140116,1.47421505" id="Path" fill="#FFFFFF" fill-rule="nonzero"></path>
                                <path d="M6.62197084,27.6169619 L6.62197084,27.6169619 C7.98531777,27.4203999 8.86175509,26.5358709 8.86175509,25.3564988 C8.86175509,23.6857218 7.30364431,23.3908788 6.42720699,23.3908788 L2.62931195,23.3908788 L0.779055393,32.137888 L4.67433236,32.137888 C6.62197084,32.137888 8.27746355,31.253359 8.27746355,29.38602 C8.27746355,28.4032099 7.59579008,27.8135239 6.62197084,27.6169619 M4.09004081,30.467111 L3.50574927,30.467111 L3.89527696,28.4032099 L4.47956851,28.4032099 C5.55076967,28.4032099 6.03767929,28.5014909 6.03767929,29.287739 C5.94029737,30.172268 5.16124198,30.467111 4.09004081,30.467111 M5.06386005,26.8307139 L4.18742273,26.8307139 L4.57695043,25.0616558 L5.16124198,25.0616558 C6.03767929,25.0616558 6.62197084,25.1599368 6.62197084,25.8479038 C6.62197084,26.4375899 6.03767929,26.8307139 5.06386005,26.8307139" id="Shape" fill="#FFFFFF" fill-rule="nonzero"></path>
                                <path d="M12.854414,25.4547798 C11.8805947,25.4547798 11.1015393,25.6513418 10.5172478,25.8479038 L10.322484,27.5186809 C11.1015393,27.1255569 11.588449,27.0272759 12.4648863,27.0272759 C13.2439417,27.0272759 13.6334694,27.4203999 13.6334694,27.9118049 C13.6334694,28.0100859 13.6334694,28.1083669 13.6334694,28.2066479 C13.3413236,28.2066479 12.854414,28.1083669 12.4648863,28.1083669 C10.5172478,28.1083669 8.86175509,28.8946149 8.86175509,30.467111 C8.86175509,31.744764 9.64081048,32.3344501 11.0041574,32.3344501 C11.8805947,32.3344501 12.6596501,32.039607 13.1465597,31.253359 L13.1465597,31.253359 L13.1465597,31.253359 L13.0491778,32.137888 L14.8994344,32.137888 C15.1915802,30.172268 15.6784898,28.6980529 15.6784898,27.7152429 C15.6784898,26.0444658 14.4125248,25.4547798 12.854414,25.4547798 M11.588449,30.761954 C11.1015393,30.761954 10.8093936,30.36883 10.8093936,30.073987 C10.8093936,29.484301 11.588449,29.0911769 12.6596501,29.189458 C12.7570321,29.189458 13.0491778,29.189458 13.2439417,29.189458 C13.1465597,30.073987 12.5622682,30.761954 11.588449,30.761954" id="Shape" fill="#FFFFFF" fill-rule="nonzero"></path>
                                <path d="M21.6187871,25.4547798 C20.4502041,25.4547798 19.7685306,25.9461848 19.0868571,26.6341519 L19.0868571,26.6341519 L19.281621,25.5530608 L17.2366006,25.5530608 C17.1392186,26.1427469 17.0418367,26.7324329 16.9444548,27.2238379 L15.9706355,32.039607 L18.2104198,32.039607 L18.7947113,28.9928959 C18.9894752,28.0100859 19.4763848,27.2238379 20.4502041,27.2238379 C21.0344956,27.2238379 21.3266414,27.6169619 21.3266414,28.0100859 C21.3266414,28.3049289 21.2292594,28.6980529 21.1318775,28.9928959 L20.547586,32.039607 L22.8847522,32.039607 L23.4690437,28.9928959 C23.5664256,28.3049289 23.6638075,28.0100859 23.6638075,27.6169619 C23.5664256,26.4375899 22.8847522,25.4547798 21.6187871,25.4547798" id="Path" fill="#FFFFFF" fill-rule="nonzero"></path>
                                <path d="M28.4355218,27.1255569 C28.9224314,27.1255569 29.4093411,27.2238379 29.8962507,27.5186809 L30.3831603,25.9461848 C29.7014868,25.6513418 28.9224314,25.5530608 28.3381399,25.5530608 C25.9035918,25.5530608 24.1507172,27.2238379 24.1507172,29.38602 C24.1507172,31.056797 25.3193003,32.3344501 27.1695568,32.3344501 C28.0459941,32.3344501 28.6302857,32.2361691 29.1171953,32.039607 L29.4093411,30.36883 C28.9224314,30.565392 28.5329038,30.663673 27.9486122,30.663673 C26.974793,30.663673 26.3905014,30.073987 26.3905014,29.287739 C26.4878833,27.8135239 27.2669387,27.1255569 28.4355218,27.1255569" id="Path" fill="#FFFFFF" fill-rule="nonzero"></path>
                                <path d="M34.1810553,25.4547798 C31.6491253,25.4547798 29.9936326,27.0272759 29.9936326,29.287739 C29.9936326,30.958516 30.9674519,32.2361691 33.304618,32.2361691 C35.7391661,32.2361691 37.4920408,31.056797 37.4920408,28.3049289 C37.5894227,26.7324329 36.4208396,25.4547798 34.1810553,25.4547798 M33.5967638,30.663673 C32.8177084,30.663673 32.4281807,30.073987 32.4281807,29.189458 C32.4281807,28.1083669 33.1098542,26.9289949 34.1810553,26.9289949 C35.0574927,26.9289949 35.3496384,27.5186809 35.3496384,28.2066479 C35.2522565,29.779144 34.667965,30.663673 33.5967638,30.663673" id="Shape" fill="#FFFFFF" fill-rule="nonzero"></path>
                                <path d="M44.7956851,23.3908788 L39.6344431,32.137888 L42.1663731,32.137888 L43.2375743,30.270549 L46.5485597,30.270549 L46.7433236,32.137888 L49.0804897,32.137888 L47.6197609,23.3908788 L44.7956851,23.3908788 Z M44.1140116,28.5997719 L45.9642682,25.1599368 L45.9642682,25.1599368 L46.3537959,28.5997719 L44.1140116,28.5997719 Z" id="Shape" fill="#FFFFFF" fill-rule="nonzero"></path>
                                <polygon id="Path" fill="#FFFFFF" fill-rule="nonzero" points="50.4438367 27.2238379 53.1705305 27.2238379 49.6647813 30.467111 49.3726355 32.137888 54.9234052 32.137888 55.3129329 30.467111 52.2940932 30.467111 55.8972244 27.3221189 56.1893702 25.6513418 50.7359824 25.6513418"></polygon>
                                <path d="M59.6951195,27.2238379 L61.3506122,27.2238379 L61.6427579,25.6513418 L60.0846472,25.6513418 L60.5715568,23.5874408 L58.2343906,24.2754078 L57.9422448,25.6513418 L56.6762798,25.6513418 L56.384134,27.2238379 L57.5527171,27.2238379 L57.1631894,29.0911769 C56.9684256,29.779144 56.9684256,30.073987 56.9684256,30.467111 C56.9684256,31.843045 57.8448629,32.4327311 59.013446,32.4327311 C59.5003556,32.4327311 59.8898833,32.3344501 60.3767929,32.3344501 L60.6689387,30.860235 C60.4741748,30.958516 60.1820291,31.056797 59.9872652,31.056797 C59.5003556,31.056797 59.3055918,30.761954 59.3055918,30.36883 C59.3055918,30.073987 59.4029737,29.680863 59.5003556,29.287739 L59.6951195,27.2238379 Z" id="Path" fill="#FFFFFF" fill-rule="nonzero"></path>
                                <path d="M65.2458891,25.4547798 C62.3244314,25.4547798 61.3506122,27.8135239 61.3506122,29.287739 C61.3506122,30.958516 62.5191953,32.2361691 64.6615976,32.2361691 C65.343271,32.2361691 66.1223264,32.137888 66.9013818,31.843045 L67.1935276,30.270549 C66.6092361,30.565392 65.7327987,30.761954 65.1485072,30.761954 C63.7851603,30.761954 63.3956326,30.172268 63.3956326,29.484301 L67.972583,29.484301 C68.0699649,29.0911769 68.1673468,28.5014909 68.1673468,28.3049289 C68.1673468,26.3393089 66.9013818,25.4547798 65.2458891,25.4547798 L65.2458891,25.4547798 Z M63.5903964,28.2066479 C63.7851603,27.6169619 64.2720699,26.9289949 65.2458891,26.9289949 C66.0249445,26.9289949 66.3170903,27.5186809 66.3170903,28.2066479 L63.5903964,28.2066479 Z" id="Shape" fill="#FFFFFF" fill-rule="nonzero"></path>
                                <path d="M73.0364431,27.1255569 C73.5233527,27.1255569 74.0102623,27.2238379 74.4971719,27.5186809 L74.9840815,25.9461848 C74.3024081,25.6513418 73.5233527,25.5530608 72.9390611,25.5530608 C70.504513,25.5530608 68.7516384,27.2238379 68.7516384,29.38602 C68.7516384,31.056797 69.9202215,32.3344501 71.770478,32.3344501 C72.6469154,32.3344501 73.2312069,32.2361691 73.7181165,32.039607 L74.0102623,30.36883 C73.5233527,30.565392 73.133825,30.663673 72.5495334,30.663673 C71.5757142,30.663673 70.9914226,30.073987 70.9914226,29.287739 C70.9914226,27.8135239 71.86786,27.1255569 73.0364431,27.1255569" id="Path" fill="#FFFFFF" fill-rule="nonzero"></path>
                                <path d="M78.5872127,25.4547798 C77.6133935,25.4547798 76.8343381,25.6513418 76.2500465,25.8479038 L76.0552827,27.5186809 C76.8343381,27.1255569 77.3212477,27.0272759 78.197685,27.0272759 C78.9767404,27.0272759 79.3662681,27.4203999 79.3662681,27.9118049 C79.3662681,28.0100859 79.3662681,28.1083669 79.3662681,28.2066479 C79.0741223,28.2066479 78.5872127,28.1083669 78.197685,28.1083669 C76.2500465,28.1083669 74.5945538,28.8946149 74.5945538,30.467111 C74.5945538,31.744764 75.3736092,32.3344501 76.7369562,32.3344501 C77.6133935,32.3344501 78.3924489,32.039607 78.8793585,31.253359 L78.8793585,31.253359 L78.8793585,31.253359 L78.7819766,32.137888 L80.6322331,32.137888 C80.9243789,30.172268 81.4112885,28.6980529 81.4112885,27.7152429 C81.4112885,26.0444658 80.1453235,25.4547798 78.5872127,25.4547798 M77.4186296,30.761954 C76.93172,30.761954 76.6395742,30.36883 76.6395742,30.073987 C76.6395742,29.484301 77.4186296,29.0911769 78.4898308,29.189458 C78.5872127,29.189458 78.8793585,29.189458 79.0741223,29.189458 C78.8793585,30.073987 78.3924489,30.761954 77.4186296,30.761954" id="Shape" fill="#FFFFFF" fill-rule="nonzero"></path>
                            </g>
                            <path d="M60.0527792,113 L19.9435894,113 C17.7313319,113 16,111.146341 16,109 L16,109 C16,106.756098 17.827517,105 19.9435894,105 L60.0527792,105 C62.2650367,105 63.9963686,106.853659 63.9963686,109 L63.9963686,109 C64.0925538,111.146341 62.2650367,113 60.0527792,113 Z" id="Path" fill="#BDC4E3" fill-rule="nonzero" opacity="0.7"></path>
                            <path d="M40.0653816,127 L19.9309986,127 C17.7258043,127 16,125.146341 16,123 L16,123 C16,120.756098 17.8216823,119 19.9309986,119 L40.0653816,119 C42.270576,119 43.9963802,120.853659 43.9963802,123 L43.9963802,123 C44.0922583,125.146341 42.270576,127 40.0653816,127 Z" id="Path" fill="#BDC4E3" fill-rule="nonzero" opacity="0.7"></path>
                            <path d="M75.0684932,127 L54.9315068,127 C52.7260274,127 51,125.146341 51,123 L51,123 C51,120.756098 52.8219178,119 54.9315068,119 L75.0684932,119 C77.2739726,119 79,120.853659 79,123 L79,123 C79,125.146341 77.2739726,127 75.0684932,127 Z" id="Path" fill="#BDC4E3" fill-rule="nonzero" opacity="0.7"></path>
                            <path d="M113.052779,113 L72.9435894,113 C70.7313319,113 69,111.146341 69,109 L69,109 C69,106.756098 70.827517,105 72.9435894,105 L113.052779,105 C115.265037,105 116.996369,106.853659 116.996369,109 L116.996369,109 C117.092554,111.146341 115.265037,113 113.052779,113 Z" id="Path" fill="#BDC4E3" fill-rule="nonzero" opacity="0.7"></path>
                            <g id="Group" opacity="0.8" stroke-width="1" fill="none" fill-rule="evenodd" transform="translate(16.000000, 58.000000)">
                                <g transform="translate(0.532233, 0.525096)" fill="#C1C9E8" fill-rule="nonzero" id="Combined-Shape">
                                    <path d="M9.42311898,23.9372144 C12.1558235,23.9372144 14.417372,26.2898319 14.417372,29.132578 C14.417372,31.5832212 12.8154418,33.5437357 10.6481245,34.1318901 L10.6481245,34.1318901 L5.27694663,34.1318901 C2.73270451,34.1318901 0.753849519,31.9753241 0.753849519,29.4266551 L0.753849519,29.4266551 L0.753849519,23.9372144 Z M46.3617454,23.9372144 L46.3617454,29.4266551 C46.3617454,32.0733498 44.3828904,34.1318901 41.8386483,34.1318901 L41.8386483,34.1318901 L36.4674705,34.1318901 C34.3001531,33.6417614 32.6982229,31.5832212 32.6982229,29.132578 C32.6982229,26.2898319 34.9597714,23.9372144 37.6924759,23.9372144 L37.6924759,23.9372144 L46.3617454,23.9372144 Z M33.4520724,0.0189367883 C32.1328357,1.19524552 31.284755,3.05773435 31.284755,5.01824891 C31.284755,7.66494356 32.6982229,10.017561 34.8655402,11.095844 C32.7924541,12.2721528 31.284755,14.5267445 31.284755,17.1734392 C31.284755,19.8201338 32.6982229,21.9766998 34.7713091,23.1530086 C32.6982229,24.3293173 31.284755,26.583909 31.284755,29.132578 C31.284755,31.0930925 32.1328357,32.8575556 33.4520724,34.1318901 L33.4520724,34.1318901 L13.7577537,34.1318901 C15.0769904,32.9555814 15.9250711,31.0930925 15.9250711,29.132578 C15.9250711,26.4858833 14.5116032,24.3293173 12.4385171,23.1530086 C14.5116032,21.9766998 15.9250711,19.7221081 15.9250711,17.1734392 C15.9250711,14.5267445 14.5116032,12.174127 12.3442859,11.095844 C14.417372,9.9195353 15.9250711,7.66494356 15.9250711,5.01824891 C15.9250711,3.05773435 15.0769904,1.29327125 13.7577537,0.0189367883 L13.7577537,0.0189367883 Z M9.42311898,11.9780756 C12.1558235,11.9780756 14.417372,14.3306931 14.417372,17.1734392 C14.417372,20.114211 12.1558235,22.3688027 9.42311898,22.3688027 L9.42311898,22.3688027 L0.753849519,22.3688027 L0.753849519,11.9780756 Z M46.3617454,11.9780756 L46.3617454,22.3688027 L37.6924759,22.3688027 C34.9597714,22.3688027 32.6982229,20.0161853 32.6982229,17.1734392 C32.6982229,14.3306931 34.9597714,12.0761013 37.6924759,11.9780756 L37.6924759,11.9780756 L46.3617454,11.9780756 Z M10.6481245,0.116962516 C12.8154418,0.607091156 14.417372,2.66563144 14.417372,5.11627464 C14.417372,7.95902075 12.1558235,10.3116382 9.42311898,10.3116382 L9.42311898,10.3116382 L0.753849519,10.3116382 L0.753849519,4.82219745 C0.753849519,2.1755028 2.8269357,0.116962516 5.27694663,0.116962516 L5.27694663,0.116962516 Z M41.8386483,0.116962516 C44.3828904,0.116962516 46.3617454,2.27352853 46.3617454,4.82219745 L46.3617454,4.82219745 L46.3617454,10.3116382 L37.6924759,10.3116382 C34.9597714,10.3116382 32.6982229,7.95902075 32.6982229,5.11627464 C32.6982229,2.66563144 34.3001531,0.705116883 36.4674705,0.116962516 L36.4674705,0.116962516 Z"></path>
                                </g>
                            </g>
                        </g>
                    </g>
                </g>
            </g>
        </g>
    </g>
</svg>