<svg id="Icon_Opciones_Borrar_Copy_4" data-name="Icon / Opciones / Borrar Copy 4" xmlns="http://www.w3.org/2000/svg" width="20" height="20" viewBox="0 0 20 20">
  <rect id="Icon_Opciones_Borrar_background" data-name="Icon / Opciones / Borrar background" width="20" height="20" fill="none"/>
  <path id="Path" d="M9.531,8.019,15.5,1.976a1.133,1.133,0,0,0,0-1.627,1.1,1.1,0,0,0-1.608,0L7.923,6.392,1.952.349a1.1,1.1,0,0,0-1.608,0,1.133,1.133,0,0,0,0,1.627L6.316,8.019.344,14.063A1.125,1.125,0,0,0,1.187,16a1.143,1.143,0,0,0,.842-.31L8,9.646l5.971,6.044a1.171,1.171,0,1,0,1.684-1.627Z" transform="translate(1 2)" fill="#6c7385" stroke="#6b7387" stroke-width="1"/>
</svg>
