<?xml version="1.0" encoding="UTF-8"?>
<svg width="367px" height="410px" viewBox="0 0 367 365" version="1.1" xmlns="http://www.w3.org/2000/svg" xmlns:xlink="http://www.w3.org/1999/xlink">
    <title>InsertBanknotes</title>

	<style type="text/css">


.slide-top {
    -webkit-animation: slide-top 1.5s cubic-bezier(0.52, 0.63, 0.38, 1.03) 1s infinite alternate-reverse both;
    animation: slide-top 1.5s cubic-bezier(0.52, 0.63, 0.38, 1.03) 1s infinite alternate-reverse both;
}


@-webkit-keyframes slide-top {
    0% {
        -webkit-transform: translate(37px, 27px);
        transform: translate(37px, 27px);
    }

    100% {
        top: 50%;
        -webkit-transform: translate(37px, 150px);
        transform: translate(37px, 50px);
    }
}

@keyframes slide-top {
    0% {
        -webkit-transform: translate(37px, 27px);
        transform: translate(37px, 27px);
    }

    100% {
        top: 50%;
        -webkit-transform: translate(37px, 50px);
        transform: translate(37px, 50px);
    }
}



.slide-top2 {
    -webkit-animation: slide-top2 1.5s cubic-bezier(0.52, 0.63, 0.38, 1.03) 1s infinite alternate-reverse both;
    animation: slide-top2 1.5s cubic-bezier(0.52, 0.63, 0.38, 1.03) 1s infinite alternate-reverse both;
}


@-webkit-keyframes slide-top2 {
    0% {
        -webkit-transform: translate(0, 27px);
        transform: translate(0, 27px);
    }

    100% {
        top: 50%;
        -webkit-transform: translate(0, 50px);
        transform: translate(0, 50px);
    }
}

@keyframes slide-top2 {
    0% {
        -webkit-transform: translate(0, 27px);
        transform: translate(0, 27px);
    }

    100% {
        top: 50%;
        -webkit-transform: translate(0, 50px);
        transform: translate(0, 50px);
    }
}



    	</style>




    <defs>
        <linearGradient x1="49.9998694%" y1="97.970523%" x2="49.9998694%" y2="-27.5075105%" id="linearGradient-1">
            <stop stop-color="#626777" offset="0%"></stop>
            <stop stop-color="#393F53" offset="100%"></stop>
        </linearGradient>
        <linearGradient x1="49.9999985%" y1="0%" x2="49.9999985%" y2="100%" id="linearGradient-2">
            <stop stop-color="#E9BA73" offset="0.20287%"></stop>
            <stop stop-color="#F6AB77" offset="100%"></stop>
        </linearGradient>
        <linearGradient x1="50%" y1="-7.61670762%" x2="50%" y2="82.3867568%" id="linearGradient-3">
            <stop stop-color="#FFFFAC" offset="0%"></stop>
            <stop stop-color="#FFFFFF" stop-opacity="0" offset="100%"></stop>
        </linearGradient>
        <linearGradient x1="49.9999985%" y1="0%" x2="49.9999985%" y2="100%" id="linearGradient-4">
            <stop stop-color="#E9BA73" offset="0.20287%"></stop>
            <stop stop-color="#F6AB77" offset="100%"></stop>
        </linearGradient>
        <linearGradient x1="50%" y1="-7.61670762%" x2="50%" y2="82.3867568%" id="linearGradient-5">
            <stop stop-color="#FFFFAC" offset="0%"></stop>
            <stop stop-color="#FFFFFF" stop-opacity="0" offset="100%"></stop>
        </linearGradient>
        <linearGradient x1="50%" y1="2.61613673e-15%" x2="50%" y2="100%" id="linearGradient-6">
            <stop stop-color="#C7E3A2" offset="0%"></stop>
            <stop stop-color="#5FC88C" offset="100%"></stop>
        </linearGradient>
        <linearGradient x1="50%" y1="0.785468827%" x2="50%" y2="90.1824251%" id="linearGradient-7">
            <stop stop-color="#E2FFA9" offset="0.02291165%"></stop>
            <stop stop-color="#FFFFFF" stop-opacity="0" offset="100%"></stop>
        </linearGradient>
        <linearGradient x1="50%" y1="8.73331779e-16%" x2="50%" y2="100%" id="linearGradient-8">
            <stop stop-color="#EBADCB" offset="0.03598797%"></stop>
            <stop stop-color="#EF6793" offset="99.79%"></stop>
        </linearGradient>
        <linearGradient x1="50%" y1="2.41157817%" x2="50%" y2="85.9048181%" id="linearGradient-9">
            <stop stop-color="#FFB5D5" offset="0%"></stop>
            <stop stop-color="#FFFFFF" stop-opacity="0" offset="100%"></stop>
        </linearGradient>
        <linearGradient x1="50.0001803%" y1="-33.0698791%" x2="50.0001803%" y2="88.5828205%" id="linearGradient-10">
            <stop stop-color="#E6E6E5" offset="0%"></stop>
            <stop stop-color="#7F7C86" offset="100%"></stop>
        </linearGradient>
    </defs>
    <g id="Symbols" stroke="none" stroke-width="1" fill="none" fill-rule="evenodd">
        <g id="Res/Ingreso-de-billetes" transform="translate(-1.000000, -30.000000)">
            <g id="Group-3" transform="translate(18.000000, 33.000000)">
                <path d="M165,0 C247.842712,0 315,67.1572875 315,150 C315,232.842712 247.842712,300 165,300 C82.1572875,300 15,232.842712 15,150 C15,67.1572875 82.1572875,0 165,0 Z M72.2,284 C76.618278,284 80.2,287.581722 80.2,292 C80.2,296.418278 76.618278,300 72.2,300 C67.781722,300 64.2,296.418278 64.2,292 C64.2,287.581722 67.781722,284 72.2,284 Z M319.2,200.4 C323.618278,200.4 327.2,203.981722 327.2,208.4 C327.2,212.818278 323.618278,216.4 319.2,216.4 C314.781722,216.4 311.2,212.818278 311.2,208.4 C311.2,203.981722 314.781722,200.4 319.2,200.4 Z M22,3 C33.045695,3 42,11.954305 42,23 C42,34.045695 33.045695,43 22,43 C10.954305,43 2,34.045695 2,23 C2,11.954305 10.954305,3 22,3 Z M64.2,3 C68.618278,3 72.2,6.581722 72.2,11 C72.2,15.418278 68.618278,19 64.2,19 C59.781722,19 56.2,15.418278 56.2,11 C56.2,6.581722 59.781722,3 64.2,3 Z" id="Combined-Shape" fill="#17A54D" fill-rule="nonzero" opacity="0.1"></path>
                <g id="Group-2" transform="translate(0.000000, 81.000000)">


                    <path  class="slide-top2" d="M163.448363,209.930003 L183.622249,223.592615 C184.390487,224.112898 184.591494,225.157451 184.071211,225.925689 C183.579832,226.651247 182.620818,226.870849 181.868598,226.454712 L181.738137,226.37465 L163.520193,214.036633 L146.670875,226.340448 C145.963157,226.85719 144.986364,226.739682 144.419094,226.093764 L144.323377,225.974314 C143.806635,225.266596 143.924143,224.289803 144.570062,223.722534 L144.689511,223.626817 L163.448363,209.930003 Z M163.142237,197 L190.548466,213.545404 C191.342778,214.024937 191.597956,215.057593 191.118422,215.851905 C190.665529,216.602089 189.719265,216.871378 188.946377,216.495014 L188.811921,216.421862 L163.211193,200.966633 L139.598872,216.390199 C138.865204,216.869384 137.895856,216.701167 137.362994,216.026584 L137.273627,215.902312 C136.794442,215.168644 136.962659,214.199295 137.637242,213.666433 L137.761514,213.577066 L163.142237,197 Z" id="Combined-Shape" fill="#0E8D72" fill-rule="nonzero"></path>
                    
                    
                    <g id="ingresa-billetes">
                        <path d="M310.431471,97.6006345 L18.2461431,97.6006345 C8.27476982,97.6006345 0.191914227,89.5177789 0.191914227,79.5464056 L0.191914227,18.0644371 C0.191914227,8.0930638 8.27476982,0.0102082036 18.2461431,0.0102082036 L310.431471,0.0102082036 C320.402844,0.0102082036 328.4857,8.0930638 328.4857,18.0644371 L328.4857,79.544364 C328.4857,89.5157372 320.402844,97.6006345 310.431471,97.6006345 Z" id="Path" fill="url(#linearGradient-1)" fill-rule="nonzero"></path>
                        <rect id="Rectangle" fill="#2D3544" fill-rule="nonzero" x="7.33561509" y="49.8262417" width="314.004342" height="18.5789305"></rect>
                        <path d="M321.339957,64.3218908 L7.33561509,64.3218908 L7.33561509,71.855545 C7.33561509,82.0147492 15.5715937,90.2507279 25.730798,90.2507279 L302.944774,90.2507279 C313.103979,90.2507279 321.339957,82.0147492 321.339957,71.855545 L321.339957,64.3218908 Z" id="Path" fill="#454D5E" fill-rule="nonzero"></path>
                        
                        
                        <g id="Group-8" class="slide-top" transform="translate(37.000000, 27.000000)">



                            <g id="100-copy-2" transform="translate(16.799999, 42.399997)" fill-rule="nonzero">
                                <path d="M214.202859,104.059092 L5.33951948,104.059092 C2.48831976,104.059092 0.155519985,101.681329 0.155519985,98.868921 L0.155519985,5.11346889 C0.155519985,2.301061 2.48831976,0 5.33951948,0 L214.176939,0 C217.028139,0 219.361153,2.301061 219.361153,5.11346889 L219.361153,98.8944883 C219.386859,101.706896 217.054059,104.059092 214.202859,104.059092 Z" id="Path" fill="url(#linearGradient-2)"></path>
                                <polygon id="Path" fill="#F0D7B1" opacity="0.6" points="219.309099 39.5015472 206.71198 39.5015472 206.71198 0 155.597745 0 155.597745 104.059092 206.71198 104.059092 206.71198 92.2214114 219.309099 92.2214114"></polygon>
                                <rect id="Rectangle" fill="#FFD199" opacity="0.6" x="41.8607959" y="0" width="9.53855907" height="104.084659"></rect>
                                <path d="M118.869108,21.0674918 L118.869108,21.0674918 C115.603189,21.0674918 112.959349,18.4596227 112.959349,15.2381373 L112.959349,0 L62.9596738,0 L62.9596738,104.059092 L112.959349,104.059092 L112.959349,95.0338193 C112.959349,91.8123339 115.603189,89.2044648 118.869108,89.2044648 L118.869108,89.2044648 C122.135028,89.2044648 124.778868,86.5965956 124.778868,83.3751102 L124.778868,26.8968464 C124.778868,23.675361 122.135028,21.0674918 118.869108,21.0674918 Z" id="Path" fill="#FFD199" opacity="0.6"></path>
                                <rect id="Rectangle" fill="#C3BE90" x="51.7103949" y="0" width="11.0678389" height="104.084659"></rect>
                                <rect id="Rectangle" fill="#EDD4A8" x="0.155519985" y="45.7144119" width="54.1987147" height="48.9358973"></rect>
                                <rect id="Rectangle" fill="#DEB489" x="41.8607959" y="70.0033891" width="9.92735903" height="34.0557028"></rect>
                                <g id="Group" opacity="0.5" transform="translate(0.000000, 8.692897)" fill="#AB5B54">
                                    <rect id="Rectangle" x="0.155519985" y="0.153404067" width="6.86879933" height="24.0844385"></rect>
                                    <g transform="translate(12.239999, 43.919996)">
                                        <path d="M18.3202549,35.2215751 L3.91910377,35.2215751 L3.91910377,35.3442984 C4.23014375,35.896553 6.06527965,38.6578263 6.53183962,39.3634851 L3.32812781,39.3634851 C2.76825584,38.5964647 0.995327942,35.896553 0.590975966,35.1295327 L0.590975966,31.7853239 L18.3202549,31.7853239 L18.3202549,35.2215751 Z" id="Path"></path>
                                        <path d="M8.83353549,28.7172424 C3.67027179,28.7172424 0.248831986,26.3241389 0.248831986,22.0595057 C0.248831986,17.7641916 3.63916779,15.4631305 8.83353549,15.4631305 L10.0776954,15.4631305 C15.0232311,15.4631305 18.6623989,17.70283 18.6623989,22.1208673 C18.6623989,26.3855005 15.2098551,28.7172424 10.0776954,28.7172424 L8.83353549,28.7172424 Z M10.0465914,25.2503104 C13.8412792,25.2503104 15.8008311,23.992397 15.8008311,22.0901865 C15.8008311,20.1572952 13.8101752,18.9300626 10.0465914,18.9300626 L8.86463949,18.9300626 C5.1010557,18.9300626 3.14150382,20.1572952 3.14150382,22.0901865 C3.14150382,24.0230778 5.1010557,25.2503104 8.86463949,25.2503104 L10.0465914,25.2503104 Z" id="Shape"></path>
                                        <path d="M8.83353549,13.4381968 C3.67027179,13.4381968 0.248831986,11.0450932 0.248831986,6.78046002 C0.248831986,2.48514598 3.63916779,0.184084887 8.83353549,0.184084887 L10.0776954,0.184084887 C15.0232311,0.184084887 18.6623989,2.42378435 18.6623989,6.84182164 C18.6623989,11.1064549 15.2098551,13.4381968 10.0776954,13.4381968 L8.83353549,13.4381968 Z M10.0465914,10.0019455 C13.8412792,10.0019455 15.8008311,8.74403215 15.8008311,6.84182164 C15.8008311,4.90893033 13.8101752,3.68169775 10.0465914,3.68169775 L8.86463949,3.68169775 C5.1010557,3.68169775 3.14150382,4.90893033 3.14150382,6.84182164 C3.14150382,8.77471296 5.1010557,10.0019455 8.86463949,10.0019455 L10.0465914,10.0019455 Z" id="Shape"></path>
                                    </g>
                                    <rect id="Rectangle" x="31.9593569" y="43.4644856" width="4.95071952" height="33.4932212"></rect>
                                </g>
                                <polygon id="Path" fill="url(#linearGradient-3)" opacity="0.5" points="127.474548 104.059092 73.4054328 104.059092 146.162866 0 200.23198 0"></polygon>
                            </g>
                            <rect id="Rectangle" fill="#747474" opacity="0.3" x="16.799999" y="42.3999972" width="219.199987" height="103.999994" rx="5.03999957"></rect>
                            <g id="100" transform="translate(4.800000, 20.799999)">
                                <path d="M238.003183,115.621216 L5.93279958,115.621216 C2.7647998,115.621216 0.172799988,112.979257 0.172799988,109.85436 L0.172799988,5.68163225 C0.172799988,2.55673451 2.7647998,0 5.93279958,0 L237.974383,0 C241.142383,0 243.73462,2.55673451 243.73462,5.68163225 L243.73462,109.882768 C243.763183,113.007665 241.171183,115.621216 238.003183,115.621216 Z" id="Path" fill="url(#linearGradient-4)" fill-rule="nonzero"></path>
                                <rect id="Rectangle" fill="#747474" opacity="0.1" x="0.200000286" y="11.2000015" width="244" height="104" rx="5.03999957"></rect>
                                <polygon id="Path" fill="#F0D7B1" fill-rule="nonzero" opacity="0.6" points="243.676783 43.8906091 229.679984 43.8906091 229.679984 0 172.886388 0 172.886388 115.621216 229.679984 115.621216 229.679984 102.468238 243.676783 102.468238"></polygon>
                                <rect id="Rectangle" fill="#FFD199" fill-rule="nonzero" opacity="0.6" x="46.5119967" y="0" width="10.5983992" height="115.649624"></rect>
                                <path d="M132.076791,23.4083249 L132.076791,23.4083249 C128.447991,23.4083249 125.510391,20.5106924 125.510391,16.9312641 L125.510391,0 L69.955195,0 L69.955195,115.621216 L125.510391,115.621216 L125.510391,105.593135 C125.510391,102.013707 128.447991,99.1160746 132.076791,99.1160746 L132.076791,99.1160746 C135.70559,99.1160746 138.64319,96.2184421 138.64319,92.6390138 L138.64319,29.8853856 C138.64319,26.3059573 135.70559,23.4083249 132.076791,23.4083249 Z" id="Path" fill="#FFD199" fill-rule="nonzero" opacity="0.6"></path>
                                <rect id="Rectangle" fill="#C3BE90" fill-rule="nonzero" x="57.4559959" y="0" width="12.2975991" height="115.649624"></rect>
                                <rect id="Rectangle" fill="#EDD4A8" fill-rule="nonzero" x="0.172799988" y="50.7937923" width="60.2207957" height="54.3732206"></rect>
                                <rect id="Rectangle" fill="#DEB489" fill-rule="nonzero" x="46.5119967" y="77.7815455" width="11.0303992" height="37.8396708"></rect>
                                <g id="Group" opacity="0.5" transform="translate(0.000000, 9.658775)" fill="#AB5B54" fill-rule="nonzero">
                                    <rect id="Rectangle" x="0.172799988" y="0.170448967" width="7.63199946" height="26.7604879"></rect>
                                    <g transform="translate(13.599999, 48.799997)">
                                        <path d="M20.3558394,39.1350845 L4.35455986,39.1350845 L4.35455986,39.2714437 C4.70015985,39.88506 6.73919979,42.9531415 7.25759977,43.7372068 L3.69791988,43.7372068 C3.0758399,42.8849619 1.10591997,39.88506 0.656639979,39.0328151 L0.656639979,35.3170275 L20.3558394,35.3170275 L20.3558394,39.1350845 Z" id="Path"></path>
                                        <path d="M9.81503969,31.908048 C4.07807987,31.908048 0.276479991,29.249044 0.276479991,24.5105625 C0.276479991,19.7379912 4.04351987,17.1812566 9.81503969,17.1812566 L11.1974396,17.1812566 C16.6924795,17.1812566 20.7359993,19.6698116 20.7359993,24.5787421 C20.7359993,29.3172236 16.8998395,31.908048 11.1974396,31.908048 L9.81503969,31.908048 Z M11.1628796,28.0559012 C15.3791995,28.0559012 17.5564794,26.6582196 17.5564794,24.5446523 C17.5564794,22.3969952 15.3446395,21.0334034 11.1628796,21.0334034 L9.84959969,21.0334034 C5.66783982,21.0334034 3.49055989,22.3969952 3.49055989,24.5446523 C3.49055989,26.6923094 5.66783982,28.0559012 9.84959969,28.0559012 L11.1628796,28.0559012 Z" id="Shape"></path>
                                        <path d="M9.81503969,14.9313301 C4.07807987,14.9313301 0.276479991,12.2723261 0.276479991,7.53384466 C0.276479991,2.76127338 4.04351987,0.204538769 9.81503969,0.204538769 L11.1974396,0.204538769 C16.6924795,0.204538769 20.7359993,2.69309379 20.7359993,7.60202425 C20.7359993,12.3405057 16.8998395,14.9313301 11.1974396,14.9313301 L9.81503969,14.9313301 Z M11.1628796,11.1132731 C15.3791995,11.1132731 17.5564794,9.71559153 17.5564794,7.60202425 C17.5564794,5.45436718 15.3446395,4.09077538 11.1628796,4.09077538 L9.84959969,4.09077538 C5.66783982,4.09077538 3.49055989,5.45436718 3.49055989,7.60202425 C3.49055989,9.74968133 5.66783982,11.1132731 9.84959969,11.1132731 L11.1628796,11.1132731 Z" id="Shape"></path>
                                    </g>
                                    <rect id="Rectangle" x="35.5103975" y="48.2938741" width="5.50079961" height="37.2146912"></rect>
                                </g>
                                <polygon id="Path" fill="url(#linearGradient-5)" fill-rule="nonzero" opacity="0.5" points="141.276796 119.821218 81.2000003 119.821218 162.041595 4.20000148 222.11839 4.20000148"></polygon>
                            </g>
                            <g id="200" transform="translate(0.000000, 7.199999)" fill-rule="nonzero">
                                <path d="M248.342382,115.962114 L5.75999959,115.962114 C2.59199982,115.962114 0,113.234931 0,110.081625 L0,5.90889754 C0,2.7839998 2.59199982,0.22726529 5.75999959,0.22726529 L248.342382,0.22726529 C251.510382,0.22726529 254.102382,2.7839998 254.102382,5.90889754 L254.102382,110.110033 C254.102382,113.234931 251.510382,115.962114 248.342382,115.962114 Z" id="Path" fill="url(#linearGradient-6)"></path>
                                <polygon id="Path" fill="#F6F5D7" opacity="0.6" points="254.102382 37.0158341 240.105583 37.0158341 240.105583 0.22726529 183.283187 0.22726529 183.283187 115.962114 240.105583 115.962114 240.105583 102.695503 254.102382 102.695503"></polygon>
                                <g id="Group" opacity="0.5" transform="translate(0.000000, 9.942856)" fill="#8A9B7F">
                                    <rect id="Rectangle" x="0" y="0.113632645" width="7.63199946" height="26.7604879"></rect>
                                </g>
                                <path d="M133.89119,23.6355902 L133.89119,23.6355902 C130.262391,23.6355902 127.526391,20.7379577 127.526391,17.1585294 L127.526391,0.22726529 L71.7695949,0.22726529 L71.7695949,115.990522 L127.526391,115.990522 L127.526391,105.848809 C127.526391,102.26938 130.262391,99.371748 133.89119,99.371748 L133.89119,99.371748 C137.51999,99.371748 140.45759,96.4741156 140.45759,92.8946873 L140.45759,30.1126509 C140.45759,26.5332226 137.51999,23.6355902 133.89119,23.6355902 Z" id="Path" fill="#C6DBA3"></path>
                                <polygon id="Path" fill="#EFECC0" points="44.2079969 0.22726529 44.2079969 51.0210576 44.2079969 105.394278 44.2079969 115.962114 71.7695949 115.962114 71.7695949 0.22726529"></polygon>
                                <rect id="Rectangle" fill="#248959" opacity="0.7" x="0" y="51.0210576" width="44.2079969" height="54.3732206"></rect>
                                <g id="Group" opacity="0.9" transform="translate(35.135997, 54.827751)" fill="#EFECC0">
                                    <rect id="Rectangle" x="0.172799988" y="0.170448967" width="5.52959961" height="44.3451397"></rect>
                                </g>
                                <g id="Group" opacity="0.9" transform="translate(12.383999, 55.395914)" fill="#EFECC0">
                                    <path d="M5.90399958,43.4360785 L5.73119959,43.4360785 C2.62079981,43.4360785 0.0575999959,40.9929767 0.0575999959,37.1010586 C0.0575999959,33.4364058 2.18879984,30.9933039 5.21279963,30.9933039 C7.34399948,30.9933039 8.81279937,32.1012222 11.0879992,34.175018 L15.7535989,38.2657932 L15.8687989,38.2657932 L15.8687989,30.652406 L18.8351987,30.652406 L18.8351987,43.1519969 L16.5599988,43.1519969 L9.30239934,36.5613035 C8.03519943,35.3681607 6.94079951,34.5443241 5.5583996,34.5443241 C4.00319971,34.5443241 2.99519979,35.6806505 2.99519979,37.2430994 C2.99519979,38.9191809 4.2623997,39.998691 5.73119959,39.998691 C5.78879959,39.998691 5.90399958,39.998691 5.93279958,39.998691 L5.90399958,43.4360785 Z" id="Path"></path>
                                    <path d="M8.95679936,29.2319979 C3.59999974,29.2319979 0.0287999979,26.7320797 0.0287999979,22.3288147 C0.0287999979,17.8971416 3.57119975,15.4824479 8.95679936,15.4824479 L10.2527993,15.4824479 C15.3791989,15.4824479 19.1807986,17.8119171 19.1807986,22.3856311 C19.1807986,26.8173042 15.6095989,29.2319979 10.2527993,29.2319979 L8.95679936,29.2319979 Z M10.2239993,25.6525696 C14.169599,25.6525696 16.2143988,24.3742023 16.2143988,22.3572229 C16.2143988,20.3402434 14.169599,19.0618762 10.2239993,19.0618762 L8.98559936,19.0618762 C5.06879964,19.0618762 3.02399978,20.3402434 3.02399978,22.3572229 C3.02399978,24.3457942 5.03999964,25.6525696 8.98559936,25.6525696 L10.2239993,25.6525696 Z" id="Shape"></path>
                                    <path d="M8.95679936,13.8915908 C3.59999974,13.8915908 0.0287999979,11.3916727 0.0287999979,6.98840767 C0.0287999979,2.55673451 3.57119975,0.142040806 8.95679936,0.142040806 L10.2527993,0.142040806 C15.3791989,0.142040806 19.1807986,2.47151003 19.1807986,7.04522399 C19.1807986,11.4768971 15.6095989,13.8915908 10.2527993,13.8915908 L8.95679936,13.8915908 Z M10.2239993,10.3121625 C14.169599,10.3121625 16.2143988,9.03379528 16.2143988,7.01681583 C16.2143988,4.99983638 14.169599,3.72146912 10.2239993,3.72146912 L8.98559936,3.72146912 C5.06879964,3.72146912 3.02399978,4.99983638 3.02399978,7.01681583 C3.02399978,9.00538711 5.03999964,10.3121625 8.98559936,10.3121625 L10.2239993,10.3121625 Z" id="Shape"></path>
                                </g>
                                <path d="M127.526391,0.22726529 L127.526391,17.272162 C127.526391,20.4822843 129.916791,23.2662841 133.142391,23.607182 C133.372791,23.6355902 133.60319,23.6355902 133.83359,23.6355902 C137.49119,23.6639983 140.45759,26.5048144 140.45759,30.1126509 C140.45759,46.2484865 140.45759,76.7304435 140.45759,92.8662791 C140.45759,96.4741156 137.46239,99.3149317 133.83359,99.3433399 C133.60319,99.3433399 133.372791,99.371748 133.142391,99.371748 C129.916791,99.712646 127.526391,102.525054 127.526391,105.735176 L127.526391,115.962114 L157.852789,115.962114 L157.852789,0.22726529 L127.526391,0.22726529 Z" id="Path" fill="#F6F5D7" opacity="0.6"></path>
                                <polygon id="Path" fill="url(#linearGradient-7)" opacity="0.5" points="154.195189 115.962114 94.0895933 115.962114 174.931188 0.22726529 235.036783 0.22726529"></polygon>
                            </g>
                            <g id="50" transform="translate(23.000000, 0.000000)" fill-rule="nonzero">
                                <path d="M217.467855,115.621216 L5.86735442,115.621216 C2.68799981,115.621216 0.0867096712,113.064482 0.0867096712,109.939584 L0.0867096712,5.73844857 C0.0867096712,2.61355083 2.68799981,0.0568163225 5.86735442,0.0568163225 L217.467855,0.0568163225 C220.64721,0.0568163225 223.2485,2.61355083 223.2485,5.73844857 L223.2485,109.939584 C223.2485,113.064482 220.64721,115.621216 217.467855,115.621216 Z" id="Path" fill="url(#linearGradient-8)"></path>
                                <polygon id="Path" fill="#EDCED3" points="223.161791 68.6625257 209.143727 68.6625257 209.143727 0.0568163225 152.117667 0.0568163225 152.117667 68.6625257 0.0867096712 68.6625257 0.0867096712 105.252237 152.117667 105.252237 152.117667 115.621216 209.143727 115.621216 209.143727 101.076238 223.161791 101.076238"></polygon>
                                <g id="Group" transform="translate(13.006451, 72.156730)" fill="#825A63" opacity="0.5">
                                    <g>
                                        <path d="M14.0180635,26.2775491 C15.5210312,26.0502839 16.4459343,24.7719166 16.4459343,22.9822024 C16.4459343,21.3345291 15.1452892,19.6016313 12.919741,19.6016313 C10.8098057,19.6016313 9.42245094,21.0788556 9.42245094,22.9537943 C9.42245094,24.7719166 10.462967,25.7946104 11.3878702,26.1923247 L11.3878702,29.3456306 L0.549161251,28.4933857 L0.549161251,17.442611 L3.46838685,17.442611 L3.46838685,25.6241614 L8.20851554,26.078692 L8.20851554,25.9650594 C7.60154785,25.5673451 6.61883824,24.1753452 6.61883824,22.0731413 C6.61883824,18.8914272 8.95999936,16.1074274 12.7174184,16.1074274 C16.7349666,16.1074274 19.3073535,19.0618762 19.3073535,23.0674269 C19.3073535,27.1866103 16.8794827,29.4592632 13.9891603,29.5728959 L14.0180635,26.2775491 L14.0180635,26.2775491 Z" id="Path"></path>
                                        <path d="M9.10451548,13.9768153 C3.72851586,13.9768153 0.173419342,11.5053053 0.173419342,7.07363215 C0.173419342,2.641959 3.69961264,0.255673451 9.10451548,0.255673451 L10.4051605,0.255673451 C15.5499344,0.255673451 19.3362567,2.58514267 19.3362567,7.15885663 C19.3362567,11.5905298 15.7522569,13.9768153 10.4051605,13.9768153 L9.10451548,13.9768153 Z M10.3762573,10.4257952 C14.3070958,10.4257952 16.3592246,9.14742792 16.3592246,7.15885663 C16.3592246,5.14187718 14.3070958,3.89191809 10.3762573,3.89191809 L9.1334187,3.89191809 C5.20258027,3.89191809 3.17935461,5.17028535 3.17935461,7.15885663 C3.17935461,9.14742792 5.20258027,10.4257952 9.1334187,10.4257952 L10.3762573,10.4257952 Z" id="Shape"></path>
                                    </g>
                                    <rect id="Rectangle" x="22.5156113" y="0.68179587" width="5.52051574" height="28.8626918"></rect>
                                </g>
                                <rect id="Rectangle" fill="#F7C9B0" x="70.8418014" y="0.0568163225" width="34.0479976" height="115.5644"></rect>
                                <polygon id="Path" fill="#825A63" opacity="0.5" points="23.6139338 33.0955078 0.202322566 33.0955078 0.202322566 10.0848972 32.1114816 10.0848972"></polygon>
                                <polygon id="Path" fill="url(#linearGradient-9)" opacity="0.5" points="114.803605 115.621216 54.51148 115.621216 135.642829 0.0568163225 195.934954 0.0568163225"></polygon>
                            </g>
                        </g>
                        <path d="M321.339957,53.2970309 L7.33561509,53.2970309 L7.33561509,45.7633767 C7.33561509,35.6041725 15.5715937,27.3681938 25.730798,27.3681938 L302.944774,27.3681938 C313.103979,27.3681938 321.339957,35.6041725 321.339957,45.7633767 L321.339957,53.2970309 Z" id="Path" fill="#454D5E" fill-rule="nonzero"></path>
                        <g id="Group" fill-rule="nonzero">
                            <path d="M314.925122,46.8209466 L13.7443253,46.8209466 C6.25354551,46.8209466 0.187830946,40.7491071 0.187830946,33.2644522 L0.187830946,18.1808106 C0.187830946,8.16452123 8.30743608,0.0449160958 18.3237254,0.0449160958 L310.351847,0.0449160958 C320.368136,0.0449160958 328.487741,8.16452123 328.487741,18.1808106 L328.487741,33.2644522 C328.481617,40.755232 322.415902,46.8209466 314.925122,46.8209466 Z" id="Path" fill="url(#linearGradient-10)"></path>
                            <path d="M44.0381903,46.8209466 L34.0994832,46.8209466 L34.0994832,11.961973 C34.0994832,9.25679901 36.2922054,7.06611852 38.9953377,7.06611852 L39.1341693,7.06611852 C41.8393432,7.06611852 44.0300237,9.25884065 44.0300237,11.961973 L44.0300237,46.8209466 L44.0381903,46.8209466 Z" id="Path" fill="#1E232C" opacity="0.3"></path>
                            <path d="M84.6157995,46.8209466 L74.6770925,46.8209466 L74.6770925,11.961973 C74.6770925,9.25679901 76.8698146,7.06611852 79.5729469,7.06611852 L79.7117785,7.06611852 C82.4169524,7.06611852 84.6076329,9.25884065 84.6076329,11.961973 L84.6076329,46.8209466 L84.6157995,46.8209466 Z" id="Path" fill="#1E232C" opacity="0.3"></path>
                            <path d="M125.19545,46.8209466 L115.256743,46.8209466 L115.256743,11.961973 C115.256743,9.25679901 117.449466,7.06611852 120.152598,7.06611852 L120.291429,7.06611852 C122.996603,7.06611852 125.187284,9.25884065 125.187284,11.961973 L125.187284,46.8209466 L125.19545,46.8209466 Z" id="Path" fill="#1E232C" opacity="0.3"></path>
                            <path d="M165.793476,46.8209466 L155.854769,46.8209466 L155.854769,11.961973 C155.854769,9.25679901 158.047491,7.06611852 160.750623,7.06611852 L160.889455,7.06611852 C163.594629,7.06611852 165.785309,9.25884065 165.785309,11.961973 L165.785309,46.8209466 L165.793476,46.8209466 Z" id="Path" fill="#1E232C" opacity="0.3"></path>
                            <path d="M206.352711,46.8209466 L196.414003,46.8209466 L196.414003,11.961973 C196.414003,9.25679901 198.606726,7.06611852 201.309858,7.06611852 L201.44869,7.06611852 C204.153863,7.06611852 206.344544,9.25884065 206.344544,11.961973 L206.344544,46.8209466 L206.352711,46.8209466 Z" id="Path" fill="#1E232C" opacity="0.3"></path>
                            <path d="M246.924195,46.8209466 L236.985488,46.8209466 L236.985488,11.961973 C236.985488,9.25679901 239.17821,7.06611852 241.881342,7.06611852 L242.020174,7.06611852 C244.725348,7.06611852 246.916028,9.25884065 246.916028,11.961973 L246.916028,46.8209466 L246.924195,46.8209466 Z" id="Path" fill="#1E232C" opacity="0.3"></path>
                            <path d="M290.427475,46.8209466 L280.488768,46.8209466 L280.488768,11.961973 C280.488768,9.25679901 282.68149,7.06611852 285.384623,7.06611852 L285.523454,7.06611852 C288.228628,7.06611852 290.419309,9.25884065 290.419309,11.961973 L290.419309,46.8209466 L290.427475,46.8209466 Z" id="Path" fill="#1E232C" opacity="0.3"></path>
                            <path d="M240.905438,7.17636712 C241.24435,7.10082641 241.597554,7.06611852 241.956883,7.06611852 C244.70289,7.06611852 246.93032,9.29354854 246.93032,12.0395553 L246.93032,46.8291131 L244.82743,46.8291131 L244.82743,12.0395553 C244.821305,9.65287731 243.141035,7.66023597 240.905438,7.17636712 Z" id="Path" fill="#1E232C" opacity="0.2"></path>
                            <path d="M284.404635,7.17636712 C284.743547,7.10082641 285.096751,7.06611852 285.45608,7.06611852 C288.202087,7.06611852 290.429517,9.29354854 290.429517,12.0395553 L290.429517,46.8291131 L288.326627,46.8291131 L288.326627,12.0395553 C288.324585,9.65287731 286.644315,7.66023597 284.404635,7.17636712 Z" id="Path" fill="#1E232C" opacity="0.2"></path>
                            <path d="M200.327829,7.17636712 C200.666741,7.10082641 201.019945,7.06611852 201.379274,7.06611852 C204.12528,7.06611852 206.352711,9.29354854 206.352711,12.0395553 L206.352711,46.8291131 L204.243696,46.8291131 L204.243696,12.0395553 C204.241654,9.65287731 202.56955,7.66023597 200.327829,7.17636712 Z" id="Path" fill="#1E232C" opacity="0.2"></path>
                            <path d="M159.770636,7.17636712 C160.109548,7.10082641 160.462752,7.06611852 160.822081,7.06611852 C163.568088,7.06611852 165.795518,9.29354854 165.795518,12.0395553 L165.795518,46.8291131 L163.692628,46.8291131 L163.692628,12.0395553 C163.684461,9.65287731 162.010316,7.66023597 159.770636,7.17636712 Z" id="Path" fill="#1E232C" opacity="0.2"></path>
                            <path d="M119.074612,7.17636712 C119.413524,7.10082641 119.766728,7.06611852 120.126056,7.06611852 C122.872063,7.06611852 125.099493,9.29354854 125.099493,12.0395553 L125.099493,46.8291131 L122.996603,46.8291131 L122.996603,12.0395553 C122.994562,9.65287731 121.314291,7.66023597 119.074612,7.17636712 Z" id="Path" fill="#1E232C" opacity="0.2"></path>
                            <path d="M78.5929594,7.17636712 C78.9318717,7.10082641 79.2850756,7.06611852 79.6444044,7.06611852 C82.3904111,7.06611852 84.6178411,9.29354854 84.6178411,12.0395553 L84.6178411,46.8291131 L82.5149512,46.8291131 L82.5149512,12.0395553 C82.5067846,9.65287731 80.8326393,7.66023597 78.5929594,7.17636712 Z" id="Path" fill="#1E232C" opacity="0.2"></path>
                            <path d="M38.0133085,7.17636712 C38.3522209,7.10082641 38.7054247,7.06611852 39.0647535,7.06611852 C41.8107602,7.06611852 44.0381903,9.29354854 44.0381903,12.0395553 L44.0381903,46.8291131 L41.9353003,46.8291131 L41.9353003,12.0395553 C41.9353003,9.65287731 40.25503,7.66023597 38.0133085,7.17636712 Z" id="Path" fill="#1E232C" opacity="0.2"></path>
                        </g>
                    </g>
                </g>
            </g>
        </g>
    </g>
</svg>