<?xml version="1.0" encoding="UTF-8"?>
<svg width="367px" height="410px" viewBox="0 0 367 365" version="1.1" xmlns="http://www.w3.org/2000/svg" xmlns:xlink="http://www.w3.org/1999/xlink">
    <title>CountBanknotes</title>



	<style type="text/css">


.slide-200 {
    -webkit-animation: slide-200 1.5s cubic-bezier(0.52, 0.63, 0.38, 1.03) 1s infinite alternate-reverse both;
    animation: slide-200 1.5s cubic-bezier(0.52, 0.63, 0.38, 1.03) 1s infinite alternate-reverse both;
}


@-webkit-keyframes slide-200 {
    0% {
        -webkit-transform: translate(0, 0);
        transform: translate(0, 0);
    }

    100% {
        top: 50%;
        -webkit-transform: translate(0, -15px);
        transform: translate(0, -15px);
    }
}

@keyframes slide-200 {
    0% {
        -webkit-transform: translate(0, 0);
        transform: translate(0, 0);
    }

    100% {
        top: 50%;
        -webkit-transform: translate(0, -15px);
        transform: translate(0, -15px);
    }
}



.slide-100-1 {
    -webkit-animation: slide-100-1 1.5s cubic-bezier(0.52, 0.63, 0.38, 1.03) 1s infinite alternate-reverse both;
    animation: slide-100-1 1.5s cubic-bezier(0.52, 0.63, 0.38, 1.03) 1s infinite alternate-reverse both;
}


@-webkit-keyframes slide-100-1 {
    0% {
        -webkit-transform: translate(7px, 20px);
        transform: translate(7px, 20px);
    }

    100% {
        top: 50%;
        -webkit-transform: translate(7px, 7px);
        transform: translate(7px, 7px);
    }
}

@keyframes slide-100-1 {
    0% {
        -webkit-transform: translate(7px, 20px);
        transform: translate(7px, 20px);
    }

    100% {
        top: 50%;
        -webkit-transform: translate(7px, 7px);
        transform: translate(7px, 7px);
    }
}

.slide-100-2 {
    -webkit-animation: slide-100-2 1.5s cubic-bezier(0.52, 0.63, 0.38, 1.03) 1s infinite alternate-reverse both;
    animation: slide-100-2 1.5s cubic-bezier(0.52, 0.63, 0.38, 1.03) 1s infinite alternate-reverse both;
}


@-webkit-keyframes slide-100-2 {
    0% {
        -webkit-transform: translate(16px, 45px);
        transform: translate(16px, 45px);
    }

    100% {
        top: 50%;
        -webkit-transform: translate(16px, 35px);
        transform: translate(16px, 35px);
    }
}

@keyframes slide-100-2 {
    0% {
        -webkit-transform: translate(16px, 45px);
        transform: translate(16px, 45px);
    }

    100% {
        top: 50%;
        -webkit-transform: translate(16px, 35px);
        transform: translate(16px, 35px);
    }
}




.slide-50 {
    -webkit-animation: slide-50 1.5s cubic-bezier(0.52, 0.63, 0.38, 1.03) 1s infinite alternate-reverse both;
    animation: slide-50 1.5s cubic-bezier(0.52, 0.63, 0.38, 1.03) 1s infinite alternate-reverse both;
}


@-webkit-keyframes slide-50 {
    0% {
        -webkit-transform: translate(26px, 58px);
        transform: translate(26px, 58px);
    }

    100% {
        top: 50%;
        -webkit-transform: translate(26px, 55px);
        transform: translate(26px, 55px);
    }
}

@keyframes slide-50 {
    0% {
        -webkit-transform: translate(26px, 58px);
        transform: translate(26px, 58px);
    }

    100% {
        top: 50%;
        -webkit-transform: translate(26px, 55px);
        transform: translate(26px, 55px);
    }
}

</style>


    <defs>
        <linearGradient x1="50%" y1="8.73331779e-16%" x2="50%" y2="100%" id="linearGradient-1">
            <stop stop-color="#EBADCB" offset="0.03598797%"></stop>
            <stop stop-color="#EF6793" offset="99.79%"></stop>
        </linearGradient>
        <linearGradient x1="50%" y1="2.41157817%" x2="50%" y2="85.9048181%" id="linearGradient-2">
            <stop stop-color="#FFB5D5" offset="0%"></stop>
            <stop stop-color="#FFFFFF" stop-opacity="0" offset="100%"></stop>
        </linearGradient>
        <linearGradient x1="49.9999985%" y1="0%" x2="49.9999985%" y2="100%" id="linearGradient-3">
            <stop stop-color="#E9BA73" offset="0.20287%"></stop>
            <stop stop-color="#F6AB77" offset="100%"></stop>
        </linearGradient>
        <linearGradient x1="50%" y1="-7.61670762%" x2="50%" y2="82.3867568%" id="linearGradient-4">
            <stop stop-color="#FFFFAC" offset="0%"></stop>
            <stop stop-color="#FFFFFF" stop-opacity="0" offset="100%"></stop>
        </linearGradient>
        <linearGradient x1="49.9999985%" y1="0%" x2="49.9999985%" y2="100%" id="linearGradient-5">
            <stop stop-color="#E9BA73" offset="0.20287%"></stop>
            <stop stop-color="#F6AB77" offset="100%"></stop>
        </linearGradient>
        <linearGradient x1="50%" y1="-7.61670762%" x2="50%" y2="82.3867568%" id="linearGradient-6">
            <stop stop-color="#FFFFAC" offset="0%"></stop>
            <stop stop-color="#FFFFFF" stop-opacity="0" offset="100%"></stop>
        </linearGradient>
        <linearGradient x1="50%" y1="2.61613673e-15%" x2="50%" y2="100%" id="linearGradient-7">
            <stop stop-color="#C7E3A2" offset="0%"></stop>
            <stop stop-color="#5FC88C" offset="100%"></stop>
        </linearGradient>
        <linearGradient x1="50%" y1="0.785468827%" x2="50%" y2="90.1824251%" id="linearGradient-8">
            <stop stop-color="#E2FFA9" offset="0.02291165%"></stop>
            <stop stop-color="#FFFFFF" stop-opacity="0" offset="100%"></stop>
        </linearGradient>
    </defs>
    <g id="Symbols" stroke="none" stroke-width="1" fill="none" fill-rule="evenodd">
        <g id="Res/IContandoBilletes" transform="translate(-23.000000, -81.000000)">
            <g id="Group-4" transform="translate(40.000000, 81.000000)">


                <g id="Group-2" class="slide-50" transform="translate(26.000000, 66.000000)">


                    <g id="50" fill-rule="nonzero">
                        <path d="M259.109701,138 L6.89029918,138 C3.10063463,138 0,134.946903 0,131.215339 L0,6.78466077 C0,3.05309735 3.10063463,0 6.89029918,0 L259.109701,0 C262.899365,0 266,3.05309735 266,6.78466077 L266,131.215339 C266,134.946903 262.899365,138 259.109701,138 Z" id="Path" fill="url(#linearGradient-1)"></path>
                        <polygon id="Path" fill="#EDCED3" points="266 81.9247788 249.28453 81.9247788 249.28453 0 181.285307 0 181.285307 81.9247788 0 81.9247788 0 125.617994 181.285307 125.617994 181.285307 138 249.28453 138 249.28453 120.631268 266 120.631268"></polygon>
                        <g id="Group" transform="translate(15.000000, 86.000000)" fill="#825A63" opacity="0.5">
                            <g>
                                <path d="M16.7291566,31.2511156 C18.5227981,30.9808357 19.6265775,29.4605111 19.6265775,27.3320568 C19.6265775,25.3725274 18.0743878,23.311643 15.4184186,23.311643 C12.9004218,23.311643 11.2447527,25.0684625 11.2447527,27.2982718 C11.2447527,29.4605111 12.4865045,30.6767708 13.5902839,31.1497606 L13.5902839,34.8998945 L0.655369022,33.8863448 L0.655369022,20.7439838 L4.13917277,20.7439838 L4.13917277,30.4740608 L9.79604222,31.0146207 L9.79604222,30.8794807 C9.07168699,30.4064909 7.89892137,28.7510264 7.89892137,26.2509371 C7.89892137,22.4670182 10.692863,19.1560892 15.1769668,19.1560892 C19.9715086,19.1560892 23.0413951,22.6697282 23.0413951,27.4334118 C23.0413951,32.3322353 20.1439741,35.0350345 16.6946635,35.1701744 L16.7291566,31.2511156 L16.7291566,31.2511156 Z" id="Path"></path>
                                <path d="M10.8653285,16.622215 C4.44961073,16.622215 0.206958638,13.6829209 0.206958638,8.41246247 C0.206958638,3.14200406 4.41511762,0.304064909 10.8653285,0.304064909 L12.4175183,0.304064909 C18.5572913,0.304064909 23.0758882,3.07443408 23.0758882,8.51381744 C23.0758882,13.7842759 18.798743,16.622215 12.4175183,16.622215 L10.8653285,16.622215 Z M12.3830252,12.3990913 C17.0740877,12.3990913 19.5230982,10.8787667 19.5230982,8.51381744 C19.5230982,6.11508316 17.0740877,4.62854361 12.3830252,4.62854361 L10.8998216,4.62854361 C6.20875915,4.62854361 3.79424171,6.14886815 3.79424171,8.51381744 C3.79424171,10.8787667 6.20875915,12.3990913 10.8998216,12.3990913 L12.3830252,12.3990913 Z" id="Shape"></path>
                            </g>
                            <rect id="Rectangle" x="26.8701299" y="0.810839756" width="6.58818332" height="34.3255497"></rect>
                        </g>
                        <rect id="Rectangle" fill="#F7C9B0" x="84" y="0" width="41" height="138"></rect>
                        <polygon id="Path" fill="#825A63" opacity="0.5" points="27.8804348 39 0 39 0 12 38 12"></polygon>
                        <polygon id="Path" fill="url(#linearGradient-2)" opacity="0.5" points="136.622318 138 65 138 161.377682 0 233 0"></polygon>
                    </g>
                    <rect id="Rectangle" fill="#747474" opacity="0.3" x="0" y="0" width="266" height="138" rx="6.28991948"></rect>
                </g>


                <g id="Group-3" class="slide-100-2"  transform="translate(16.000000, 43.000000)">

                    <g id="100-copy-2" fill-rule="nonzero">
                        <path d="M279.269918,136 L6.76362116,136 C3.04362952,136 0,132.892383 0,129.216708 L0,6.68304668 C0,3.00737101 3.04362952,0 6.76362116,0 L279.2361,0 C282.956091,0 286,3.00737101 286,6.68304668 L286,129.250123 C286.033539,132.925799 282.989909,136 279.269918,136 Z" id="Path" fill="url(#linearGradient-3)"></path>
                        <polygon id="Path" fill="#F0D7B1" opacity="0.6" points="286 51.6265356 269.589097 51.6265356 269.589097 0 203 0 203 136 269.589097 136 269.589097 120.528747 286 120.528747"></polygon>
                        <rect id="Rectangle" fill="#FFD199" opacity="0.6" x="55" y="0" width="12" height="136"></rect>
                        <path d="M155.256604,27.5341523 L155.256604,27.5341523 C150.977358,27.5341523 147.513208,24.1257985 147.513208,19.9154791 L147.513208,0 L82,0 L82,136 L147.513208,136 L147.513208,124.204423 C147.513208,119.994103 150.977358,116.585749 155.256604,116.585749 L155.256604,116.585749 C159.535849,116.585749 163,113.177396 163,108.967076 L163,35.1528256 C163,30.9425061 159.535849,27.5341523 155.256604,27.5341523 Z" id="Path" fill="#FFD199" opacity="0.6"></path>
                        <rect id="Rectangle" fill="#C3BE90" x="68" y="0" width="14" height="136"></rect>
                        <rect id="Rectangle" fill="#EDD4A8" x="0" y="60" width="71" height="64"></rect>
                        <rect id="Rectangle" fill="#DEB489" x="54" y="92" width="13" height="44"></rect>
                        <g id="Group" opacity="0.5" transform="translate(0.000000, 11.000000)" fill="#AB5B54">
                            <rect id="Rectangle" x="0.202348046" y="0.20056486" width="8.93703868" height="31.4886831"></rect>
                            <g transform="translate(15.925541, 57.422258)">
                                <path d="M23.8366007,46.0496938 L5.09917095,46.0496938 L5.09917095,46.2101457 C5.50386706,46.9321792 7.89157409,50.5423468 8.49861825,51.4649452 L4.33024835,51.4649452 C3.60179535,50.4621209 1.29502754,46.9321792 0.768922604,45.9293548 L0.768922604,41.5570407 L23.8366007,41.5570407 L23.8366007,46.0496938 Z" id="Path"></path>
                                <path d="M11.4933694,37.5457433 C4.77541406,37.5457433 0.323756886,34.4169314 0.323756886,28.8412281 C0.323756886,23.2254117 4.73494445,20.2169387 11.4933694,20.2169387 L13.1121539,20.2169387 C19.546822,20.2169387 24.2817664,23.1451858 24.2817664,28.921454 C24.2817664,34.4971573 19.7896396,37.5457433 13.1121539,37.5457433 L11.4933694,37.5457433 Z M13.0716843,33.0129773 C18.0089768,33.0129773 20.5585622,31.3683454 20.5585622,28.881341 C20.5585622,26.3542237 17.9685072,24.7497047 13.0716843,24.7497047 L11.5338391,24.7497047 C6.63701616,24.7497047 4.08743068,26.3542237 4.08743068,28.881341 C4.08743068,31.4084584 6.63701616,33.0129773 11.5338391,33.0129773 L13.0716843,33.0129773 Z" id="Shape"></path>
                                <path d="M11.4933694,17.5694825 C4.77541406,17.5694825 0.323756886,14.4406705 0.323756886,8.86496718 C0.323756886,3.24915087 4.73494445,0.240677842 11.4933694,0.240677842 L13.1121539,0.240677842 C19.546822,0.240677842 24.2817664,3.16892492 24.2817664,8.94519313 C24.2817664,14.5208965 19.7896396,17.5694825 13.1121539,17.5694825 L11.4933694,17.5694825 Z M13.0716843,13.0768294 C18.0089768,13.0768294 20.5585622,11.4321975 20.5585622,8.94519313 C20.5585622,6.41807579 17.9685072,4.81355684 13.0716843,4.81355684 L11.5338391,4.81355684 C6.63701616,4.81355684 4.08743068,6.41807579 4.08743068,8.94519313 C4.08743068,11.4723105 6.63701616,13.0768294 11.5338391,13.0768294 L13.0716843,13.0768294 Z" id="Shape"></path>
                            </g>
                            <rect id="Rectangle" x="41.5825234" y="56.8267104" width="6.44141278" height="43.7899945"></rect>
                        </g>
                        <polygon id="Path" fill="url(#linearGradient-4)" opacity="0.5" points="166.343348 136 96 136 190.656652 0 261 0"></polygon>
                    </g>
                    <rect id="Rectangle" fill="#747474" opacity="0.3" x="0" y="0" width="286" height="136" rx="6.28991948"></rect>
                </g>


                <g id="100" class="slide-100-1" transform="translate(7.000000, 17.000000)">


                    <path d="M297.027973,145.295278 L7.4041339,145.295278 C3.45047016,145.295278 0.215654385,141.998113 0.215654385,138.098241 L0.215654385,8.09067707 C0.215654385,4.19080468 3.45047016,1 7.4041339,1 L296.992031,1 C300.945695,1 304.180807,4.19080468 304.180807,8.09067707 L304.180807,138.133694 C304.216453,142.033567 300.981637,145.295278 297.027973,145.295278 Z" id="Path" fill="url(#linearGradient-5)" fill-rule="nonzero"></path>
                    <rect id="Rectangle" fill="#747474" opacity="0.1" x="0" y="0.792000397" width="304.512001" height="144" rx="6.28991948"></rect>
                    <polygon id="Path" fill="#F0D7B1" fill-rule="nonzero" opacity="0.6" points="196.346413 55.7754803 178.878408 55.7754803 178.878408 1 108 1 108 145.295278 178.878408 145.295278 178.878408 128.880361 196.346413 128.880361"></polygon>
                    <rect id="Rectangle" fill="#FFD199" fill-rule="nonzero" opacity="0.6" x="58.046972" y="1" width="13.2268023" height="144.330732"></rect>
                    <path d="M164.831835,30.2135895 L164.831835,30.2135895 C160.303093,30.2135895 156.636969,26.5973442 156.636969,22.1302177 L156.636969,1 L87.3040837,1 L87.3040837,145.295278 L156.636969,145.295278 L156.636969,132.780233 C156.636969,128.313107 160.303093,124.696861 164.831835,124.696861 L164.831835,124.696861 C169.360577,124.696861 173.026702,121.080616 173.026702,116.61349 L173.026702,38.2969614 C173.026702,33.8298348 169.360577,30.2135895 164.831835,30.2135895 Z" id="Path" fill="#FFD199" fill-rule="nonzero" opacity="0.6"></path>
                    <rect id="Rectangle" fill="#C3BE90" fill-rule="nonzero" x="71.7050831" y="1" width="15.3474038" height="144.330732"></rect>
                    <rect id="Rectangle" fill="#EDD4A8" fill-rule="nonzero" x="0.215654385" y="64.390653" width="75.1555533" height="67.8577795"></rect>
                    <rect id="Rectangle" fill="#DEB489" fill-rule="nonzero" x="58.046972" y="98.0713691" width="13.7659383" height="47.2239093"></rect>
                    <g id="Group" opacity="0.5" transform="translate(0.000000, 13.054151)" fill="#AB5B54" fill-rule="nonzero">
                        <rect id="Rectangle" x="0.215654385" y="0.212720312" width="9.52473535" height="33.397089"></rect>
                        <g transform="translate(16.972799, 60.902397)">
                            <path d="M25.4040876,48.8405856 L5.43449073,48.8405856 L5.43449073,49.0107618 C5.86579951,49.776555 8.41052136,53.6055208 9.05748454,54.5840342 L4.61500403,54.5840342 C3.83864821,53.5204326 1.38018812,49.776555 0.819486697,48.7129534 L0.819486697,44.0756504 L25.4040876,44.0756504 L25.4040876,48.8405856 Z" id="Path"></path>
                            <path d="M12.2491696,39.821244 C5.0894437,39.821244 0.34504703,36.502807 0.34504703,30.5891821 C0.34504703,24.6330131 5.04631282,21.4422083 12.2491696,21.4422083 L13.9744047,21.4422083 C20.8322144,21.4422083 25.8785273,24.547925 25.8785273,30.6742702 C25.8785273,36.5878951 21.0909997,39.821244 13.9744047,39.821244 L12.2491696,39.821244 Z M13.9312738,35.0137648 C19.1932411,35.0137648 21.9104864,33.2694581 21.9104864,30.6317262 C21.9104864,27.9514501 19.1501102,26.2496875 13.9312738,26.2496875 L12.2923005,26.2496875 C7.07346412,26.2496875 4.35621876,27.9514501 4.35621876,30.6317262 C4.35621876,33.3120022 7.07346412,35.0137648 12.2923005,35.0137648 L13.9312738,35.0137648 Z" id="Shape"></path>
                            <path d="M12.2491696,18.6343001 C5.0894437,18.6343001 0.34504703,15.3158631 0.34504703,9.40223817 C0.34504703,3.44606919 5.04631282,0.255264385 12.2491696,0.255264385 L13.9744047,0.255264385 C20.8322144,0.255264385 25.8785273,3.36098106 25.8785273,9.48732629 C25.8785273,15.4009512 21.0909997,18.6343001 13.9744047,18.6343001 L12.2491696,18.6343001 Z M13.9312738,13.8693649 C19.1932411,13.8693649 21.9104864,12.1250583 21.9104864,9.48732629 C21.9104864,6.80705026 19.1501102,5.10528769 13.9312738,5.10528769 L12.2923005,5.10528769 C7.07346412,5.10528769 4.35621876,6.80705026 4.35621876,9.48732629 C4.35621876,12.1676023 7.07346412,13.8693649 12.2923005,13.8693649 L13.9312738,13.8693649 Z" id="Shape"></path>
                        </g>
                        <rect id="Rectangle" x="44.3169762" y="60.2707551" width="6.86499793" height="46.4439348"></rect>
                    </g>
                    <polygon id="Path" fill="url(#linearGradient-6)" fill-rule="nonzero" opacity="0.5" points="176.313442 145.53688 101.337601 145.53688 202.227911 1.24160186 277.203752 1.24160186"></polygon>
                </g>
                <g id="200" class="slide-200" fill-rule="nonzero">



                
                    <path d="M309.931294,144.720719 L7.18847951,144.720719 C3.23481578,144.720719 0,141.317194 0,137.381868 L0,7.37430415 C0,3.47443176 3.23481578,0.283627083 7.18847951,0.283627083 L309.931294,0.283627083 C313.884958,0.283627083 317.119774,3.47443176 317.119774,7.37430415 L317.119774,137.417322 C317.119774,141.317194 313.884958,144.720719 309.931294,144.720719 Z" id="Path" fill="url(#linearGradient-7)"></path>
                    <polygon id="Path" fill="#F6F5D7" opacity="0.6" points="317.119774 46.1957611 299.651768 46.1957611 299.651768 0.283627083 228.737418 0.283627083 228.737418 144.720719 299.651768 144.720719 299.651768 128.163988 317.119774 128.163988"></polygon>
                    <g id="Group" opacity="0.5" transform="translate(0.000000, 12.408685)" fill="#8A9B7F">
                        <rect id="Rectangle" x="0" y="0.141813541" width="9.52473535" height="33.397089"></rect>
                    </g>
                    <path d="M167.096206,29.4972166 L167.096206,29.4972166 C162.567464,29.4972166 159.152936,25.8809713 159.152936,21.4138447 L159.152936,0.283627083 L89.5684547,0.283627083 L89.5684547,144.756172 L159.152936,144.756172 L159.152936,132.099314 C159.152936,127.632187 162.567464,124.015942 167.096206,124.015942 L167.096206,124.015942 C171.624948,124.015942 175.291073,120.399697 175.291073,115.93257 L175.291073,37.5805885 C175.291073,33.1134619 171.624948,29.4972166 167.096206,29.4972166 Z" id="Path" fill="#C6DBA3"></path>
                    <polygon id="Path" fill="#EFECC0" points="55.1715802 0.283627083 55.1715802 63.6742801 55.1715802 131.53206 55.1715802 144.720719 89.5684547 144.720719 89.5684547 0.283627083"></polygon>
                    <rect id="Rectangle" fill="#248959" opacity="0.7" x="0" y="63.6742801" width="55.1715802" height="67.8577795"></rect>
                    <g id="Group" opacity="0.9" transform="translate(43.849725, 68.425034)" fill="#EFECC0">
                        <rect id="Rectangle" x="0.215654385" y="0.212720312" width="6.90094033" height="55.3427345"></rect>
                    </g>
                    <g id="Group" opacity="0.9" transform="translate(15.455231, 69.134101)" fill="#EFECC0">
                        <path d="M7.3681915,54.2082262 L7.15253711,54.2082262 C3.27075818,54.2082262 0.0718847951,51.159235 0.0718847951,46.3021213 C0.0718847951,41.7286345 2.73162221,38.6796434 6.50557396,38.6796434 C9.16531138,38.6796434 10.9983737,40.0623254 13.8378231,42.6504226 L19.6604915,47.7557101 L19.8042611,47.7557101 L19.8042611,38.2542028 L23.506328,38.2542028 L23.506328,53.8536923 L20.6668786,53.8536923 L11.6093944,45.6285069 C10.0279289,44.1394647 8.66211781,43.1113166 6.93688273,43.1113166 C4.99599326,43.1113166 3.73800935,44.529452 3.73800935,46.4793882 C3.73800935,48.5711379 5.31947484,49.9183666 7.15253711,49.9183666 C7.22442191,49.9183666 7.3681915,49.9183666 7.4041339,49.9183666 L7.3681915,54.2082262 Z" id="Path"></path>
                        <path d="M11.1780856,36.4815335 C4.49279969,36.4815335 0.0359423976,33.3616356 0.0359423976,27.8663609 C0.0359423976,22.3356328 4.4568573,19.322095 11.1780856,19.322095 L12.7954935,19.322095 C19.1932403,19.322095 23.9376368,22.2292726 23.9376368,27.9372676 C23.9376368,33.4679958 19.4807795,36.4815335 12.7954935,36.4815335 L11.1780856,36.4815335 Z M12.7595511,32.014407 C17.6836596,32.014407 20.2355698,30.4190046 20.2355698,27.9018143 C20.2355698,25.3846239 17.6836596,23.7892216 12.7595511,23.7892216 L11.214028,23.7892216 C6.32586197,23.7892216 3.77395174,25.3846239 3.77395174,27.9018143 C3.77395174,30.3835512 6.28991957,32.014407 11.214028,32.014407 L12.7595511,32.014407 Z" id="Shape"></path>
                        <path d="M11.1780856,17.3367054 C4.49279969,17.3367054 0.0359423976,14.2168075 0.0359423976,8.72153279 C0.0359423976,3.19080468 4.4568573,0.177266927 11.1780856,0.177266927 L12.7954935,0.177266927 C19.1932403,0.177266927 23.9376368,3.08444452 23.9376368,8.79243956 C23.9376368,14.3231677 19.4807795,17.3367054 12.7954935,17.3367054 L11.1780856,17.3367054 Z M12.7595511,12.8695789 C17.6836596,12.8695789 20.2355698,11.2741765 20.2355698,8.75698618 C20.2355698,6.23979582 17.6836596,4.64439348 12.7595511,4.64439348 L11.214028,4.64439348 C6.32586197,4.64439348 3.77395174,6.23979582 3.77395174,8.75698618 C3.77395174,11.2387232 6.28991957,12.8695789 11.214028,12.8695789 L12.7595511,12.8695789 Z" id="Shape"></path>
                    </g>
                    <path d="M159.152936,0.283627083 L159.152936,21.5556583 C159.152936,25.5618908 162.136155,29.0363226 166.161704,29.4617632 C166.449243,29.4972166 166.736782,29.4972166 167.024321,29.4972166 C171.589006,29.53267 175.291073,33.0780085 175.291073,37.5805885 C175.291073,57.7181113 175.291073,95.7595938 175.291073,115.897117 C175.291073,120.399697 171.553064,123.945035 167.024321,123.980489 C166.736782,123.980489 166.449243,124.015942 166.161704,124.015942 C162.136155,124.441383 159.152936,127.951268 159.152936,131.9575 L159.152936,144.720719 L197.000281,144.720719 L197.000281,0.283627083 L159.152936,0.283627083 Z" id="Path" fill="#F6F5D7" opacity="0.6"></path>
                    <polygon id="Path" fill="url(#linearGradient-8)" opacity="0.5" points="192.435596 144.720719 117.423813 144.720719 218.314123 0.283627083 293.325906 0.283627083"></polygon>
                </g>
            </g>
        </g>
    </g>
</svg>