<svg xmlns="http://www.w3.org/2000/svg" width="29.268" height="29.268" viewBox="0 0 29.268 29.268">
  <g id="Grupo_2728" data-name="Grupo 2728" transform="translate(10244 -2647.5)">
    <g id="Group_2" data-name="Group 2" transform="translate(-10244 2647.5)">
      <circle id="Oval" cx="14.634" cy="14.634" r="14.634" transform="translate(0 0)" fill="#19d289"/>
      <g id="Group" transform="translate(12 7)">
        <path id="Path" d="M1.4,2.81a1.444,1.444,0,0,0,1.4-1.4A1.387,1.387,0,0,0,1.4,0,1.387,1.387,0,0,0,0,1.4,1.444,1.444,0,0,0,1.4,2.81Z" transform="translate(1.932 0.615)" fill="#fff"/>
        <path id="Path-2" data-name="Path" d="M3.951,8.341c-.176,0-.263.176-.351.176-.176,0-.351.088-.527.088a.448.448,0,0,1-.439-.351c0-.176-.088-.351,0-.439a3.734,3.734,0,0,1,.176-.966c.176-.966.7-4.654.878-5.62,0-.263.088-.527.088-.79C3.776.088,3.6,0,3.249,0H.351C.176,0,0,.088,0,.263S.088.527.263.615A3.8,3.8,0,0,1,.7.7c.351,0,.439.176.439.527V1.4C.966,2.283.527,5.8.351,6.673.263,7.2.176,7.639.088,8.166A1.525,1.525,0,0,0,1.229,9.659a3.542,3.542,0,0,0,.966,0,2.926,2.926,0,0,0,1.844-.79.666.666,0,0,0,.176-.351C4.3,8.341,4.127,8.254,3.951,8.341Z" transform="translate(0.527 5.268)" fill="#fff"/>
      </g>
    </g>
  </g>
</svg>
