<?xml version="1.0" encoding="UTF-8"?>
<svg  width="367px" height="410px" viewBox="0 0 367 365" version="1.1" xmlns="http://www.w3.org/2000/svg" xmlns:xlink="http://www.w3.org/1999/xlink">
    <title>Cajero NCR multi/NIP Error</title>


    <style type="text/css">

  .myCircle{
     animation: pulse-black 2s infinite;
 }

 @keyframes pulse-black {
	0% {r:130;opacity: 1;}
    

    15% {r:130;opacity: 1;}

	90% {r:150;}

    100% {r:150;opacity:0;}
    
}


.myCircle2{
     animation: pulse-black2 2s infinite;
 }

 @keyframes pulse-black2 {
	0% {r:130;opacity: 1;}
    
	

	90% {r:175;}

     100% {r:170;opacity:0;}
    
    
}

	</style>



    <defs>
        <linearGradient x1="50.2936704%" y1="4.48288543%" x2="49.6988331%" y2="96.6776874%" id="linearGradient-1">
            <stop stop-color="#00B472" offset="0.05993717%"></stop>
            <stop stop-color="#007657" offset="99.52%"></stop>
        </linearGradient>
        <circle id="path-2" cx="132.5" cy="132.5" r="132.5"></circle>
        <linearGradient x1="50.0001594%" y1="4.9810434%" x2="50.0001594%" y2="117.22218%" id="linearGradient-4">
            <stop stop-color="#373A45" offset="0%"></stop>
            <stop stop-color="#1B1E27" offset="99.97%"></stop>
        </linearGradient>
        <linearGradient x1="49.9999829%" y1="-74.5651789%" x2="49.9999829%" y2="314.084838%" id="linearGradient-5">
            <stop stop-color="#DDDDDD" offset="0%"></stop>
            <stop stop-color="#4F4C59" offset="99.98%"></stop>
        </linearGradient>
        <linearGradient x1="49.9993968%" y1="-33.0915493%" x2="49.9993968%" y2="88.5819718%" id="linearGradient-6">
            <stop stop-color="#636878" offset="0.2418155%"></stop>
            <stop stop-color="#394054" offset="99.97%"></stop>
        </linearGradient>
        <linearGradient x1="49.999389%" y1="-33.0720095%" x2="49.999389%" y2="88.5816945%" id="linearGradient-7">
            <stop stop-color="#E6E6E6" offset="0%"></stop>
            <stop stop-color="#807D88" offset="100%"></stop>
        </linearGradient>
        <linearGradient x1="50%" y1="92.8037682%" x2="50%" y2="15.4487497%" id="linearGradient-8">
            <stop stop-color="#9B9898" offset="0.02%"></stop>
            <stop stop-color="#7C7981" offset="100%"></stop>
        </linearGradient>
        <linearGradient x1="48.6415666%" y1="35.3475097%" x2="50.1119753%" y2="64.6952196%" id="linearGradient-9">
            <stop stop-color="#B7B4BC" offset="0%"></stop>
            <stop stop-color="#797781" offset="52.64%"></stop>
            <stop stop-color="#CCCCCC" offset="99.9%"></stop>
        </linearGradient>
        <linearGradient x1="50.0001594%" y1="4.70888718%" x2="50.0001594%" y2="117.255944%" id="linearGradient-10">
            <stop stop-color="#636878" offset="0.2418155%"></stop>
            <stop stop-color="#394054" offset="99.97%"></stop>
        </linearGradient>
        <linearGradient x1="91.6237114%" y1="33.7611386%" x2="12.6188748%" y2="66.702155%" id="linearGradient-11">
            <stop stop-color="#FFFFFF" offset="0.02291165%"></stop>
            <stop stop-color="#6692FF" stop-opacity="0" offset="100%"></stop>
        </linearGradient>
        <linearGradient x1="49.4674232%" y1="38.7198305%" x2="50.7858232%" y2="101.835%" id="linearGradient-12">
            <stop stop-color="#161616" offset="0.02291165%"></stop>
            <stop stop-color="#6692FF" stop-opacity="0" offset="100%"></stop>
        </linearGradient>
        <linearGradient x1="54.7576038%" y1="87.6907806%" x2="45.2421579%" y2="12.3081443%" id="linearGradient-13">
            <stop stop-color="#595F70" offset="0%"></stop>
            <stop stop-color="#0C0C0D" offset="100%"></stop>
        </linearGradient>
        <linearGradient x1="47.7542657%" y1="49.2739805%" x2="60.4393012%" y2="56.0738748%" id="linearGradient-14">
            <stop stop-color="#888CBA" offset="0.1054068%"></stop>
            <stop stop-color="#70759A" offset="30.53%"></stop>
        </linearGradient>
        <linearGradient x1="45.5559638%" y1="47.1372016%" x2="58.2410809%" y2="53.9371068%" id="linearGradient-15">
            <stop stop-color="#888CBA" offset="0.1054068%"></stop>
            <stop stop-color="#70759A" offset="30.53%"></stop>
        </linearGradient>
        <linearGradient x1="52.3083911%" y1="68.7899161%" x2="47.4371501%" y2="39.9454272%" id="linearGradient-16">
            <stop stop-color="#B7B4BC" offset="0%"></stop>
            <stop stop-color="#797781" offset="99.98%"></stop>
        </linearGradient>
        <linearGradient x1="-0.00144578313%" y1="49.9984337%" x2="99.9985542%" y2="49.9984337%" id="linearGradient-17">
            <stop stop-color="#A8A8A8" offset="0%"></stop>
            <stop stop-color="#959595" offset="100%"></stop>
        </linearGradient>
        <linearGradient x1="107.995912%" y1="2.80638338%" x2="43.7563659%" y2="56.049047%" id="linearGradient-18">
            <stop stop-color="#FBFCFF" offset="0.02291165%"></stop>
            <stop stop-color="#EAABFB" stop-opacity="0" offset="100%"></stop>
        </linearGradient>
    </defs>
    <g id="Cajero-NCR-multi/NIP-Error" stroke="none" stroke-width="1" fill="none" fill-rule="evenodd">
        <g id="Group-8-Copy" transform="translate(20, 5)" fill="#EE882A" fill-rule="nonzero">


        
            <circle class="myCircle" id="Oval" fill="#EE862A" fill-opacity="0.8" cx="162" cy="150" r="130.199998"></circle>
            <circle class="myCircle2" id="Oval" fill="#EE862A" fill-opacity="0.4" cx="162" cy="150" r="130.199998"></circle>



        </g>
        <g id="Group-3-Copy-5" transform="translate(50, 23)">
            <mask id="mask-3" fill="white">
                <use xlink:href="#path-2"></use>
            </mask>
            <use id="Oval" fill="url(#linearGradient-1)" fill-rule="nonzero" xlink:href="#path-2"></use>
            <g id="Group-45-Copy-3" mask="url(#mask-3)">
                <g transform="translate(-863.000000, -505.000000)" id="Group-43">
                    <g id="Group-37">
                        <g id="Group-35" transform="translate(0.000000, 120.632790)" fill="url(#linearGradient-4)" fill-rule="nonzero">
                            <path d="M1196.67379,811.023172 L33.3269107,811.023172 C14.2561778,811.023172 -0.921583987,795.059433 0.0436154873,776.015536 L39.5678165,0 L1191.77469,0 L1229.95709,776.031621 C1230.91425,795.059433 1215.73648,811.023172 1196.67379,811.023172 Z" id="Path"></path>
                        </g>
                        <polygon id="Path" fill="url(#linearGradient-5)" fill-rule="nonzero" points="1108.3323 769.318198 120.790323 769.318198 120.883052 832.985499 1108.3323 832.985499"></polygon>
                        <g id="Group-26-Copy-2" transform="translate(656.871813, 769.270774)" fill-rule="nonzero">
                            <path d="M368.653524,55.8485095 L17.8650469,55.8485095 C7.99987473,55.8485095 0,48.0218522 0,38.3702858 L0,2.06088866 C0,0.920320509 0.940688788,0 2.10649968,0 L384.420111,0 C385.585922,0 386.526611,0.920320509 386.526611,2.06088866 L386.526611,38.3702858 C386.526611,48.0218522 378.526736,55.8485095 368.653524,55.8485095 Z" id="Path" fill="url(#linearGradient-6)" opacity="0.3"></path>
                            <path d="M368.516469,53.6145691 L18.0101415,53.6145691 C9.29316088,53.6145691 2.23425787,46.654109 2.23425787,38.0764122 L2.23425787,0 L384.292353,0 L384.292353,38.0764122 C384.292353,46.6620367 377.225401,53.6145691 368.516469,53.6145691 Z" id="Path" fill="url(#linearGradient-7)"></path>
                            <path d="M194.380434,53.6145691 L183.209145,53.6145691 L183.209145,14.4389967 C183.209145,11.3997807 185.673514,8.93576152 188.713162,8.93576152 L188.868643,8.93576152 C191.908291,8.93576152 194.37266,11.3997807 194.37266,14.4389967 L194.37266,53.6145691 L194.380434,53.6145691 Z" id="Path" fill="#1F232C" opacity="0.2"></path>
                            <path d="M242.416978,53.6145691 L231.245689,53.6145691 L231.245689,14.4389967 C231.245689,11.3997807 233.710058,8.93576152 236.749706,8.93576152 L236.905187,8.93576152 C239.944835,8.93576152 242.409204,11.3997807 242.409204,14.4389967 L242.409204,53.6145691 L242.416978,53.6145691 Z" id="Path" fill="#1F232C" opacity="0.2"></path>
                            <path d="M289.336394,53.6145691 L278.165104,53.6145691 L278.165104,14.4389967 C278.165104,11.3997807 280.629474,8.93576152 283.669122,8.93576152 L283.824602,8.93576152 C286.86425,8.93576152 289.32862,11.3997807 289.32862,14.4389967 L289.32862,53.6145691 L289.336394,53.6145691 Z" id="Path" fill="#1F232C" opacity="0.2"></path>
                            <path d="M339.607196,53.6145691 L328.435906,53.6145691 L328.435906,14.4389967 C328.435906,11.3997807 330.900276,8.93576152 333.939924,8.93576152 L334.095404,8.93576152 C337.135052,8.93576152 339.599422,11.3997807 339.599422,14.4389967 L339.599422,53.6145691 L339.607196,53.6145691 Z" id="Path" fill="#1F232C" opacity="0.2"></path>
                            <path d="M189.911919,9.06010679 C189.534839,8.97461942 189.142369,8.93576152 188.742204,8.93576152 C185.687093,8.93576152 183.209145,11.43821 183.209145,14.5235268 L183.209145,53.6145691 L185.548575,53.6145691 L185.548575,14.5235268 C185.55627,11.8423321 187.426275,9.60411732 189.911919,9.06010679 Z" id="Path" fill="#1F232C" opacity="0.2"></path>
                            <path d="M237.948463,9.06010679 C237.571384,8.97461942 237.178913,8.93576152 236.778748,8.93576152 C233.723638,8.93576152 231.245689,11.43821 231.245689,14.5235268 L231.245689,53.6145691 L233.585119,53.6145691 L233.585119,14.5235268 C233.592814,11.8423321 235.462819,9.60411732 237.948463,9.06010679 Z" id="Path" fill="#1F232C" opacity="0.2"></path>
                            <path d="M284.867878,9.06010679 C284.490799,8.97461942 284.098329,8.93576152 283.698163,8.93576152 C280.643053,8.93576152 278.165104,11.43821 278.165104,14.5235268 L278.165104,53.6145691 L280.504534,53.6145691 L280.504534,14.5235268 C280.512229,11.8423321 282.382234,9.60411732 284.867878,9.06010679 Z" id="Path" fill="#1F232C" opacity="0.2"></path>
                            <path d="M335.13868,9.06010679 C334.761601,8.97461942 334.369131,8.93576152 333.968965,8.93576152 C330.913855,8.93576152 328.435906,11.43821 328.435906,14.5235268 L328.435906,53.6145691 L330.775336,53.6145691 L330.775336,14.5235268 C330.783031,11.8423321 332.64534,9.60411732 335.13868,9.06010679 Z" id="Path" fill="#1F232C" opacity="0.2"></path>
                        </g>
                        <polygon id="Path-6" fill="url(#linearGradient-8)" fill-rule="nonzero" points="1136.12012 721.241056 1108.3323 769.318198 120.790323 769.318198 93.8242985 721.241056"></polygon>
                        <g id="Group-34" transform="translate(87.136057, 160.522020)" fill="url(#linearGradient-9)" fill-rule="nonzero">
                            <path d="M25.6904509,0 L1028.88851,0 C1032.62082,1.16638885e-13 1035.68272,2.95586075 1035.81421,6.68585857 L1055.09182,553.544894 C1055.22666,557.369852 1052.23522,560.579898 1048.41027,560.714734 C1048.32892,560.717601 1048.24752,560.719036 1048.16612,560.719036 L7.1686883,560.719036 C3.34135499,560.719036 0.238688305,557.616369 0.238688305,553.789036 C0.238688305,553.710825 0.240012294,553.632621 0.242659705,553.554456 L18.7644223,6.69541988 C18.8908865,2.96153638 21.9544264,2.20025786e-14 25.6904509,0 Z" id="Rectangle"></path>
                        </g>
                        <path d="M118.195186,166.106871 L1109.88973,166.106871 C1113.62121,166.106871 1116.68274,169.061462 1116.81535,172.79059 L1135.86493,708.479924 C1136.00095,712.304839 1133.0105,715.51581 1129.18559,715.651827 C1129.10353,715.654745 1129.02142,715.656205 1128.93931,715.656205 L99.8925195,715.656205 C96.0651861,715.656205 92.9625195,712.553538 92.9625195,708.726205 C92.9625195,708.647309 92.9638668,708.568418 92.9665608,708.489568 L111.269227,172.800235 C111.396773,169.067186 114.459959,166.106871 118.195186,166.106871 Z" id="Rectangle" fill="url(#linearGradient-10)" fill-rule="nonzero"></path>
                        <path d="M118.195186,166.106871 L1109.88973,166.106871 C1113.62121,166.106871 1116.68274,169.061462 1116.81535,172.79059 L1135.86493,708.479924 C1136.00095,712.304839 1133.0105,715.51581 1129.18559,715.651827 C1129.10353,715.654745 1129.02142,715.656205 1128.93931,715.656205 L99.8925195,715.656205 C96.0651861,715.656205 92.9625195,712.553538 92.9625195,708.726205 C92.9625195,708.647309 92.9638668,708.568418 92.9665608,708.489568 L111.269227,172.800235 C111.396773,169.067186 114.459959,166.106871 118.195186,166.106871 Z" id="Rectangle" fill="#1F232C" fill-rule="nonzero" opacity="0.5"></path>
                        <path d="M118.195186,166.106871 L1109.88973,166.106871 C1113.62121,166.106871 1116.68274,169.061462 1116.81535,172.79059 L1135.86493,708.479924 C1136.00095,712.304839 1133.0105,715.51581 1129.18559,715.651827 C1129.10353,715.654745 1129.02142,715.656205 1128.93931,715.656205 L99.8925195,715.656205 C96.0651861,715.656205 92.9625195,712.553538 92.9625195,708.726205 C92.9625195,708.647309 92.9638668,708.568418 92.9665608,708.489568 L111.269227,172.800235 C111.396773,169.067186 114.459959,166.106871 118.195186,166.106871 Z" id="Rectangle" fill="url(#linearGradient-11)" fill-rule="nonzero" opacity="0.4"></path>
                        <path d="M1109.88973,166.106871 C1113.62121,166.106871 1116.68274,169.061462 1116.81535,172.79059 L1135.86493,708.479924 C1136.00095,712.304839 1133.0105,715.51581 1129.18559,715.651827 C1129.10353,715.654745 1129.02142,715.656205 1128.93931,715.656205 L856.021448,715.655871 L839.925763,273.336009 L107.833448,273.335871 L111.269227,172.800235 C111.396773,169.067186 114.459959,166.106871 118.195186,166.106871 L1109.88973,166.106871 Z" id="Combined-Shape" fill="url(#linearGradient-12)" fill-rule="nonzero" opacity="0.432758876"></path>
                        <polygon id="Rectangle-Copy-14" fill="url(#linearGradient-13)" fill-rule="nonzero" opacity="0.528728667" points="831.893994 166.106871 836.147447 166.106871 856.063115 715.977948 851.237118 715.977948"></polygon>
                        <path d="M1124.61023,385.033028 L1136.14776,708.47918 C1136.28419,712.304081 1133.29409,715.515373 1129.46919,715.651801 C1129.38688,715.654736 1129.30452,715.656205 1129.22216,715.656205 L855.459246,715.655871 L843.392225,385.033028 L1124.61023,385.033028 Z" id="Combined-Shape" fill="#1F232C" fill-rule="nonzero" opacity="0.5"></path>
                        <path d="M1108.5573,419.27608 L1114.64603,680.952568 C1114.77322,686.418707 1110.44514,690.952995 1104.979,691.080182 C1104.90225,691.081967 1104.82548,691.082861 1104.74871,691.082861 L886.356347,691.082861 C881.041885,691.082861 876.675511,686.8868 876.464178,681.576541 L866.050185,419.900053 C865.832761,414.436759 870.085379,409.831627 875.548674,409.614203 C875.679836,409.608983 875.811089,409.606372 875.942354,409.606372 L1098.65997,409.606372 C1104.03787,409.606372 1108.4322,413.899644 1108.5573,419.27608 Z" id="Path-8" fill="#1F232C" fill-rule="nonzero" opacity="0.5"></path>
                        <g id="Group-38" transform="translate(969.163045, 441.092456)" fill-rule="nonzero">
                            <ellipse id="Oval" fill="#1F232C" cx="64.3466316" cy="64.3374881" rx="64.3466316" ry="64.3374881"></ellipse>
                            <path d="M113.603978,62.5521228 L15.0812418,62.5521228 L15.0812418,57.3890394 C15.0812418,52.9497527 18.6846532,49.3468534 23.1245707,49.3468534 L105.560649,49.3468534 C110.000567,49.3468534 113.603978,52.9497527 113.603978,57.3890394 L113.603978,62.5521228 Z" id="Path" fill="url(#linearGradient-14)"></path>
                            <path d="M105.560649,79.3281228 L23.1245707,79.3281228 C18.6846532,79.3281228 15.0812418,75.7252235 15.0812418,71.2859368 L15.0812418,66.1228534 L113.603978,66.1228534 L113.603978,71.2859368 C113.603978,75.7252235 110.00861,79.3281228 105.560649,79.3281228 Z" id="Path" fill="url(#linearGradient-15)"></path>
                        </g>
                        <g id="Group-39" transform="translate(884.438193, 441.560690)" fill-rule="nonzero">
                            <path d="M30.1624836,118.220134 L30.1624836,118.220134 C13.5047493,118.220134 0,104.717304 0,88.0619368 L0,30.1581975 C0,13.5028303 13.5047493,0 30.1624836,0 L30.1624836,0 C46.8202179,0 60.3249672,13.5028303 60.3249672,30.1581975 L60.3249672,88.0619368 C60.3249672,104.717304 46.8202179,118.220134 30.1624836,118.220134 Z" id="Path" fill="#1F232C"></path>
                            <path d="M14.7672865,56.9625381 C15.0028701,56.7269879 15.3848267,56.7269879 15.6204103,56.9625381 C17.1572602,58.4991695 17.200932,61.0346837 15.762085,62.6267815 C15.5387157,62.8739416 15.1572478,62.8932537 14.9100526,62.6699162 C14.6628573,62.4465787 14.6435425,62.065165 14.8669117,61.8180049 C15.877764,60.6994873 15.8466797,58.8947805 14.7672865,57.8155407 C14.5317028,57.5799905 14.5317028,57.1980882 14.7672865,56.9625381 Z" id="Path" fill="#E69448"></path>
                            <path d="M17.6623135,54.0761422 C17.8930413,53.8358349 18.2749183,53.8280426 18.5152597,54.0587376 C21.756791,57.1701654 21.7975475,62.391684 18.644702,65.5440815 C18.4091184,65.7796316 18.0271618,65.7796316 17.7915782,65.5440815 C17.5559945,65.3085313 17.5559945,64.926629 17.7915782,64.6910788 C20.467364,62.0156732 20.4326746,57.5714275 17.6797206,54.9289672 C17.4393791,54.6982722 17.4315857,54.3164495 17.6623135,54.0761422 Z" id="Path" fill="#E69448"></path>
                            <path d="M20.4458767,51.2927969 C20.6814604,51.0572467 21.0634169,51.0572467 21.2990006,51.2927969 C26.1292146,56.1223246 26.2464642,63.7502791 21.5399163,68.4476943 C21.3041207,68.6830324 20.9221643,68.6826886 20.6867928,68.4469265 C20.4514213,68.2111644 20.4517651,67.8292623 20.6875607,67.5939242 C24.9160635,63.3736265 24.8105603,56.509863 20.4458767,52.1457996 C20.2102931,51.9102494 20.2102931,51.5283471 20.4458767,51.2927969 Z" id="Path" fill="#E69448"></path>
                            <path d="M23.3495185,48.3895678 C23.5851021,48.1540176 23.9670587,48.1540176 24.2026423,48.3895678 C30.601669,54.7876852 30.7179649,65.0693664 24.4439422,71.3424976 C24.2083585,71.5780477 23.826402,71.5780477 23.5908183,71.3424976 C23.3552347,71.1069474 23.3552347,70.7250451 23.5908183,70.4894949 C29.3893007,64.6918365 29.2816429,55.1738519 23.3495185,49.2425704 C23.1139348,49.0070202 23.1139348,48.6251179 23.3495185,48.3895678 Z" id="Path" fill="#E69448"></path>
                            <path d="M22.6821877,43.0256952 C30.3093872,43.0256952 36.8796838,48.0212272 38.9388924,55.2168481 L41.053151,55.2176492 C42.1413305,55.2176492 43.0130406,56.0829038 43.0974911,57.1057055 L43.1041999,57.2684066 L43.1041999,57.7589799 L44.4313492,57.7589799 C45.6672683,57.7589799 46.839839,58.2899715 47.6548431,59.2539365 L47.8129891,59.4524735 L55.1806785,69.4730372 C55.3780179,69.7414324 55.3203849,70.1189622 55.0519516,70.3162736 C54.8133441,70.4916615 54.4884947,70.4656184 54.2806539,70.2691632 L54.2085953,70.187565 L46.8443478,60.1716357 C46.3067063,59.4548822 45.5098339,59.0334889 44.6480382,58.9729003 L44.4313492,58.9653078 L43.1041999,58.9653078 L43.1041102,59.6816952 L46.0458933,61.3346166 C46.336369,61.4977594 46.439574,61.8654565 46.276408,62.155891 C46.1313716,62.414055 45.824689,62.5242729 45.5543175,62.4309982 L45.4550169,62.386373 L39.6814335,59.1428957 C38.9743007,58.7893796 38.2135956,58.9611273 37.8364793,59.4763165 C37.50165,60.1458799 37.6414859,60.9548675 38.1254637,61.3913561 L38.2343931,61.4790013 L43.0813616,64.7043411 L44.3650248,67.271585 C45.4486257,69.5540466 47.5349831,71.1919613 50.1399716,71.9023118 C50.4613977,71.989961 50.6509013,72.321545 50.5632396,72.6429255 C50.4755779,72.9643059 50.1439468,73.1537825 49.8225206,73.0661333 C47.8082692,72.51687 46.057158,71.4652152 44.7577141,70.016941 C43.4258,70.5324609 41.9202805,70.531939 40.5777862,70.0076282 L40.2927265,69.8872562 L39.8101267,69.6459906 C38.6110805,69.0465527 38.0970914,67.6919509 38.6117356,66.5863863 L38.4181362,66.4719146 L38.2934981,66.382218 C35.7542883,72.6571717 29.6467834,76.8350452 22.6821877,76.8350452 C13.2922337,76.8350452 5.77511019,69.3189899 5.77511019,59.9303702 C5.77511019,50.5417505 13.2922337,43.0256952 22.6821877,43.0256952 Z M22.6821877,44.2320231 C13.9585648,44.2320231 6.98160953,51.207987 6.98160953,59.9303702 C6.98160953,68.6527534 13.9585648,75.6287172 22.6821877,75.6287172 C29.3029452,75.6287172 35.0832897,71.5689761 37.3347817,65.5184577 C37.366218,65.4339777 37.4145775,65.3607206 37.4745864,65.3010997 C37.2756525,64.7826134 37.2640051,64.203808 37.4822563,63.6697346 L35.6158606,63.6699866 C34.5276811,63.6699866 33.655971,62.804732 33.5715205,61.7819303 L33.5648117,61.6192292 L33.5648117,57.2684066 C33.5648117,56.1803817 34.4301893,55.3087955 35.4531364,55.224357 L35.6158606,55.2176492 L37.6799298,55.2165614 C35.6638159,48.7155568 29.6507735,44.2320231 22.6821877,44.2320231 Z M40.2238707,68.4964844 L40.3496896,68.5670182 L40.8121344,68.7986697 C41.7960272,69.2458302 42.9345619,69.3165551 43.9723453,69.0105072 C43.7921104,68.744784 43.626647,68.4703982 43.4751885,68.1864897 C42.781161,68.5314009 41.9486566,68.5326679 41.2676892,68.1591639 L41.1001667,68.057558 L39.6665909,67.2099242 C39.5308278,67.6717314 39.7405404,68.1940353 40.2238707,68.4964844 Z M38.9712591,63.6620923 L38.8734088,63.6699866 L38.8271102,63.6696952 L38.6732766,63.977282 C38.4033073,64.4496612 38.5424427,65.0255916 38.9517694,65.369754 L39.0596497,65.450772 L41.7416802,67.0364154 C42.0990964,67.274659 42.5560491,67.2920225 42.9347674,67.1100625 L42.1448061,65.5292902 L39.2016154,63.5729882 C39.1331567,63.6174565 39.0551118,63.6484171 38.9712591,63.6620923 Z M41.053151,56.4239771 L35.6158606,56.4239771 C35.2118103,56.4239771 34.8388627,56.7443596 34.7795107,57.1544984 L34.7713111,57.2684066 L34.7713111,61.6192292 C34.7713111,62.0232221 35.0917391,62.3961167 35.5019363,62.4554603 L35.6158606,62.4636587 L37.5371102,62.4626952 L37.4066389,62.3619691 C36.4855908,61.5990755 36.199137,60.2534039 36.7176804,59.0450651 L36.8060319,58.8559915 C37.5445524,57.8222098 38.8530522,57.4834319 40.0574486,57.9904286 L40.2466531,58.0775313 L41.8971102,59.0036952 L41.8977005,57.2684066 C41.8977005,56.8644137 41.5772725,56.4915191 41.1670753,56.4321755 L41.053151,56.4239771 Z" id="Combined-Shape" fill="#E69448"></path>
                        </g>
                        <path d="M1145.19755,832.985499 L1145.19755,769.318198 L1118.23153,721.241056 C1113.46898,718.860644 1111.0877,716.369603 1111.0877,713.767932 L1108.3323,866.397813 L1145.19755,832.985499 Z" id="Path-6-Copy" fill="#1A1D24" transform="translate(1126.764927, 790.082873) scale(-1, 1) translate(-1126.764927, -790.082873) "></path>
                        <g id="Group-18" transform="translate(742.438041, 729.059847)" fill="#141822" opacity="0.862253825">
                            <path d="M9.36095747,0 L66.9317064,0 C70.7590398,2.54292631e-15 73.8617064,3.10266668 73.8617064,6.93 C73.8617064,7.57323539 73.7721519,8.21333868 73.5956217,8.83187635 L68.3065643,27.3640119 C67.4572085,30.3400388 64.7375063,32.3921355 61.642649,32.3921355 L15.0176938,32.3921355 C11.9696476,32.3921355 9.27944426,30.4005541 8.38959191,27.4852928 L2.73285558,8.95315727 C1.61549667,5.29255768 3.6772006,1.41925702 7.3378002,0.301898111 C7.99353918,0.101740794 8.67535076,-7.6223451e-16 9.36095747,0 Z" id="Rectangle" style="mix-blend-mode: overlay;"></path>
                        </g>
                        <path d="M1112.49067,588.321603 L1114.64603,680.952568 C1114.77322,686.418707 1110.44514,690.952995 1104.979,691.080182 C1104.90225,691.081967 1104.82548,691.082861 1104.74871,691.082861 L886.356347,691.082861 C881.041885,691.082861 876.675511,686.8868 876.464178,681.576541 L872.752673,588.321603 L1112.49067,588.321603 Z" id="Combined-Shape" fill="#1F232C" fill-rule="nonzero" opacity="0.5"></path>
                        <g id="Group-36" transform="translate(886.863360, 599.410930)" fill-rule="nonzero">
                            <path d="M205.596768,76.1836281 L7.57805243,76.1836281 C2.91292164,76.1836281 -0.642229763,72.0097335 0.0977565008,67.4096031 L4.60552797,6.37745351 C5.19269098,2.7021745 8.70136919,0 12.4254305,0 L195.832167,0 C199.556228,0 202.7253,2.7021745 203.312463,6.37745351 L213.077064,67.4096031 C213.81705,72.0177757 210.261899,76.1836281 205.596768,76.1836281 Z" id="Path" fill="url(#linearGradient-16)"></path>
                            <path d="M195.325437,67.6026156 L168.066595,67.6026156 C162.613218,67.6026156 158.310037,63.9273366 158.744377,59.6328093 L158.744377,59.6328093 C159.130457,55.7966865 163.192338,52.8371621 168.066595,52.8371621 L195.325437,52.8371621 C200.344474,52.8371621 204.462659,55.9655725 204.663742,59.922328 L204.663742,59.922328 C204.880912,64.1123069 200.634034,67.6026156 195.325437,67.6026156 Z" id="Path" fill="#2E3545"></path>
                            <path d="M191.207252,49.0171237 L164.93774,49.0171237 C159.677403,49.0171237 155.535089,45.3418447 155.961385,41.0473174 L155.961385,41.0473174 C156.339421,37.2111947 160.248479,34.2516702 164.93774,34.2516702 L191.207252,34.2516702 C196.041293,34.2516702 200.014698,37.3800806 200.207738,41.3368361 L200.207738,41.3368361 C200.416864,45.5348572 196.32281,49.0171237 191.207252,49.0171237 Z" id="Path" fill="#2E3545"></path>
                            <path d="M188.424261,31.5494957 L162.154748,31.5494957 C156.894411,31.5494957 152.752097,28.147651 153.178393,24.1748111 L153.178393,24.1748111 C153.55643,20.6282071 157.465488,17.8938639 162.154748,17.8938639 L188.424261,17.8938639 C193.258301,17.8938639 197.231706,20.7890508 197.424746,24.4482455 L197.424746,24.4482455 C197.625829,28.3245791 193.539818,31.5494957 188.424261,31.5494957 Z" id="Path" fill="#2E3545"></path>
                            <path d="M185.858439,15.7546424 L160.248479,15.7546424 C155.124879,15.7546424 151.087128,12.5618945 151.497337,8.83836243 L151.497337,8.83836243 C151.859287,5.50889742 155.671825,2.94344008 160.248479,2.94344008 L185.858439,2.94344008 C190.57183,2.94344008 194.448714,5.66169895 194.633711,9.09571238 L194.633711,9.09571238 C194.834794,12.7227383 190.845303,15.7546424 185.858439,15.7546424 Z" id="Path" fill="#2E3545"></path>
                            <path d="M49.1298898,68.5676779 L24.4529566,68.5676779 C20.600202,68.5676779 17.5759103,64.8843567 17.9298168,60.613956 L17.9539468,60.2761842 C18.2595933,56.5204833 21.0908451,53.6413807 24.4770866,53.6413807 L49.1218465,53.6413807 C52.7413445,53.6413807 55.6771761,56.9065082 55.6771761,60.9356434 L55.6771761,61.2734152 C55.6852029,65.3025504 52.7493878,68.5676779 49.1298898,68.5676779 Z" id="Path" fill="#2E3545"></path>
                            <path d="M48.2209936,49.6685408 L27.2118184,49.6685408 C22.8442908,49.6685408 19.4178327,45.9450087 19.7717391,41.594186 L19.7717391,41.594186 C20.085429,37.7178524 23.3268905,34.7342014 27.2118184,34.7342014 L48.2209936,34.7342014 C52.3472214,34.7342014 55.6852029,38.0797508 55.6852029,42.19735 L55.6852029,42.19735 C55.6852029,46.3310336 52.3391781,49.6685408 48.2209936,49.6685408 Z" id="Path" fill="#2E3545"></path>
                            <path d="M48.5266401,32.6030221 L28.4102744,32.6030221 C24.2277434,32.6030221 20.9299785,29.0322915 21.2677983,24.858397 L21.2677983,24.858397 C21.5734448,21.142907 24.6781698,18.2798888 28.4102744,18.2798888 L48.5266401,18.2798888 C52.483958,18.2798888 55.6932462,21.488721 55.6932462,25.4454765 L55.6932462,25.4454765 C55.6852029,29.4022321 52.4759147,32.6030221 48.5266401,32.6030221 Z" id="Path" fill="#2E3545"></path>
                            <path d="M88.1480786,32.6030221 L68.0317129,32.6030221 C63.8491818,32.6030221 60.5514169,29.0322915 60.8892368,24.858397 L60.8892368,24.858397 C61.1948833,21.142907 64.2996082,18.2798888 68.0317129,18.2798888 L88.1480786,18.2798888 C92.1053964,18.2798888 95.3146847,21.488721 95.3146847,25.4454765 L95.3146847,25.4454765 C95.3066414,29.4022321 92.1053964,32.6030221 88.1480786,32.6030221 Z" id="Path" fill="#2E3545"></path>
                            <path d="M128.38081,32.6030221 L108.264444,32.6030221 C104.081913,32.6030221 100.784148,29.0322915 101.121968,24.858397 L101.121968,24.858397 C101.427615,21.142907 104.53234,18.2798888 108.264444,18.2798888 L128.38081,18.2798888 C132.338128,18.2798888 135.547416,21.488721 135.547416,25.4454765 L135.547416,25.4454765 C135.539373,29.4022321 132.338128,32.6030221 128.38081,32.6030221 Z" id="Path" fill="#2E3545"></path>
                            <path d="M49.1298898,16.1487095 L28.9893941,16.1487095 C25.1446829,16.1487095 22.1284345,12.8594554 22.458211,9.03137489 L22.458211,9.03137489 C22.7477708,5.64561458 25.587066,3.03994631 28.9893941,3.03994631 L49.1298898,3.03994631 C52.7493878,3.03994631 55.6852029,5.97534421 55.6852029,9.59432791 L55.6852029,9.59432791 C55.6852029,13.2133116 52.7493878,16.1487095 49.1298898,16.1487095 Z" id="Path" fill="#2E3545"></path>
                            <path d="M87.8987354,16.1487095 L67.9432362,16.1487095 C64.1387416,16.1487095 61.1466233,12.8594554 61.4763998,9.03137489 L61.4763998,9.03137489 C61.7659596,5.64561458 64.5730814,3.03994631 67.9432362,3.03994631 L87.8987354,3.03994631 C91.4860601,3.03994631 94.3897185,5.97534421 94.3897185,9.59432791 L94.3897185,9.59432791 C94.3977452,13.2133116 91.4860601,16.1487095 87.8987354,16.1487095 Z" id="Path" fill="#2E3545"></path>
                            <path d="M127.528217,16.1487095 L107.572718,16.1487095 C103.768223,16.1487095 100.776105,12.8594554 101.105882,9.03137489 L101.105882,9.03137489 C101.395441,5.64561458 104.202563,3.03994631 107.572718,3.03994631 L127.528217,3.03994631 C131.115542,3.03994631 134.019184,5.97534421 134.019184,9.59432791 L134.019184,9.59432791 C134.019184,13.2133116 131.107499,16.1487095 127.528217,16.1487095 Z" id="Path" fill="#2E3545"></path>
                            <path d="M89.209798,68.5676779 L66.9941234,68.5676779 C62.5461625,68.5676779 59.0473144,64.7717661 59.4012209,60.3405216 L59.4012209,60.3405216 C59.7149107,56.3837661 63.0207189,53.3277354 66.9941234,53.3277354 L89.209798,53.3277354 C93.2958091,53.3277354 96.6579206,56.552652 96.8268305,60.6380825 L96.8268305,60.6380825 C96.9957404,64.9647786 93.537109,68.5676779 89.209798,68.5676779 Z" id="Path" fill="#2E3545"></path>
                            <path d="M130.657072,68.5676779 L108.441398,68.5676779 C103.993437,68.5676779 100.494589,64.7717661 100.848495,60.3405216 L100.848495,60.3405216 C101.162185,56.3837661 104.467993,53.3277354 108.441398,53.3277354 L130.657072,53.3277354 C134.743083,53.3277354 138.105195,56.552652 138.274105,60.6380825 L138.274105,60.6380825 C138.443015,64.9647786 134.984383,68.5676779 130.657072,68.5676779 Z" id="Path" fill="#2E3545"></path>
                            <path d="M88.3652485,49.0653769 L67.22738,49.0653769 C62.9965889,49.0653769 59.6666507,45.5026885 60.0044706,41.3287939 L60.0044706,41.3287939 C60.3020737,37.6052618 63.4550587,34.7422436 67.22738,34.7422436 L88.3652485,34.7422436 C92.2582197,34.7422436 95.4514213,37.7741477 95.6122879,41.6183126 L95.6122879,41.6183126 C95.7731544,45.6796165 92.4834329,49.0653769 88.3652485,49.0653769 Z" id="Path" fill="#2E3545"></path>
                            <path d="M129.820566,49.0653769 L108.682697,49.0653769 C104.451906,49.0653769 101.121968,45.5026885 101.459788,41.3287939 L101.459788,41.3287939 C101.757391,37.6052618 104.910376,34.7422436 108.682697,34.7422436 L129.820566,34.7422436 C133.713537,34.7422436 136.906739,37.7741477 137.067605,41.6183126 L137.067605,41.6183126 C137.228472,45.6796165 133.930707,49.0653769 129.820566,49.0653769 Z" id="Path" fill="#2E3545"></path>
                            <path d="M195.325437,65.9298409 L168.066595,65.9298409 C162.613218,65.9298409 158.310037,62.2545619 158.744377,57.9600346 L158.744377,57.9600346 C159.130457,54.1239119 163.192338,51.1643874 168.066595,51.1643874 L195.325437,51.1643874 C200.344474,51.1643874 204.462659,54.2927978 204.663742,58.2495533 L204.663742,58.2495533 C204.880912,62.4395322 200.634034,65.9298409 195.325437,65.9298409 Z" id="Path" fill="#5F6378"></path>
                            <path d="M191.207252,47.344349 L164.93774,47.344349 C159.677403,47.344349 155.535089,43.66907 155.961385,39.3745427 L155.961385,39.3745427 C156.339421,35.53842 160.248479,32.5788955 164.93774,32.5788955 L191.207252,32.5788955 C196.041293,32.5788955 200.014698,35.5866731 200.207738,39.5434286 L200.207738,39.6640614 C200.416864,43.8620825 196.32281,47.344349 191.207252,47.344349 Z" id="Path" fill="#5F6378"></path>
                            <path d="M188.424261,29.876721 L162.154748,29.876721 C156.894411,29.876721 152.752097,26.4748763 153.178393,22.5020365 L153.178393,22.5020365 C153.55643,18.9554324 157.465488,16.2210892 162.154748,16.2210892 L188.424261,16.2210892 C193.258301,16.2210892 197.231706,19.1162761 197.424746,22.7754708 L197.424746,22.7754708 C197.625829,26.6518044 193.539818,29.876721 188.424261,29.876721 Z" id="Path" fill="#5F6378"></path>
                            <path d="M185.858439,14.0818677 L160.248479,14.0818677 C155.124879,14.0818677 151.087128,10.8891199 151.497337,7.16558774 L151.497337,7.16558774 C151.859287,3.83612273 155.671825,1.27066539 160.248479,1.27066539 L185.858439,1.27066539 C190.57183,1.27066539 194.448714,3.98892426 194.633711,7.42293769 L194.633711,7.42293769 C194.834794,11.0580058 190.845303,14.0818677 185.858439,14.0818677 Z" id="Path" fill="#5F6378"></path>
                            <path d="M49.1298898,66.7340595 L24.4529566,66.7340595 C20.600202,66.7340595 17.5759103,63.0507383 17.9298168,58.7803376 L17.9539468,58.4425657 C18.2595933,54.6868649 21.0908451,51.8077623 24.4770866,51.8077623 L49.1218465,51.8077623 C52.7413445,51.8077623 55.6771761,55.0728898 55.6771761,59.102025 L55.6771761,59.4397968 C55.6852029,63.468932 52.7493878,66.7340595 49.1298898,66.7340595 Z" id="Path" fill="#5F6378"></path>
                            <path d="M48.2209936,47.8429646 L27.2118184,47.8429646 C22.8442908,47.8429646 19.4178327,44.1194325 19.7717391,39.7686098 L19.7717391,39.7686098 C20.085429,35.8922762 23.3268905,32.9086252 27.2118184,32.9086252 L48.2209936,32.9086252 C52.3472214,32.9086252 55.6852029,36.2541745 55.6852029,40.3717738 L55.6852029,40.3717738 C55.6852029,44.4974152 52.3391781,47.8429646 48.2209936,47.8429646 Z" id="Path" fill="#DC8F3B"></path>
                            <path d="M48.5266401,30.7774459 L28.4102744,30.7774459 C24.2277434,30.7774459 20.9299785,27.2067153 21.2677983,23.0328207 L21.2677983,23.0328207 C21.5734448,19.3173308 24.6781698,16.4543126 28.4102744,16.4543126 L48.5266401,16.4543126 C52.483958,16.4543126 55.6932462,19.6631448 55.6932462,23.6199003 L55.6932462,23.6199003 C55.6852029,27.5686136 52.4759147,30.7774459 48.5266401,30.7774459 Z" id="Path" fill="#DC8F3B"></path>
                            <path d="M88.1480786,30.7774459 L68.0317129,30.7774459 C63.8491818,30.7774459 60.5514169,27.2067153 60.8892368,23.0328207 L60.8892368,23.0328207 C61.1948833,19.3173308 64.2996082,16.4543126 68.0317129,16.4543126 L88.1480786,16.4543126 C92.1053964,16.4543126 95.3146847,19.6631448 95.3146847,23.6199003 L95.3146847,23.6199003 C95.3066414,27.5686136 92.1053964,30.7774459 88.1480786,30.7774459 Z" id="Path" fill="#DC8F3B"></path>
                            <path d="M128.38081,30.7774459 L108.264444,30.7774459 C104.081913,30.7774459 100.784148,27.2067153 101.121968,23.0328207 L101.121968,23.0328207 C101.427615,19.3173308 104.53234,16.4543126 108.264444,16.4543126 L128.38081,16.4543126 C132.338128,16.4543126 135.547416,19.6631448 135.547416,23.6199003 L135.547416,23.6199003 C135.539373,27.5686136 132.338128,30.7774459 128.38081,30.7774459 Z" id="Path" fill="#DC8F3B"></path>
                            <path d="M49.1298898,14.3231333 L28.9893941,14.3231333 C25.1446829,14.3231333 22.1284345,11.0338792 22.458211,7.20579867 L22.458211,7.20579867 C22.7477708,3.82003836 25.587066,1.21437009 28.9893941,1.21437009 L49.1298898,1.21437009 C52.7493878,1.21437009 55.6852029,4.14976798 55.6852029,7.76875169 L55.6852029,7.76875169 C55.6852029,11.3877354 52.7493878,14.3231333 49.1298898,14.3231333 Z" id="Path" fill="#DC8F3B"></path>
                            <path d="M87.8987354,14.3231333 L67.9432362,14.3231333 C64.1387416,14.3231333 61.1466233,11.0338792 61.4763998,7.20579867 L61.4763998,7.20579867 C61.7659596,3.82003836 64.5730814,1.21437009 67.9432362,1.21437009 L87.8987354,1.21437009 C91.4860601,1.21437009 94.3897185,4.14976798 94.3897185,7.76875169 L94.3897185,7.76875169 C94.3977452,11.3877354 91.4860601,14.3231333 87.8987354,14.3231333 Z" id="Path" fill="#DC8F3B"></path>
                            <path d="M127.528217,14.3231333 L107.572718,14.3231333 C103.768223,14.3231333 100.776105,11.0338792 101.105882,7.20579867 L101.105882,7.20579867 C101.395441,3.82003836 104.202563,1.21437009 107.572718,1.21437009 L127.528217,1.21437009 C131.115542,1.21437009 134.019184,4.14976798 134.019184,7.76875169 L134.019184,7.76875169 C134.019184,11.3877354 131.107499,14.3231333 127.528217,14.3231333 Z" id="Path" fill="#DC8F3B"></path>
                            <path d="M89.209798,66.7340595 L66.9941234,66.7340595 C62.5461625,66.7340595 59.0473144,62.9381477 59.4012209,58.5069032 L59.4012209,58.5069032 C59.7149107,54.5501477 63.0207189,51.494117 66.9941234,51.494117 L89.209798,51.494117 C93.2958091,51.494117 96.6579206,54.7190336 96.8268305,58.8044641 L96.8268305,58.8044641 C96.9957404,63.1392024 93.537109,66.7340595 89.209798,66.7340595 Z" id="Path" fill="#DC8F3B"></path>
                            <path d="M130.657072,66.7340595 L108.441398,66.7340595 C103.993437,66.7340595 100.494589,62.9381477 100.848495,58.5069032 L100.848495,58.5069032 C101.162185,54.5501477 104.467993,51.494117 108.441398,51.494117 L130.657072,51.494117 C134.743083,51.494117 138.105195,54.7190336 138.274105,58.8044641 L138.274105,58.8044641 C138.443015,63.1392024 134.984383,66.7340595 130.657072,66.7340595 Z" id="Path" fill="#5F6378"></path>
                            <path d="M88.3652485,47.2317584 L67.22738,47.2317584 C62.9965889,47.2317584 59.6666507,43.66907 60.0044706,39.4951755 L60.0044706,39.4951755 C60.3020737,35.7716434 63.4550587,32.9086252 67.22738,32.9086252 L88.3652485,32.9086252 C92.2582197,32.9086252 95.4514213,35.9405293 95.6122879,39.7846942 L95.6122879,39.7846942 C95.7731544,43.8459981 92.4834329,47.2317584 88.3652485,47.2317584 Z" id="Path" fill="#DC8F3B"></path>
                            <path d="M129.820566,47.2317584 L108.682697,47.2317584 C104.451906,47.2317584 101.121968,43.66907 101.459788,39.4951755 L101.459788,39.4951755 C101.757391,35.7716434 104.910376,32.9086252 108.682697,32.9086252 L129.820566,32.9086252 C133.713537,32.9086252 136.906739,35.9405293 137.067605,39.7846942 L137.067605,39.7846942 C137.228472,43.8459981 133.930707,47.2317584 129.820566,47.2317584 Z" id="Path" fill="#DC8F3B"></path>
                        </g>
                        <polygon id="Path-10-Copy" fill="#1A1D24" transform="translate(872.308141, 551.647358) scale(-1, 1) translate(-872.308141, -551.647358) " points="866.297912 588.321603 868.332269 678.415659 878.318371 424.879057"></polygon>
                        <polygon id="Path-10-Copy-2" fill="#1A1D24" points="1105.41903 588.321603 1114.61888 678.443276 1108.62918 425.496304"></polygon>
                        <path d="M850.755742,729.059847 L996.388308,729.059847 C999.66888,729.059847 1002.32831,731.719276 1002.32831,734.999847 C1002.32831,735.560436 1002.24895,736.118202 1002.0926,736.656545 L996.135259,757.168681 C995.398249,759.706331 993.073475,761.451983 990.430966,761.451983 L854.279584,761.451983 C851.387068,761.451983 848.915083,759.368455 848.425343,756.5177 L844.901501,736.005565 C844.346059,732.772357 846.516816,729.701049 849.750024,729.145606 C850.082223,729.088537 850.418676,729.059847 850.755742,729.059847 Z" id="Rectangle" fill="#9698A0" fill-rule="nonzero" opacity="0.434488206"></path>
                        <path d="M1033.50968,441.092456 C1069.04734,441.092456 1097.85631,469.89733 1097.85631,505.429944 C1097.85631,540.962557 1069.04734,569.767432 1033.50968,569.767432 C997.972013,569.767432 969.163045,540.962557 969.163045,505.429944 C969.163045,469.89733 997.972013,441.092456 1033.50968,441.092456 Z M1033.50968,443.996583 C999.576147,443.996583 972.067585,471.501236 972.067585,505.429944 C972.067585,539.358652 999.576147,566.863304 1033.50968,566.863304 C1067.44321,566.863304 1094.95177,539.358652 1094.95177,505.429944 C1094.95177,471.501236 1067.44321,443.996583 1033.50968,443.996583 Z" id="Combined-Shape" fill="url(#linearGradient-17)" fill-rule="nonzero"></path>
                    </g>
                    <polygon id="Path" fill-opacity="0.5" fill="url(#linearGradient-18)" fill-rule="nonzero" opacity="0.5" points="430.152481 721.018599 286.989269 721.018599 697.874685 274.230523 841.029854 274.230523"></polygon>
                </g>
            </g>
        </g>
    </g>
</svg>