<?xml version="1.0" encoding="UTF-8"?>
<svg  width="367px" height="410px" viewBox="0 0 367 365" version="1.1" xmlns="http://www.w3.org/2000/svg" xmlns:xlink="http://www.w3.org/1999/xlink">
    <!-- Generator: Sketch 61 (89581) - https://sketch.com -->
    <title>NIPError-NCR</title>
    <desc>Created with Sketch.</desc>
    <defs>
        <linearGradient x1="50.2936704%" y1="4.48288543%" x2="49.6988331%" y2="96.6776874%" id="linearGradient-1">
            <stop stop-color="#00B472" offset="0.05993717%"></stop>
            <stop stop-color="#007657" offset="99.52%"></stop>
        </linearGradient>
        <circle id="path-2" cx="132.5" cy="132.5" r="132.5"></circle>
        <linearGradient x1="50.0065391%" y1="100.636049%" x2="50.0065391%" y2="-4.2742277%" id="linearGradient-4">
            <stop stop-color="#BBB6BF" offset="0%"></stop>
            <stop stop-color="#7B7883" offset="99.98%"></stop>
        </linearGradient>
        <linearGradient x1="50.0020334%" y1="-17.3528773%" x2="50.0020334%" y2="58.5345505%" id="linearGradient-5">
            <stop stop-color="#61687A" offset="0.2418155%"></stop>
            <stop stop-color="#333E54" offset="99.97%"></stop>
        </linearGradient>
        <linearGradient x1="50.0098925%" y1="100.010484%" x2="50.0098925%" y2="0.010483871%" id="linearGradient-6">
            <stop stop-color="#43C763" offset="0%"></stop>
            <stop stop-color="#BDE699" offset="100%"></stop>
        </linearGradient>
        <linearGradient x1="50.288643%" y1="49.2088012%" x2="48.9794154%" y2="53.7787712%" id="linearGradient-7">
            <stop stop-color="#898EBE" offset="0.1054068%"></stop>
            <stop stop-color="#6F769E" offset="30.53%"></stop>
        </linearGradient>
        <linearGradient x1="50.4987474%" y1="48.0970428%" x2="49.1895198%" y2="52.6670089%" id="linearGradient-8">
            <stop stop-color="#898EBE" offset="0.1054068%"></stop>
            <stop stop-color="#6F769E" offset="30.53%"></stop>
        </linearGradient>
        <linearGradient x1="-0.010969163%" y1="50.023494%" x2="99.9890749%" y2="50.023494%" id="linearGradient-9">
            <stop stop-color="#898EBE" offset="0.1054068%"></stop>
            <stop stop-color="#6F769E" offset="30.53%"></stop>
        </linearGradient>
        <linearGradient x1="49.9624242%" y1="149.231622%" x2="49.9624242%" y2="8.84703432%" id="linearGradient-10">
            <stop stop-color="#5D637A" offset="0%"></stop>
            <stop stop-color="#5D637A" offset="100%"></stop>
        </linearGradient>
        <linearGradient x1="49.9624242%" y1="149.231622%" x2="49.9624242%" y2="8.84703432%" id="linearGradient-11">
            <stop stop-color="#5D637A" offset="0%"></stop>
            <stop stop-color="#5D637A" offset="100%"></stop>
        </linearGradient>
        <linearGradient x1="49.9979282%" y1="104.589375%" x2="49.9979282%" y2="-8.39890625%" id="linearGradient-12">
            <stop stop-color="#61687A" offset="0.2418155%"></stop>
            <stop stop-color="#333E54" offset="99.97%"></stop>
        </linearGradient>
        <linearGradient x1="50.0062689%" y1="-98.1702041%" x2="50.0062689%" y2="89.3579592%" id="linearGradient-13">
            <stop stop-color="#61687A" offset="0.2418155%"></stop>
            <stop stop-color="#333E54" offset="99.97%"></stop>
        </linearGradient>
        <linearGradient x1="52.3018431%" y1="68.820455%" x2="47.4292649%" y2="39.9340141%" id="linearGradient-14">
            <stop stop-color="#BBB6BF" offset="0%"></stop>
            <stop stop-color="#7B7883" offset="99.98%"></stop>
        </linearGradient>




<style type="text/css">

  .myCircle{
     animation: pulse-black 2s infinite;
 }

 @keyframes pulse-black {
	0% {r:130;opacity: 1;}
    

    15% {r:130;opacity: 1;}

	90% {r:150;}

    100% {r:150;opacity:0;}
    
}


.myCircle2{
     animation: pulse-black2 2s infinite;
 }

 @keyframes pulse-black2 {
	0% {r:130;opacity: 1;}
    
	

	90% {r:175;}

     100% {r:170;opacity:0;}
    
    
}

	</style>



    </defs>
    <g id="Symbols" stroke="none" stroke-width="1" fill="none" fill-rule="evenodd">
        <g id="Cajero-NCR/NIP" transform="translate(-20.000000, -33.000000)">
            <g id="Group-2" transform="translate(39, 36)">
                
                
            <circle class="myCircle" id="Oval" fill="#EE862A" fill-opacity="0.8" cx="162" cy="150" r="130.199998"></circle>
            <circle class="myCircle2" id="Oval" fill="#EE862A" fill-opacity="0.4" cx="162" cy="150" r="130.199998"></circle>


                <g id="Group-3-Copy-3" transform="translate(30.000000, 17.000000)">
                    <mask id="mask-3" fill="white">
                        <use xlink:href="#path-2"></use>
                    </mask>
                    <use id="Oval" fill="url(#linearGradient-1)" fill-rule="nonzero" xlink:href="#path-2"></use>
                    <g id="NCR-Copy" mask="url(#mask-3)">
                        <g transform="translate(-278.000000, -584.000000)">
                            <path d="M769.383024,828.62209 L48.4323846,828.62209 C41.6452613,828.62209 35.3193988,826.645258 29.9819524,823.152855 L29.9819524,1283.82061 C29.9819524,1321.5781 60.5569543,1352.1531 98.314446,1352.1531 L719.435068,1352.1531 C757.19256,1352.1531 787.767562,1321.5781 787.767562,1283.82061 L787.767562,823.152855 C782.496009,826.645258 776.170147,828.62209 769.383024,828.62209 Z" id="Path" fill="url(#linearGradient-4)" fill-rule="nonzero"></path>
                            <path d="M817.485936,770.503229 L800.748759,515.030637 L17.0666498,515.030637 L0.329472004,770.503229 C-0.461260806,782.759587 5.53512967,793.829846 15.0239234,800.155709 C14.6944514,798.178877 14.4967682,796.202045 14.4967682,794.093424 L14.4967682,763.452528 L46.3237638,722.729788 C43.8197765,719.632751 42.4359941,715.613193 42.6995717,711.264162 L53.6380423,550.481824 C54.2310919,541.849658 61.4135815,535.128429 70.045748,535.128429 L72.0225801,535.128429 L747.637871,535.128429 C750.998486,535.128429 754.227312,536.182739 756.797193,537.961888 C760.882646,540.729453 763.716105,545.276167 764.045577,550.481824 L774.984048,711.264162 C775.247625,715.613193 773.863843,719.632751 771.359856,722.729788 L803.186851,763.452528 L803.186851,794.093424 C803.186851,796.13615 802.989168,798.178877 802.659696,800.155709 C812.280279,793.829846 818.276669,782.759587 817.485936,770.503229 Z" id="Path" fill="url(#linearGradient-5)" fill-rule="nonzero"></path>
                            <g id="Group" stroke-width="1" fill="none" fill-rule="evenodd" transform="translate(42.172417, 534.403590)">
                                <path d="M49.8820614,144.967682 C51.3317382,144.769999 52.8473094,144.63821 54.3628807,144.63821 L679.173589,144.63821 C680.491477,144.63821 681.743471,144.704104 682.995464,144.835893 L714.690671,3.42650884 C712.054895,1.64736002 708.891964,0.593049607 705.531349,0.593049607 L29.9819524,0.593049607 C25.5670275,0.593049607 21.5474691,2.30630403 18.582221,5.20565766 L49.8820614,144.967682 Z" id="Path" fill="#233044" fill-rule="nonzero"></path>
                            </g>
                            <path d="M624.67892,667.839752 C590.875092,667.839752 563.397127,640.361787 563.397127,606.557959 C563.397127,572.754132 590.875092,545.276167 624.67892,545.276167 C658.482747,545.276167 685.960712,572.754132 685.960712,606.557959 C685.960712,640.361787 658.482747,667.839752 624.67892,667.839752 Z M624.67892,551.865607 C594.499284,551.865607 569.986567,576.378324 569.986567,606.557959 C569.986567,636.737595 594.499284,661.250312 624.67892,661.250312 C654.858555,661.250312 679.371272,636.737595 679.371272,606.557959 C679.371272,576.444218 654.858555,551.865607 624.67892,551.865607 Z" id="Shape" fill="url(#linearGradient-6)" fill-rule="nonzero"></path>
                            <path d="M268.519683,606.228487 L110.702593,606.228487 L110.702593,598.321159 C110.702593,594.696967 113.667841,591.731719 117.292033,591.731719 L261.930243,591.731719 C265.554435,591.731719 268.519683,594.696967 268.519683,598.321159 L268.519683,606.228487 Z" id="Path" fill="url(#linearGradient-7)" fill-rule="nonzero" opacity="0.5"></path>
                            <path d="M261.930243,625.337864 L117.292033,625.337864 C113.667841,625.337864 110.702593,622.372616 110.702593,618.748424 L110.702593,610.841095 L268.519683,610.841095 L268.519683,618.748424 C268.519683,622.372616 265.554435,625.337864 261.930243,625.337864 Z" id="Path" fill="url(#linearGradient-8)" fill-rule="nonzero" opacity="0.5"></path>
                            <g id="Group" stroke-width="1" fill="none" fill-rule="evenodd" transform="translate(334.084612, 575.917063)">
                                <path d="M141.541173,55.0218247 L8.1709057,55.0218247 C3.69008644,55.0218247 0.0658944008,51.3976326 0.0658944008,46.9168134 L0.0658944008,8.4344833 C0.0658944008,3.95366405 3.69008644,0.329472004 8.1709057,0.329472004 L141.541173,0.329472004 C146.021992,0.329472004 149.646184,3.95366405 149.646184,8.4344833 L149.646184,46.9168134 C149.646184,51.3976326 146.021992,55.0218247 141.541173,55.0218247 Z" id="Path" fill="url(#linearGradient-9)" fill-rule="nonzero" opacity="0.5"></path>
                                <path d="M149.646184,30.6408964 L0.0658944008,30.6408964 L0.0658944008,8.4344833 C0.0658944008,3.95366405 3.69008644,0.329472004 8.1709057,0.329472004 L141.541173,0.329472004 C146.021992,0.329472004 149.646184,3.95366405 149.646184,8.4344833 L149.646184,30.6408964 Z" id="Path" fill="#161E28" fill-rule="nonzero"></path>
                                <rect id="Rectangle" fill-opacity="0.5" fill="url(#linearGradient-10)" fill-rule="nonzero" x="54.0993031" y="30.6408964" width="43.4903045" height="24.3809283"></rect>
                                <path d="M97.5896076,0.329472004 L54.0993031,0.329472004 L54.0993031,29.1912196 C54.0993031,29.9819524 54.7582471,30.6408964 55.5489799,30.6408964 L96.1399308,30.6408964 C96.9306636,30.6408964 97.5896076,29.9819524 97.5896076,29.1912196 L97.5896076,0.329472004 Z" id="Path" fill="url(#linearGradient-11)" fill-rule="nonzero"></path>
                            </g>
                            <path d="M803.31864,763.386633 L14.5626626,763.386633 L70.5729033,691.693525 C76.8328713,683.720303 86.3875594,679.0418 96.5352972,679.0418 L721.346006,679.0418 C731.493743,679.0418 741.048431,683.720303 747.308399,691.693525 L803.31864,763.386633 Z" id="Path" fill="url(#linearGradient-12)" fill-rule="nonzero"></path>
                            <path d="M769.383024,827.963146 L48.4323846,827.963146 C29.7183748,827.963146 14.4967682,812.807434 14.4967682,794.02753 L14.4967682,763.386633 L803.252959,763.386633 L803.252959,794.02753 C803.31864,812.807434 788.097034,827.963146 769.383024,827.963146 Z" id="Path" fill="url(#linearGradient-13)" fill-rule="nonzero"></path>
                            <path d="M769.383024,827.963146 L48.4323846,827.963146 C41.6452613,827.963146 35.3193988,825.986314 29.9819524,822.493911 L29.9819524,1283.16167 C29.9819524,1320.91916 60.5569543,1351.49416 98.314446,1351.49416 L719.435068,1351.49416 C757.19256,1351.49416 787.767562,1320.91916 787.767562,1283.16167 L787.767562,822.493911 C782.496009,825.986314 776.170147,827.963146 769.383024,827.963146 Z" id="Path" fill="url(#linearGradient-4)" fill-rule="nonzero"></path>
                            <path d="M716.931081,1079.67976 L100.950222,1079.67976 C85.2673546,1079.67976 72.5497353,1066.96214 72.5497353,1051.27927 L72.5497353,827.963146 L745.331567,827.963146 L745.331567,1051.27927 C745.331567,1066.96214 732.613948,1079.67976 716.931081,1079.67976 Z" id="Path" fill="#233044" fill-rule="nonzero"></path>
                            <path d="M688.596488,1014.11483 L129.284814,1014.11483 C113.601947,1014.11483 100.884328,1001.39721 100.884328,985.714342 L100.884328,827.963146 L716.996975,827.963146 L716.996975,985.714342 C716.996975,1001.39721 704.279356,1014.11483 688.596488,1014.11483 Z" id="Path" fill="#161E28" fill-rule="nonzero" opacity="0.5"></path>
                            <g id="Group" stroke-width="1" fill="none" fill-rule="evenodd" transform="translate(301.137412, 682.007048)">
                                <path d="M207.567363,76.9646601 L8.0391169,76.9646601 C3.36061444,76.9646601 -0.263577603,72.7474185 0.527155206,68.1348104 L10.3454209,6.58944008 C10.9384705,2.89935364 14.1014018,0.131788802 17.8573826,0.131788802 L197.749097,0.131788802 C201.505078,0.131788802 204.668009,2.83345923 205.261058,6.58944008 L215.079324,68.1348104 C215.870057,72.7474185 212.245865,76.9646601 207.567363,76.9646601 Z" id="Path" fill="url(#linearGradient-14)" fill-rule="nonzero"></path>
                                <path d="M197.221942,68.3324936 L169.743976,68.3324936 C164.274741,68.3324936 159.925711,64.6424072 160.321077,60.2933767 L160.321077,60.2933767 C160.716444,56.4056071 164.801896,53.440359 169.743976,53.440359 L197.221942,53.440359 C202.29581,53.440359 206.447158,56.6032903 206.644841,60.5569543 L206.644841,60.5569543 C206.842524,64.774196 202.559388,68.3324936 197.221942,68.3324936 Z" id="Path" fill="#273244" fill-rule="nonzero"></path>
                                <path d="M193.070594,49.5525894 L166.581045,49.5525894 C161.309493,49.5525894 157.092252,45.862503 157.553512,41.5134725 L157.553512,41.5134725 C157.948879,37.6257029 161.902543,34.6604548 166.581045,34.6604548 L193.070594,34.6604548 C197.94678,34.6604548 201.966338,37.8233861 202.164022,41.7770501 L202.164022,41.7770501 C202.361705,46.0601862 198.210358,49.5525894 193.070594,49.5525894 Z" id="Path" fill="#273244" fill-rule="nonzero"></path>
                                <path d="M190.237135,31.9587844 L163.747586,31.9587844 C158.476034,31.9587844 154.258792,28.5322755 154.720053,24.5127171 L154.720053,24.5127171 C155.115419,20.9544195 159.069084,18.1868546 163.747586,18.1868546 L190.237135,18.1868546 C195.113321,18.1868546 199.132879,21.0862083 199.330562,24.7762947 L199.330562,24.7762947 C199.528246,28.7299587 195.442793,31.9587844 190.237135,31.9587844 Z" id="Path" fill="#273244" fill-rule="nonzero"></path>
                                <path d="M187.667253,16.0782338 L161.836648,16.0782338 C156.696885,16.0782338 152.611432,12.8494082 153.006799,9.09342731 L153.006799,9.09342731 C153.402165,5.73281287 157.22404,3.16293124 161.836648,3.16293124 L187.667253,3.16293124 C192.41165,3.16293124 196.29942,5.93049607 196.497103,9.35700491 L196.497103,9.35700491 C196.694786,12.981197 192.675228,16.0782338 187.667253,16.0782338 Z" id="Path" fill="#273244" fill-rule="nonzero"></path>
                                <g opacity="0.8" transform="translate(17.791488, 2.635776)" fill="#273244" fill-rule="nonzero" id="Path">
                                    <path d="M32.0905732,66.6192392 L7.24838409,66.6192392 C3.36061444,66.6192392 0.329472004,62.9291528 0.658944008,58.5801223 L0.658944008,58.2506503 C0.988416012,54.4946695 3.82187525,51.5294214 7.24838409,51.5294214 L32.0905732,51.5294214 C35.7147652,51.5294214 38.6800133,54.8241415 38.6800133,58.9095943 L38.6800133,59.2390663 C38.6800133,63.3245192 35.7147652,66.6192392 32.0905732,66.6192392 Z"></path>
                                    <path d="M31.1680516,47.5757574 L10.0159489,47.5757574 C5.60102407,47.5757574 2.17451523,43.8197765 2.50398723,39.4707461 L2.50398723,39.4707461 C2.83345923,35.5829764 6.06228487,32.551834 10.0159489,32.551834 L31.1680516,32.551834 C35.3193988,32.551834 38.6800133,35.9124484 38.6800133,40.0637957 L38.6800133,40.0637957 C38.6800133,44.2151429 35.3193988,47.5757574 31.1680516,47.5757574 Z"></path>
                                    <path d="M31.4975236,30.3773188 L11.2020481,30.3773188 C6.98480648,30.3773188 3.69008644,26.7531267 4.01955845,22.6017795 L4.01955845,22.6017795 C4.34903045,18.8457986 7.44606729,15.946445 11.2020481,15.946445 L31.4975236,15.946445 C35.4511876,15.946445 38.7459077,19.1752706 38.7459077,23.1948291 L38.7459077,23.1948291 C38.6800133,27.1484931 35.4511876,30.3773188 31.4975236,30.3773188 Z"></path>
                                    <path d="M71.4295305,30.3773188 L51.134055,30.3773188 C46.9168134,30.3773188 43.6220933,26.7531267 43.9515653,22.6017795 L43.9515653,22.6017795 C44.2810373,18.8457986 47.3780742,15.946445 51.134055,15.946445 L71.4295305,15.946445 C75.3831945,15.946445 78.6779146,19.1752706 78.6779146,23.1948291 L78.6779146,23.1948291 C78.6120202,27.1484931 75.3831945,30.3773188 71.4295305,30.3773188 Z"></path>
                                    <path d="M111.954587,30.3773188 L91.6591115,30.3773188 C87.4418699,30.3773188 84.1471498,26.7531267 84.4766218,22.6017795 L84.4766218,22.6017795 C84.8060938,18.8457986 87.9031307,15.946445 91.6591115,15.946445 L111.954587,15.946445 C115.908251,15.946445 119.202971,19.1752706 119.202971,23.1948291 L119.202971,23.1948291 C119.202971,27.1484931 115.974145,30.3773188 111.954587,30.3773188 Z"></path>
                                    <path d="M32.0905732,13.8378242 L11.7950977,13.8378242 C7.9073281,13.8378242 4.87618566,10.5431041 5.20565766,6.65533448 L5.20565766,6.65533448 C5.46923527,3.22882564 8.3685889,0.593049607 11.7950977,0.593049607 L32.0905732,0.593049607 C35.7147652,0.593049607 38.6800133,3.55829764 38.6800133,7.18248969 L38.6800133,7.18248969 C38.6800133,10.8725761 35.7147652,13.8378242 32.0905732,13.8378242 Z"></path>
                                    <path d="M71.1659529,13.8378242 L51.0681606,13.8378242 C47.2462854,13.8378242 44.2151429,10.5431041 44.5446149,6.65533448 L44.5446149,6.65533448 C44.8081925,3.22882564 47.6416518,0.593049607 51.0681606,0.593049607 L71.1659529,0.593049607 C74.7901449,0.593049607 77.6894985,3.55829764 77.6894985,7.18248969 L77.6894985,7.18248969 C77.6894985,10.8725761 74.7901449,13.8378242 71.1659529,13.8378242 Z"></path>
                                    <path d="M111.09796,13.8378242 L91.0001675,13.8378242 C87.1782923,13.8378242 84.1471498,10.5431041 84.4766218,6.65533448 L84.4766218,6.65533448 C84.7401994,3.22882564 87.5736587,0.593049607 91.0001675,0.593049607 L111.09796,0.593049607 C114.722152,0.593049607 117.621505,3.55829764 117.621505,7.18248969 L117.621505,7.18248969 C117.621505,10.8725761 114.722152,13.8378242 111.09796,13.8378242 Z"></path>
                                    <path d="M72.4838409,66.6192392 L50.0797446,66.6192392 C45.5989254,66.6192392 42.0406277,62.797364 42.4359941,58.3165447 L42.4359941,58.3165447 C42.7654661,54.2969863 46.0601862,51.2658438 50.0797446,51.2658438 L72.4838409,51.2658438 C76.6351881,51.2658438 79.9958026,54.4946695 80.1275914,58.6460167 L80.1275914,58.6460167 C80.3252746,62.9950472 76.8328713,66.6192392 72.4838409,66.6192392 Z"></path>
                                    <path d="M114.260891,66.6192392 L91.8567947,66.6192392 C87.3759755,66.6192392 83.8176778,62.797364 84.2130442,58.3165447 L84.2130442,58.3165447 C84.5425162,54.2969863 87.8372363,51.2658438 91.8567947,51.2658438 L114.260891,51.2658438 C118.412238,51.2658438 121.772853,54.4946695 121.904641,58.6460167 L121.904641,58.6460167 C122.102325,62.9950472 118.609921,66.6192392 114.260891,66.6192392 Z"></path>
                                    <path d="M71.6272137,46.9827078 L50.3433222,46.9827078 C46.0601862,46.9827078 42.6995717,43.3585157 43.0290437,39.2071685 L43.0290437,39.2071685 C43.3585157,35.4511876 46.521447,32.551834 50.3433222,32.551834 L71.6272137,32.551834 C75.5808777,32.551834 78.743809,35.5829764 78.9414922,39.4707461 L78.9414922,39.4707461 C79.073281,43.5561989 75.7785609,46.9827078 71.6272137,46.9827078 Z"></path>
                                    <path d="M113.404264,46.9827078 L92.1203723,46.9827078 C87.8372363,46.9827078 84.4766218,43.3585157 84.8060938,39.2071685 L84.8060938,39.2071685 C85.1355658,35.4511876 88.2984971,32.551834 92.1203723,32.551834 L113.404264,32.551834 C117.357928,32.551834 120.520859,35.5829764 120.718542,39.4707461 L120.718542,39.4707461 C120.850331,43.5561989 117.555611,46.9827078 113.404264,46.9827078 Z"></path>
                                </g>
                                <path d="M197.221942,66.6192392 L169.743976,66.6192392 C164.274741,66.6192392 159.925711,62.9291528 160.321077,58.5801223 L160.321077,58.5801223 C160.716444,54.6923527 164.801896,51.7271046 169.743976,51.7271046 L197.221942,51.7271046 C202.29581,51.7271046 206.447158,54.8900359 206.644841,58.8436999 L206.644841,58.8436999 C206.842524,63.126836 202.559388,66.6192392 197.221942,66.6192392 Z" id="Path" fill="#5D637A" fill-rule="nonzero"></path>
                                <path d="M193.070594,47.9052294 L166.581045,47.9052294 C161.309493,47.9052294 157.092252,44.2151429 157.553512,39.8661125 L157.553512,39.8661125 C157.948879,35.9783428 161.902543,33.0130948 166.581045,33.0130948 L193.070594,33.0130948 C197.94678,33.0130948 201.966338,36.0442372 202.164022,40.0637957 L202.164022,40.1955845 C202.361705,44.4128261 198.210358,47.9052294 193.070594,47.9052294 Z" id="Path" fill="#5D637A" fill-rule="nonzero"></path>
                                <path d="M190.237135,30.3114244 L163.747586,30.3114244 C158.476034,30.3114244 154.258792,26.8849155 154.720053,22.8653571 L154.720053,22.8653571 C155.115419,19.3070594 159.069084,16.5394946 163.747586,16.5394946 L190.237135,16.5394946 C195.113321,16.5394946 199.132879,19.4388482 199.330562,23.1289347 L199.330562,23.1289347 C199.528246,27.0167043 195.442793,30.3114244 190.237135,30.3114244 Z" id="Path" fill="#5D637A" fill-rule="nonzero"></path>
                                <path d="M187.667253,14.3649794 L161.836648,14.3649794 C156.696885,14.3649794 152.611432,11.1361537 153.006799,7.38017289 L153.006799,7.38017289 C153.402165,4.01955845 157.22404,1.44967682 161.836648,1.44967682 L187.667253,1.44967682 C192.41165,1.44967682 196.29942,4.21724165 196.497103,7.64375049 L196.497103,7.64375049 C196.694786,11.3338369 192.675228,14.3649794 187.667253,14.3649794 Z" id="Path" fill="#5D637A" fill-rule="nonzero"></path>
                                <g transform="translate(17.791488, 1.317888)" fill-rule="nonzero" id="Path">
                                    <path d="M32.0905732,66.092084 L7.24838409,66.092084 C3.36061444,66.092084 0.329472004,62.4019976 0.658944008,58.0529671 L0.658944008,57.7234951 C0.988416012,53.9675143 3.82187525,51.0022662 7.24838409,51.0022662 L32.0905732,51.0022662 C35.7147652,51.0022662 38.6800133,54.2969863 38.6800133,58.3824391 L38.6800133,58.7119111 C38.6800133,62.797364 35.7147652,66.092084 32.0905732,66.092084 Z" fill="#5D637A"></path>
                                    <path d="M31.1680516,47.0486022 L10.0159489,47.0486022 C5.60102407,47.0486022 2.17451523,43.2926213 2.50398723,38.9435909 L2.50398723,38.9435909 C2.83345923,35.0558212 6.06228487,32.0246788 10.0159489,32.0246788 L31.1680516,32.0246788 C35.3193988,32.0246788 38.6800133,35.3852932 38.6800133,39.5366405 L38.6800133,39.5366405 C38.6800133,43.6879877 35.3193988,47.0486022 31.1680516,47.0486022 Z" fill="#F59130"></path>
                                    <path d="M31.4975236,29.8501636 L11.2020481,29.8501636 C6.98480648,29.8501636 3.69008644,26.2259715 4.01955845,22.0746243 L4.01955845,22.0746243 C4.34903045,18.3186434 7.44606729,15.4192898 11.2020481,15.4192898 L31.4975236,15.4192898 C35.4511876,15.4192898 38.7459077,18.6481154 38.7459077,22.6676739 L38.7459077,22.6676739 C38.6800133,26.6213379 35.4511876,29.8501636 31.4975236,29.8501636 Z" fill="#F59130"></path>
                                    <path d="M71.4295305,29.8501636 L51.134055,29.8501636 C46.9168134,29.8501636 43.6220933,26.2259715 43.9515653,22.0746243 L43.9515653,22.0746243 C44.2810373,18.3186434 47.3780742,15.4192898 51.134055,15.4192898 L71.4295305,15.4192898 C75.3831945,15.4192898 78.6779146,18.6481154 78.6779146,22.6676739 L78.6779146,22.6676739 C78.6120202,26.6213379 75.3831945,29.8501636 71.4295305,29.8501636 Z" fill="#F59130"></path>
                                    <path d="M111.954587,29.8501636 L91.6591115,29.8501636 C87.4418699,29.8501636 84.1471498,26.2259715 84.4766218,22.0746243 L84.4766218,22.0746243 C84.8060938,18.3186434 87.9031307,15.4192898 91.6591115,15.4192898 L111.954587,15.4192898 C115.908251,15.4192898 119.202971,18.6481154 119.202971,22.6676739 L119.202971,22.6676739 C119.202971,26.6213379 115.974145,29.8501636 111.954587,29.8501636 Z" fill="#F59130"></path>
                                    <path d="M32.0905732,13.310669 L11.7950977,13.310669 C7.9073281,13.310669 4.87618566,10.0159489 5.20565766,6.12817927 L5.20565766,6.12817927 C5.46923527,2.70167043 8.3685889,0.0658944008 11.7950977,0.0658944008 L32.0905732,0.0658944008 C35.7147652,0.0658944008 38.6800133,3.03114244 38.6800133,6.65533448 L38.6800133,6.65533448 C38.6800133,10.3454209 35.7147652,13.310669 32.0905732,13.310669 Z" fill="#F59130"></path>
                                    <path d="M71.1659529,13.310669 L51.0681606,13.310669 C47.2462854,13.310669 44.2151429,10.0159489 44.5446149,6.12817927 L44.5446149,6.12817927 C44.8081925,2.70167043 47.6416518,0.0658944008 51.0681606,0.0658944008 L71.1659529,0.0658944008 C74.7901449,0.0658944008 77.6894985,3.03114244 77.6894985,6.65533448 L77.6894985,6.65533448 C77.6894985,10.3454209 74.7901449,13.310669 71.1659529,13.310669 Z" fill="#F59130"></path>
                                    <path d="M111.09796,13.310669 L91.0001675,13.310669 C87.1782923,13.310669 84.1471498,10.0159489 84.4766218,6.12817927 L84.4766218,6.12817927 C84.7401994,2.70167043 87.5736587,0.0658944008 91.0001675,0.0658944008 L111.09796,0.0658944008 C114.722152,0.0658944008 117.621505,3.03114244 117.621505,6.65533448 L117.621505,6.65533448 C117.621505,10.3454209 114.722152,13.310669 111.09796,13.310669 Z" fill="#F59130"></path>
                                    <path d="M72.4838409,66.092084 L50.0797446,66.092084 C45.5989254,66.092084 42.0406277,62.2702088 42.4359941,57.7893895 L42.4359941,57.7893895 C42.7654661,53.7698311 46.0601862,50.7386886 50.0797446,50.7386886 L72.4838409,50.7386886 C76.6351881,50.7386886 79.9958026,53.9675143 80.1275914,58.1188615 L80.1275914,58.1188615 C80.3252746,62.467892 76.8328713,66.092084 72.4838409,66.092084 Z" fill="#F59130"></path>
                                    <path d="M114.260891,66.092084 L91.8567947,66.092084 C87.3759755,66.092084 83.8176778,62.2702088 84.2130442,57.7893895 L84.2130442,57.7893895 C84.5425162,53.7698311 87.8372363,50.7386886 91.8567947,50.7386886 L114.260891,50.7386886 C118.412238,50.7386886 121.772853,53.9675143 121.904641,58.1188615 L121.904641,58.1188615 C122.102325,62.467892 118.609921,66.092084 114.260891,66.092084 Z" fill="#5D637A"></path>
                                    <path d="M71.6272137,46.4555526 L50.3433222,46.4555526 C46.0601862,46.4555526 42.6995717,42.8313605 43.0290437,38.6800133 L43.0290437,38.6800133 C43.3585157,34.9240324 46.521447,32.0246788 50.3433222,32.0246788 L71.6272137,32.0246788 C75.5808777,32.0246788 78.743809,35.0558212 78.9414922,38.9435909 L78.9414922,38.9435909 C79.073281,43.0290437 75.7785609,46.4555526 71.6272137,46.4555526 Z" fill="#F59130"></path>
                                    <path d="M113.404264,46.4555526 L92.1203723,46.4555526 C87.8372363,46.4555526 84.4766218,42.8313605 84.8060938,38.6800133 L84.8060938,38.6800133 C85.1355658,34.9240324 88.2984971,32.0246788 92.1203723,32.0246788 L113.404264,32.0246788 C117.357928,32.0246788 120.520859,35.0558212 120.718542,38.9435909 L120.718542,38.9435909 C120.850331,43.0290437 117.555611,46.4555526 113.404264,46.4555526 Z" fill="#F59130"></path>
                                </g>
                            </g>
                            <path d="M459.67934,886.609163 L358.201963,886.609163 C355.302609,886.609163 352.930411,884.236964 352.930411,881.337611 L352.930411,851.026186 C352.930411,848.126833 355.302609,845.754634 358.201963,845.754634 L459.67934,845.754634 C462.578694,845.754634 464.950892,848.126833 464.950892,851.026186 L464.950892,881.337611 C464.950892,884.236964 462.578694,886.609163 459.67934,886.609163 Z" id="Path" fill="#161E28" fill-rule="nonzero"></path>
                            <g id="Group" stroke-width="1" fill="none" fill-rule="evenodd" transform="translate(387.459077, 854.650378)">
                                <path d="M41.3816837,0.593049607 L1.18609921,0.593049607 C0.658944008,0.593049607 0.197683202,1.05431041 0.197683202,1.58146562 L0.197683202,22.6676739 C0.197683202,23.1948291 0.658944008,23.6560899 1.18609921,23.6560899 L41.3816837,23.6560899 C41.9088389,23.6560899 42.3700997,23.1948291 42.3700997,22.6676739 L42.3700997,1.58146562 C42.3700997,0.988416012 41.9088389,0.593049607 41.3816837,0.593049607 Z M40.3932677,21.6792579 L2.17451523,21.6792579 L2.17451523,2.56988163 L40.3932677,2.56988163 L40.3932677,21.6792579 Z" id="Shape" fill="#F59130" fill-rule="nonzero"></path>
                                <path d="M20.0977922,15.5510786 C19.7683202,15.4192898 19.4388482,15.2216066 19.1752706,14.8921346 L17.6596994,16.605389 C18.1209602,17.0666498 18.7140098,17.3302274 19.3070594,17.5279106 C19.9660034,17.7255938 20.559053,17.7914882 21.2179971,17.7914882 L21.2179971,18.7799042 L22.2064131,18.7799042 L22.2064131,17.7914882 C22.6676739,17.7255938 23.1289347,17.6596994 23.5901955,17.4620162 C23.9855619,17.3302274 24.3809283,17.0666498 24.7104003,16.8030722 C25.0398723,16.5394946 25.3034499,16.2100226 25.4352387,15.8146562 C25.6329219,15.4192898 25.6988163,14.958029 25.6988163,14.4308738 C25.6988163,13.7719298 25.5011331,13.1788802 25.1057667,12.7835138 C24.7104003,12.3222529 24.1832451,11.9927809 23.5901955,11.8609921 L22.2064131,11.4656257 L22.2064131,9.15932171 C22.5358851,9.15932171 22.7994627,9.22521611 23.1289347,9.35700491 C23.4584067,9.42289931 23.7219843,9.62058252 23.9196675,9.81826572 L25.3034499,8.1050113 C24.9080835,7.77553929 24.3809283,7.51196169 23.7878787,7.38017289 C23.1948291,7.24838409 22.6676739,7.18248969 22.1405187,7.18248969 L22.1405187,6.19407368 L21.1521027,6.19407368 L21.1521027,7.18248969 C20.7567363,7.24838409 20.2954754,7.31427849 19.900109,7.51196169 C19.5047426,7.70964489 19.1752706,7.9073281 18.8457986,8.1709057 C18.5163266,8.4344833 18.3186434,8.76395531 18.1209602,9.09342731 C17.923277,9.48879372 17.8573826,9.88416012 17.8573826,10.3454209 C17.8573826,11.0702593 18.0550658,11.6633089 18.4504322,12.0586753 C18.8457986,12.4540418 19.3729538,12.7835138 20.0977922,13.0470914 L21.1521027,13.3765634 L21.1521027,15.8146562 C20.8226307,15.8146562 20.4931586,15.6828674 20.0977922,15.5510786 Z M22.2064131,13.5742466 L22.4699907,13.7060354 C22.6017795,13.7719298 22.7335683,13.8378242 22.8653571,13.8378242 C22.9971459,13.9037186 23.0630403,13.969613 23.1948291,14.0355074 C23.2607235,14.1014018 23.3266179,14.1672962 23.3925123,14.299085 C23.4584067,14.4308738 23.4584067,14.5626626 23.4584067,14.6944514 C23.4584067,14.8262402 23.3925123,15.0239234 23.3266179,15.1557122 C23.2607235,15.287501 23.1289347,15.3533954 23.0630403,15.4851842 C22.9312515,15.5510786 22.7994627,15.616973 22.6676739,15.6828674 C22.5358851,15.7487618 22.3382019,15.7487618 22.2064131,15.8146562 L22.2064131,13.5742466 L22.2064131,13.5742466 Z M20.9544195,11.2020481 C20.8226307,11.2020481 20.6908419,11.1361537 20.6249475,11.0702593 C20.4931586,11.0043649 20.4272642,10.8725761 20.2954754,10.7407873 C20.229581,10.6089985 20.1636866,10.4113153 20.1636866,10.2136321 C20.1636866,9.88416012 20.2954754,9.68647692 20.4931586,9.55468812 C20.6908419,9.42289931 20.9544195,9.29111051 21.2179971,9.22521611 L21.2179971,11.2679425 C21.1521027,11.2679425 21.0862083,11.2020481 20.9544195,11.2020481 Z" id="Shape" fill="#F59130" fill-rule="nonzero"></path>
                            </g>
                        </g>
                    </g>
                </g>
            </g>
        </g>
    </g>
</svg>