<?xml version="1.0" encoding="UTF-8"?>

<svg  width="367px" height="410px" viewBox="0 0 367 365" version="1.1" xmlns="http://www.w3.org/2000/svg" xmlns:xlink="http://www.w3.org/1999/xlink">
    <!-- Generator: Sketch 61 (89581) - https://sketch.com -->
    <title>SinServicio-Diebold</title>
    <desc>Created with Sketch.</desc>

    <style type="text/css">

  .myCircle{
     animation: pulse-black 2s infinite;
 }

 @keyframes pulse-black {
	0% {r:130;opacity: 1;}
    

    15% {r:130;opacity: 1;}

	90% {r:150;}

    100% {r:150;opacity:0;}
    
}


.myCircle2{
     animation: pulse-black2 2s infinite;
 }

 @keyframes pulse-black2 {
	0% {r:130;opacity: 1;}
    
	

	90% {r:175;}

     100% {r:170;opacity:0;}
    
    
}

	</style>

    
    <defs>
        <linearGradient x1="50.2936704%" y1="4.48288543%" x2="49.6988331%" y2="96.6776874%" id="linearGradient-1">
            <stop stop-color="#00B472" offset="0.05993717%"></stop>
            <stop stop-color="#007657" offset="99.52%"></stop>
        </linearGradient>
        <circle id="path-2" cx="123.56809" cy="123.56809" r="123.56809"></circle>
        <linearGradient x1="51.3204035%" y1="0.52997775%" x2="49.9940608%" y2="100.077756%" id="linearGradient-4">
            <stop stop-color="#7E7D9B" offset="0%"></stop>
            <stop stop-color="#4D4D76" offset="100%"></stop>
        </linearGradient>
        <linearGradient x1="50.0028417%" y1="129.479167%" x2="50.0028417%" y2="-11.4761628%" id="linearGradient-5">
            <stop stop-color="#C5C3D2" offset="0.2418155%"></stop>
            <stop stop-color="#4D4D76" offset="99.97%"></stop>
        </linearGradient>
        <linearGradient x1="49.9849956%" y1="55.8101379%" x2="49.9849956%" y2="-8.37383087%" id="linearGradient-6">
            <stop stop-color="#878593" offset="0%"></stop>
            <stop stop-color="#4D4D76" offset="99.97%"></stop>
        </linearGradient>
        <linearGradient x1="49.9916051%" y1="-29.9716144%" x2="49.9916051%" y2="84.5450725%" id="linearGradient-7">
            <stop stop-color="#626878" offset="0.2418155%"></stop>
            <stop stop-color="#353E52" offset="99.97%"></stop>
        </linearGradient>
        <linearGradient x1="49.7853272%" y1="-6.48066914%" x2="49.7853272%" y2="250.222677%" id="linearGradient-8">
            <stop stop-color="#CBC7D0" offset="0%"></stop>
            <stop stop-color="#888592" offset="100%"></stop>
        </linearGradient>
        <linearGradient x1="49.8699704%" y1="-6.87798507%" x2="49.8699704%" y2="250.783209%" id="linearGradient-9">
            <stop stop-color="#CBC7D0" offset="0%"></stop>
            <stop stop-color="#888592" offset="100%"></stop>
        </linearGradient>
        <linearGradient x1="9.59517425%" y1="77.3793333%" x2="87.1199369%" y2="26.2720173%" id="linearGradient-10">
            <stop stop-color="#8C8D8D" offset="0%"></stop>
            <stop stop-color="#C5C5C5" offset="100%"></stop>
        </linearGradient>
        <linearGradient x1="49.8411017%" y1="-158.683607%" x2="49.8411017%" y2="795.327869%" id="linearGradient-11">
            <stop stop-color="#CBC7D0" offset="0%"></stop>
            <stop stop-color="#575464" offset="99.98%"></stop>
        </linearGradient>
        <linearGradient x1="49.9916051%" y1="241.271362%" x2="49.9916051%" y2="-43.1190044%" id="linearGradient-12">
            <stop stop-color="#626878" offset="0%"></stop>
            <stop stop-color="#353E52" offset="99.97%"></stop>
        </linearGradient>
        <linearGradient x1="49.9858396%" y1="103.627612%" x2="49.9858396%" y2="40.2753809%" id="linearGradient-13">
            <stop stop-color="#CBC7D0" offset="0%"></stop>
            <stop stop-color="#E6E6E6" offset="99.98%"></stop>
        </linearGradient>
        <linearGradient x1="57.8990398%" y1="43.7820115%" x2="34.2378601%" y2="62.538739%" id="linearGradient-14">
            <stop stop-color="#888EB9" offset="23.77%"></stop>
            <stop stop-color="#70779A" offset="100%"></stop>
        </linearGradient>
        <linearGradient x1="50.0098925%" y1="100.010484%" x2="50.0098925%" y2="0.010483871%" id="linearGradient-15">
            <stop stop-color="#B83636" offset="0%"></stop>
            <stop stop-color="#FF8E8E" offset="100%"></stop>
        </linearGradient>
        <linearGradient x1="49.4145919%" y1="67.2754054%" x2="50.9507832%" y2="40.8824495%" id="linearGradient-16">
            <stop stop-color="#626878" offset="0.2418155%"></stop>
            <stop stop-color="#353E52" offset="99.97%"></stop>
        </linearGradient>
        <linearGradient x1="49.9385364%" y1="120.158044%" x2="49.9385364%" y2="-17.5397476%" id="linearGradient-17">
            <stop stop-color="#B9B5BD" offset="0%"></stop>
            <stop stop-color="#7A7881" offset="99.98%"></stop>
        </linearGradient>
        <linearGradient x1="53.9910891%" y1="-20.984544%" x2="44.0471947%" y2="161.024823%" id="linearGradient-18">
            <stop stop-color="#CBC7D0" offset="0%"></stop>
            <stop stop-color="#575464" offset="99.98%"></stop>
        </linearGradient>
        <linearGradient x1="52.1291435%" y1="193.419789%" x2="49.5114584%" y2="19.0846966%" id="linearGradient-19">
            <stop stop-color="#626878" offset="0.2418155%"></stop>
            <stop stop-color="#353E52" offset="99.97%"></stop>
        </linearGradient>
        <linearGradient x1="57.279449%" y1="122.307708%" x2="37.6232553%" y2="-22.6167923%" id="linearGradient-20">
            <stop stop-color="#CBC7D0" offset="0%"></stop>
            <stop stop-color="#575464" offset="99.98%"></stop>
        </linearGradient>
        <linearGradient x1="79.1270509%" y1="17.4029649%" x2="13.3253278%" y2="91.0405244%" id="linearGradient-21">
            <stop stop-color="#FFFFFF" offset="0%"></stop>
            <stop stop-color="#FFFFFF" offset="0.02291165%"></stop>
            <stop stop-color="#FFFFFF" stop-opacity="0.03" offset="100%"></stop>
            <stop stop-color="#F1B2F9" stop-opacity="0" offset="100%"></stop>
        </linearGradient>
        <linearGradient x1="59.6124596%" y1="9.01842403%" x2="28.4506247%" y2="86.0021649%" id="linearGradient-22">
            <stop stop-color="#FFFFFF" offset="0%"></stop>
            <stop stop-color="#FFFFFF" offset="0.02291165%"></stop>
            <stop stop-color="#FFFFFF" stop-opacity="0.03" offset="100%"></stop>
            <stop stop-color="#F1B2F9" stop-opacity="0" offset="100%"></stop>
        </linearGradient>
    </defs>












    <g id="Symbols" stroke="none" stroke-width="1" fill="none" fill-rule="evenodd">
        <g id="Cajero/No-hay-sistema" transform="translate(-50.000000, -50.000000)">
            <g id="Group-2" transform="translate(50.000000, 50.000000)">

            <circle class="myCircle" id="Oval" fill="#EE862A" fill-opacity="0.8" cx="182.199998" cy="152.199998" r="130.199998"></circle>
            <circle class="myCircle2" id="Oval" fill="#EE862A" fill-opacity="0.4" cx="182.199998" cy="152.199998" r="130.199998"></circle>

                <circle    id="Oval"  fill="#E5D5D1" fill-rule="nonzero" cx="182.199998" cy="152.199998" r="131.782659"></circle>
                <circle id="Oval" fill="#BCAEAC" fill-rule="nonzero" cx="182.199998" cy="152.199998" r="128.811432"></circle>
                <g id="Diebold" transform="translate(58, 35)">
                    <mask id="mask-3" fill="white">
                        <use xlink:href="#path-2"></use>
                    </mask>
                    <use id="Mask" fill="url(#linearGradient-1)" fill-rule="nonzero" xlink:href="#path-2"></use>
                    <g mask="url(#mask-3)">
                        <g transform="translate(46.647940, 36.722846)">
                            <path d="M154.949601,154.157245 L0.0440197729,154.157245 L4.40197729,4.40197729 C4.40197729,3.91775979 4.88619479,2.24500842 5.3704123,2.24500842 L5.3704123,2.24500842 C54.0562812,-0.528237275 101.113418,-0.528237275 149.799287,2.24500842 L149.799287,2.24500842 C150.283505,2.24500842 150.679683,2.5971666 150.679683,3.0813841 L154.949601,154.157245 Z" id="Path" stroke="none" fill="url(#linearGradient-4)" fill-rule="nonzero"></path>
                            <path d="M152.792632,199.58565 L2.15696887,199.58565 C1.01245478,199.58565 0.0440197729,198.661235 0.0440197729,197.472701 L0.0440197729,154.157245 L154.949601,154.157245 L154.905581,197.472701 C154.905581,198.661235 153.937146,199.58565 152.792632,199.58565 Z" id="Path" stroke="none" fill="url(#linearGradient-5)" fill-rule="nonzero"></path>
                            <rect id="Rectangle" stroke="none" fill="url(#linearGradient-6)" fill-rule="nonzero" x="1.80481069" y="199.58565" width="151.383999" height="46.4848802"></rect>
                            <path d="M152.000276,154.157245 L3.0813841,154.157245 L7.30728231,3.0813841 C7.30728231,2.5971666 7.70346026,2.24500842 8.14365799,2.24500842 L8.14365799,2.24500842 C54.9366766,-0.528237275 100.144983,-0.528237275 146.938002,2.24500842 L146.938002,2.24500842 C147.42222,2.24500842 147.774378,2.5971666 147.774378,3.0813841 L152.000276,154.157245 Z" id="Path" stroke="none" fill="url(#linearGradient-7)" fill-rule="nonzero"></path>
                            <g id="Group" opacity="0.3" stroke="none" stroke-width="1" fill="none" fill-rule="evenodd" transform="translate(24.651073, 25.274686)">
                                <path d="M98.472232,1.35727632 C100.100964,1.35727632 101.421557,2.63384974 101.509596,4.30660111 L103.402447,69.9841023 C103.446466,71.7008735 102.081853,73.1095062 100.365082,73.1095062 L4.44599707,73.1095062 C2.72922592,73.1095062 1.36461296,71.7008735 1.40863273,69.9841023 L3.30148297,4.30660111 C3.34550274,2.67786951 4.66609593,1.35727632 6.3388473,1.35727632 L98.472232,1.35727632 M98.472232,0.0366831332 L6.38286707,0.0366831332 C4.00579934,0.0366831332 2.1129491,1.8855136 2.02490955,4.26258133 L0.132059319,69.9400825 C0.0880395458,71.1286164 0.528237275,72.2291107 1.36461296,73.1095062 C2.20098865,73.9899016 3.30148297,74.4300994 4.49001684,74.4300994 L100.365082,74.4300994 C101.553616,74.4300994 102.65411,73.9458819 103.490486,73.1095062 C104.326862,72.2731305 104.76706,71.1286164 104.72304,69.9400825 L102.78617,4.21856156 C102.74215,1.8855136 100.80528,0.0366831332 98.472232,0.0366831332 L98.472232,0.0366831332 Z" id="Shape" fill="#182232" fill-rule="nonzero"></path>
                            </g>
                            <path d="M11.0049432,4.84217502 L11.0049432,4.84217502 C10.080528,4.88619479 9.37621163,5.59051116 9.33219186,6.51492639 L8.9360139,13.9982878 C8.89199413,14.9667228 9.64033027,15.8030985 10.652785,15.8030985 L27.8204965,15.8030985 L27.8204965,3.96177956 C21.5696887,4.2258982 17.0796719,4.49001684 11.0049432,4.84217502 Z" id="Path" stroke="none" fill="url(#linearGradient-8)" fill-rule="nonzero"></path>
                            <path d="M144.560934,15.8030985 C145.529369,15.8030985 146.321725,14.9667228 146.277705,13.9982878 L145.837508,5.81061003 C145.793488,5.32639252 145.39731,4.93021457 144.913092,4.93021457 L144.913092,4.93021457 C139.014443,4.57805638 133.864129,4.26991797 127.833421,4.00579934 L127.833421,15.8030985 L144.560934,15.8030985 L144.560934,15.8030985 Z" id="Path" stroke="none" fill="url(#linearGradient-9)" fill-rule="nonzero"></path>
                            <path d="M127.789401,4.00579934 C94.9506502,2.5971666 60.6152273,2.5971666 27.7324569,4.00579934 L27.7324569,15.8030985 L127.789401,15.8030985 L127.789401,4.00579934 Z" id="Path" stroke="none" fill="#171E27" fill-rule="nonzero" opacity="0.5"></path>
                            <path d="M125.016155,98.2961529 L29.0970699,98.2961529 C27.3802988,98.2961529 26.0156858,96.8875202 26.0597056,95.1707491 L27.9525558,29.4932479 C27.9965756,27.8645163 29.3171688,26.5439231 30.9899201,26.5439231 L123.079285,26.5439231 C124.708017,26.5439231 126.02861,27.8204965 126.116649,29.4932479 L128.0095,95.1707491 C128.097539,96.93154 126.732926,98.2961529 125.016155,98.2961529 Z" id="Path" stroke="none" fill="url(#linearGradient-10)" fill-rule="nonzero"></path>
                            <path d="M29.729355,29.8574124 L124.503926,29.8574124 C125.120203,29.8574124 125.73648,30.0334915 126.220697,30.3856497 L126.176677,29.4612345 C126.132658,27.8325029 124.812064,26.5119097 123.139313,26.5119097 L31.0939679,26.5119097 C29.4652363,26.5119097 28.1446432,27.7884831 28.0566036,29.4612345 L28.0125838,30.3856497 C28.5408211,30.0334915 29.1130782,29.8574124 29.729355,29.8574124 Z" id="Path" stroke="none" fill="#253042" fill-rule="nonzero" opacity="0.49"></path>
                            <path d="M80.5121647,106.70393 L71.9723287,106.70393 C71.4440915,106.70393 71.0479135,106.263732 71.0479135,105.779514 L71.0479135,102.257933 C71.0479135,101.729695 71.4881112,101.333517 71.9723287,101.333517 L80.5121647,101.333517 C81.040402,101.333517 81.4365799,101.773715 81.4365799,102.257933 L81.4365799,105.779514 C81.4365799,106.263732 80.9963822,106.70393 80.5121647,106.70393 Z" id="Path" stroke="none" fill="url(#linearGradient-11)" fill-rule="nonzero"></path>
                            <path d="M39.1335781,140.819254 L18.4002651,140.819254 C17.7839883,140.819254 17.2997708,140.291016 17.2997708,139.674739 L18.4442849,113.923172 C18.4883046,113.350915 18.9725221,112.866698 19.5447792,112.866698 L39.8819143,112.866698 C40.4981911,112.866698 40.9824086,113.394935 40.9824086,114.011212 L40.2340725,139.762779 C40.1900527,140.379056 39.7058352,140.819254 39.1335781,140.819254 Z" id="Path" stroke="#171E27" stroke-width="0.524999976" fill="none" opacity="0.3"></path>
                            <polygon id="Path" stroke="none" fill="url(#linearGradient-12)" fill-rule="nonzero" points="3.0813841 154.157245 3.0813841 199.58565 151.868217 199.58565 152.000276 154.157245"></polygon>
                            <path d="M142.976222,274.119132 L11.9733782,274.119132 C7.9675789,274.119132 4.75413548,272.329555 4.75413548,270.153042 L4.75413548,199.58565 L150.239485,199.58565 L150.239485,270.153042 C150.195465,272.353738 146.982022,274.119132 142.976222,274.119132 Z" id="Path" stroke="none" fill="url(#linearGradient-13)" fill-rule="nonzero"></path>
                            <rect id="Rectangle" stroke="none" fill="#253042" fill-rule="nonzero" x="4.75413548" y="199.58565" width="145.48535" height="46.4848802"></rect>
                            <rect id="Rectangle" stroke="none" fill="#171E27" fill-rule="nonzero" opacity="0.2" x="1.76079092" y="199.58565" width="151.428019" height="6.86708458"></rect>
                            <path d="M117.884952,235.197647 L47.2332163,235.197647 C46.132722,235.197647 45.2523266,234.317251 45.2523266,233.216757 L45.2523266,209.754218 C45.2523266,208.653724 46.132722,207.773328 47.2332163,207.773328 L117.884952,207.773328 C118.985446,207.773328 119.865842,208.653724 119.865842,209.754218 L119.865842,233.216757 C119.865842,234.317251 118.985446,235.197647 117.884952,235.197647 Z" id="Path" stroke="none" fill="#171E27" fill-rule="nonzero"></path>
                            <path d="M137.297672,187.524233 L94.3343734,187.524233 C93.8941756,187.524233 93.4979977,187.172074 93.4979977,186.687857 L93.4979977,159.571677 C93.4979977,159.131479 93.8501559,158.735301 94.3343734,158.735301 L137.297672,158.735301 C137.737869,158.735301 138.134047,159.087459 138.134047,159.571677 L138.134047,186.687857 C138.134047,187.128055 137.737869,187.524233 137.297672,187.524233 Z" id="Path" stroke="#171E27" stroke-width="0.524999976" fill="none" opacity="0.3"></path>
                            <path d="M132.367457,185.015106 L99.3086077,185.015106 C98.2081134,185.015106 97.2836982,184.09069 97.2836982,182.990196 L97.2836982,163.269338 C97.2836982,162.168843 98.2081134,161.244428 99.3086077,161.244428 L132.367457,161.244428 C133.467952,161.244428 134.392367,162.168843 134.392367,163.269338 L134.392367,182.990196 C134.392367,184.09069 133.467952,185.015106 132.367457,185.015106 Z" id="Path" stroke="none" fill="#171E27" fill-rule="nonzero" opacity="0.5"></path>
                            <path d="M130.298528,177.003507 L101.465577,177.003507 C100.585181,177.003507 99.836845,176.255171 99.836845,175.374775 L99.836845,170.708679 C99.836845,169.828284 100.585181,169.079948 101.465577,169.079948 L130.298528,169.079948 C131.178923,169.079948 131.927259,169.828284 131.927259,170.708679 L131.927259,175.374775 C131.927259,176.299191 131.222943,177.003507 130.298528,177.003507 Z" id="Path" stroke="none" fill="url(#linearGradient-14)" fill-rule="nonzero"></path>
                            <path d="M129.109994,175.770953 L102.65411,175.770953 C102.037834,175.770953 101.509596,175.242716 101.509596,174.626439 L101.509596,171.501035 C101.509596,170.884758 102.037834,170.356521 102.65411,170.356521 L129.109994,170.356521 C129.726271,170.356521 130.254508,170.884758 130.254508,171.501035 L130.254508,174.626439 C130.254508,175.242716 129.770291,175.770953 129.109994,175.770953 Z" id="Path" stroke="none" fill="url(#linearGradient-15)" fill-rule="nonzero"></path>
                            <path d="M80.9083426,181.669603 L71.5761508,181.669603 C70.8278146,181.669603 70.2115378,181.053326 70.2115378,180.30499 L70.2115378,176.38723 C70.2115378,175.638894 70.8278146,175.022617 71.5761508,175.022617 L80.9083426,175.022617 C81.6566788,175.022617 82.2729556,175.638894 82.2729556,176.38723 L82.2729556,180.30499 C82.2729556,181.053326 81.6566788,181.669603 80.9083426,181.669603 Z" id="Path" stroke="none" fill="#171E27" fill-rule="nonzero" opacity="0.5"></path>
                            <path d="M79.0154924,180.833227 L73.469001,180.833227 C72.8087044,180.833227 72.2804671,180.30499 72.2804671,179.644693 L72.2804671,177.003507 C72.2804671,176.34321 72.8087044,175.814973 73.469001,175.814973 L79.0154924,175.814973 C79.675789,175.814973 80.2040263,176.34321 80.2040263,177.003507 L80.2040263,179.644693 C80.2040263,180.30499 79.675789,180.833227 79.0154924,180.833227 Z" id="Path" stroke="none" fill="#171E27" fill-rule="nonzero"></path>
                            <path d="M59.9549307,182.946176 L17.8720278,182.946176 C15.6710392,182.946176 13.9102482,181.185385 13.9102482,178.984397 L13.9102482,178.984397 C13.9102482,176.783408 15.6710392,175.022617 17.8720278,175.022617 L59.9549307,175.022617 C62.1559194,175.022617 63.9167103,176.783408 63.9167103,178.984397 L63.9167103,178.984397 C63.9167103,181.141366 62.1559194,182.946176 59.9549307,182.946176 Z" id="Path" stroke="#171E27" stroke-width="0.524999976" fill="none" opacity="0.3"></path>
                            <path d="M59.118555,180.437049 L18.7084035,180.437049 C17.6519289,180.437049 16.8155533,179.600674 16.8155533,178.544199 L16.8155533,178.544199 C16.8155533,177.487724 17.6519289,176.651349 18.7084035,176.651349 L59.118555,176.651349 C60.1750296,176.651349 61.0114053,177.487724 61.0114053,178.544199 L61.0114053,178.544199 C61.0114053,179.600674 60.1750296,180.437049 59.118555,180.437049 Z" id="Path" stroke="none" fill="#171E27" fill-rule="nonzero"></path>
                            <g id="Group" stroke="none" stroke-width="1" fill="none" fill-rule="evenodd" transform="translate(49.302146, 108.912255)">
                                <path d="M0.220098865,1.04913791 L3.78570047,19.5814623 L50.0504818,19.5814623 L53.6160834,1.04913791 C53.307945,0.432861089 52.6916682,0.0366831332 51.9873518,0.0366831332 L1.84883046,0.0366831332 C1.1445141,0.0366831332 0.528237275,0.432861089 0.220098865,1.04913791 Z" id="Path" fill="#253042" fill-rule="nonzero"></path>
                                <path d="M0.264118638,41.547329 C0.572257048,42.119586 1.18853387,42.515764 1.89285024,42.515764 L52.0313716,42.515764 C52.735688,42.515764 53.3519648,42.119586 53.6601032,41.547329 L50.1385214,19.5814623 L3.78570047,19.5814623 L0.264118638,41.547329 Z M5.76659025,36.0008376 L7.52738117,23.719321 C7.57140094,23.2791232 7.92355913,22.9709848 8.36375686,22.9709848 L45.8686034,22.9709848 C46.3088011,22.9709848 46.6609593,23.2791232 46.7049791,23.719321 L48.46577,36.0008376 C48.5097898,36.4850551 48.1576316,36.9252528 47.6293943,36.9252528 L6.60296594,36.9252528 C6.07472866,36.9252528 5.72257048,36.4850551 5.76659025,36.0008376 Z" id="Shape" fill="url(#linearGradient-16)" fill-rule="nonzero"></path>
                                <path d="M3.78570047,19.5814623 L0.220098865,1.04913791 C0.0880395458,1.31325655 0.0440197729,1.57737519 0.0440197729,1.84149382 L0.0440197729,40.6669335 C0.0440197729,40.975072 0.132059319,41.2391906 0.220098865,41.4592895 L3.78570047,19.5814623 Z" id="Path" fill="#182232" fill-rule="nonzero"></path>
                                <path d="M50.0504818,19.5814623 L53.6160834,41.5033092 C53.7481427,41.2391906 53.7921625,40.975072 53.7921625,40.7109533 L53.7921625,1.8855136 C53.7921625,1.57737519 53.704123,1.31325655 53.6160834,1.09315768 L50.0504818,19.5814623 Z" id="Path" fill="#182232" fill-rule="nonzero"></path>
                                <path d="M6.60296594,36.9252528 L47.6734141,36.9252528 C48.1576316,36.9252528 48.5538095,36.4850551 48.5097898,36.0008376 L46.7489988,23.719321 C46.7049791,23.2791232 46.3528209,22.9709848 45.9126232,22.9709848 L8.36375686,22.9709848 C7.92355913,22.9709848 7.57140094,23.2791232 7.52738117,23.719321 L5.76659025,36.0008376 C5.72257048,36.4850551 6.07472866,36.9252528 6.60296594,36.9252528 Z" id="Path" fill="url(#linearGradient-17)" fill-rule="nonzero"></path>
                            </g>
                            <path d="M58.2821794,173.746044 L33.3229681,173.746044 C32.9267901,173.746044 32.6186517,173.437905 32.6186517,173.041727 L32.6186517,166.174643 C32.6186517,165.778465 32.9267901,165.470326 33.3229681,165.470326 L58.3261991,165.470326 C58.7223771,165.470326 59.0305155,165.778465 59.0305155,166.174643 L59.0305155,173.041727 C58.9864957,173.437905 58.6783573,173.746044 58.2821794,173.746044 Z" id="Path" stroke="none" fill="#171E27" fill-rule="nonzero" opacity="0.5"></path>
                            <path d="M29.4492281,173.746044 L17.5198696,173.746044 C17.1236917,173.746044 16.8155533,173.437905 16.8155533,173.041727 L16.8155533,166.174643 C16.8155533,165.778465 17.1236917,165.470326 17.5198696,165.470326 L29.4492281,165.470326 C29.845406,165.470326 30.1535445,165.778465 30.1535445,166.174643 L30.1535445,173.041727 C30.1535445,173.437905 29.845406,173.746044 29.4492281,173.746044 Z" id="Path" stroke="none" fill="url(#linearGradient-18)" fill-rule="nonzero"></path>
                            <g id="Group" stroke="none" stroke-width="1" fill="none" fill-rule="evenodd" transform="translate(112.690619, 120.357396)">
                                <path d="M11.6652398,0.0366831332 L1.67275137,0.0366831332 C0.74833614,0.0366831332 0,0.785019273 0,1.7094345 L0,6.72768862 L10.7408246,6.72768862 L11.6652398,0.0366831332 Z" id="Path" fill="#253042" fill-rule="nonzero"></path>
                                <path d="M13.3379912,6.72768862 L13.3379912,1.7094345 C13.3379912,0.785019273 12.5896551,0.0366831332 11.6652398,0.0366831332 L10.7408246,6.72768862 L13.3379912,6.72768862 Z" id="Path" fill="#182232" fill-rule="nonzero"></path>
                                <polygon id="Path" fill="url(#linearGradient-19)" fill-rule="nonzero" points="10.7408246 6.72768862 0 6.72768862 0.440197729 23.4111826 13.7781889 23.4111826"></polygon>
                                <polygon id="Path" fill="#182232" fill-rule="nonzero" points="13.7781889 23.4111826 13.3379912 6.72768862 10.7408246 6.72768862"></polygon>
                            </g>
                            <path d="M114.803568,131.222943 L115.155726,137.60581 C115.155726,138.001988 115.507884,138.354146 115.948082,138.354146 L122.639087,138.354146 C123.123305,138.354146 123.475463,137.913949 123.387424,137.473751 L122.374969,131.090884 C122.330949,130.694706 121.978791,130.430587 121.626633,130.430587 L115.595924,130.430587 C115.155726,130.430587 114.803568,130.782745 114.803568,131.222943 Z" id="Path" stroke="none" fill="url(#linearGradient-20)" fill-rule="nonzero"></path>
                            <path d="M129.065974,143.768578 L111.326006,143.768578 C110.709729,143.768578 110.225511,143.284361 110.225511,142.668084 L109.829333,111.986302 C109.829333,111.370025 110.313551,110.841788 110.929828,110.841788 L128.317638,110.841788 C128.933915,110.841788 129.418132,111.326006 129.418132,111.942283 L130.210488,142.624064 C130.210488,143.240341 129.682251,143.768578 129.065974,143.768578 Z" id="Path" stroke="#171E27" stroke-width="0.524999976" fill="none" opacity="0.3"></path>
                            <polygon id="Path" stroke="none" fill-opacity="0.5" fill="url(#linearGradient-21)" fill-rule="nonzero" opacity="0.3" points="65.5014221 98.1200738 40.2780922 98.1200738 93.4979977 26.4118638 118.677308 26.4118638"></polygon>
                            <path d="M35.5239567,98.5162518 L30.6817817,98.5162518 C28.2606942,98.5162518 26.0597056,96.4033027 26.1477451,93.8061361 L26.5439231,72.7206649 L65.1932837,26.4118638 L87.1151306,26.4118638 L35.5239567,98.5162518 Z" id="Path" stroke="none" fill-opacity="0.5" fill="url(#linearGradient-22)" fill-rule="nonzero" opacity="0.4"></path>
                            <g id="Group" stroke="none" stroke-width="1" fill="none" fill-rule="evenodd" transform="translate(27.732457, 2.824602)" opacity="0.5">
                                <path d="M69.1110435,0.256781998 C46.0446825,-0.0953761856 22.6701831,0.168742452 0,1.13717746 L0,12.9344766 L59.9549307,12.9344766 L69.1110435,0.256781998 Z" id="Path" fill="#171E27" fill-rule="nonzero"></path>
                                <path d="M80.1600065,0.476880862 L71.8402694,12.9344766 L75.802049,12.9344766 L84.6940431,0.608940181 C83.1973708,0.564920408 81.7006985,0.520900635 80.1600065,0.476880862 Z" id="Path" fill="#171E27" fill-rule="nonzero"></path>
                                <path d="M95.6989863,1.00511814 L87.7314074,12.9784964 L100.100964,12.9784964 L100.100964,1.18119723 C98.6042913,1.09315768 97.1516388,1.04913791 95.6989863,1.00511814 Z" id="Path" fill="#171E27" fill-rule="nonzero"></path>
                            </g>
                            <rect id="Rectangle" stroke="none" fill="#253042" fill-rule="nonzero" x="101.509596" y="172.733589" width="28.7449117" height="1"></rect>
                            <g id="Group" stroke="none" stroke-width="1" fill="none" fill-rule="evenodd" transform="translate(57.225705, 132.499517)">
                                <g transform="translate(28.099288, 0.440198)" fill="#293242" fill-rule="nonzero" id="Path">
                                    <path d="M9.22947903,0.30813841 L9.4495779,1.49667228 C9.49359767,1.71677114 9.31751858,1.89285024 9.09741972,1.89285024 L0.381504677,1.89285024 C0.205425585,1.89285024 0.0293464934,1.71677114 0.0293464934,1.54069205 L0.0293464934,0.352158183 C0.0293464934,0.176079092 0.205425585,0 0.381504677,0 L8.87732085,0 C9.05339994,0.0440197729 9.22947903,0.132059319 9.22947903,0.30813841 Z"></path>
                                    <path d="M9.53761745,4.97423434 L0.42552445,4.97423434 C0.249445358,4.97423434 0.0733662663,4.79815525 0.0733662663,4.62207616 L0.0733662663,3.03736433 C0.0733662663,2.86128524 0.249445358,2.68520615 0.42552445,2.68520615 L9.27349881,2.68520615 C9.4495779,2.68520615 9.58163722,2.81726547 9.62565699,2.99334456 L9.88977563,4.57805638 C9.9337954,4.79815525 9.75771631,4.97423434 9.53761745,4.97423434 Z"></path>
                                    <path d="M10.0218349,6.07472866 L10.2419338,7.4833614 C10.2859536,7.74748003 10.0658547,7.9675789 9.80173608,7.9675789 L0.513563996,7.9675789 C0.293465131,7.9675789 0.0733662663,7.79149981 0.0733662663,7.52738117 L0.0733662663,6.16276821 C0.0733662663,5.94266934 0.249445358,5.72257048 0.513563996,5.72257048 L9.58163722,5.72257048 C9.80173608,5.72257048 9.97781517,5.89864957 10.0218349,6.07472866 Z"></path>
                                    <path d="M10.3739931,9.20013254 L10.6381118,10.9169037 C10.6821315,11.2250421 10.4620327,11.445141 10.1538943,11.445141 L0.557583769,11.445141 C0.293465131,11.445141 0.0733662663,11.2250421 0.0733662663,10.9609235 L0.0733662663,9.24415231 C0.0733662663,8.98003368 0.293465131,8.75993481 0.557583769,8.75993481 L9.9337954,8.75993481 C10.1538943,8.75993481 10.3739931,8.9360139 10.3739931,9.20013254 Z"></path>
                                </g>
                                <path d="M37.3287674,0.440197729 L37.5488663,1.6287316 C37.5928861,1.84883046 37.416807,2.02490955 37.1967081,2.02490955 L28.4807931,2.02490955 C28.304714,2.02490955 28.1286349,1.84883046 28.1286349,1.67275137 L28.1286349,0.484217502 C28.1286349,0.30813841 28.304714,0.132059319 28.4807931,0.132059319 L36.9766093,0.132059319 C37.1526883,0.176079092 37.3287674,0.264118638 37.3287674,0.440197729 Z" id="Path" fill="#CDCCDB" fill-rule="nonzero"></path>
                                <path d="M37.6369059,5.10629366 L28.5248129,5.10629366 C28.3487338,5.10629366 28.1726547,4.93021457 28.1726547,4.75413548 L28.1726547,3.16942365 C28.1726547,2.99334456 28.3487338,2.81726547 28.5248129,2.81726547 L37.3727872,2.81726547 C37.5488663,2.81726547 37.6809256,2.94932479 37.7249454,3.12540388 L37.989064,4.7101157 C38.0330838,4.93021457 37.8570047,5.10629366 37.6369059,5.10629366 Z" id="Path" fill="#CDCCDB" fill-rule="nonzero"></path>
                                <path d="M38.1211234,6.20678798 L38.3412222,7.61542072 C38.385242,7.87953935 38.1651431,8.09963822 37.9010245,8.09963822 L28.6128524,8.09963822 C28.3927535,8.09963822 28.1726547,7.92355913 28.1726547,7.65944049 L28.1726547,6.25080776 C28.1726547,6.03070889 28.3487338,5.81061003 28.6128524,5.81061003 L37.6809256,5.81061003 C37.9010245,5.8546298 38.0771036,6.03070889 38.1211234,6.20678798 Z" id="Path" fill="#CDCCDB" fill-rule="nonzero"></path>
                                <path d="M38.4732815,9.33219186 L38.7374002,11.048963 C38.7814199,11.3571014 38.5613211,11.5772003 38.2531827,11.5772003 L28.6568722,11.5772003 C28.3927535,11.5772003 28.1726547,11.3571014 28.1726547,11.0929828 L28.1726547,9.37621163 C28.1726547,9.112093 28.3927535,8.89199413 28.6568722,8.89199413 L38.0330838,8.89199413 C38.2531827,8.89199413 38.4732815,9.06807322 38.4732815,9.33219186 Z" id="Path" fill="#CDCCDB" fill-rule="nonzero"></path>
                                <g transform="translate(0.000000, 0.440198)" fill="#293242" fill-rule="nonzero" id="Path">
                                    <path d="M1.54069205,0.30813841 L1.27657341,1.54069205 C1.23255364,1.76079092 1.40863273,1.93687001 1.58471183,1.93687001 L6.86708458,1.93687001 C7.04316367,1.93687001 7.17522299,1.80481069 7.17522299,1.6287316 L7.26326253,0.396177956 C7.26326253,0.220098865 7.13120321,0.0440197729 6.95512412,0.0440197729 L1.84883046,0.0440197729 C1.71677114,0.0440197729 1.58471183,0.132059319 1.54069205,0.30813841 Z"></path>
                                    <path d="M1.18853387,4.97423434 L6.73502526,4.97423434 C6.91110435,4.97423434 7.04316367,4.84217502 7.04316367,4.66609593 L7.13120321,3.03736433 C7.13120321,2.86128524 6.99914389,2.68520615 6.8230648,2.68520615 L1.45265251,2.68520615 C1.27657341,2.68520615 1.1445141,2.81726547 1.1445141,2.94932479 L0.880395458,4.57805638 C0.836375686,4.79815525 1.01245478,4.97423434 1.18853387,4.97423434 Z"></path>
                                    <path d="M0.792355913,5.98668912 L0.528237275,7.61542072 C0.484217502,7.79149981 0.660296594,8.01159867 0.836375686,8.01159867 L6.69100548,8.01159867 C6.86708458,8.01159867 6.99914389,7.87953935 6.99914389,7.70346026 L7.08718344,6.07472866 C7.08718344,5.89864957 6.95512412,5.72257048 6.77904503,5.72257048 L1.10049432,5.72257048 C0.924415231,5.72257048 0.792355913,5.8546298 0.792355913,5.98668912 Z"></path>
                                    <path d="M0.396177956,9.112093 L0.132059319,11.0049432 C0.0880395458,11.2250421 0.264118638,11.445141 0.484217502,11.445141 L6.60296594,11.445141 C6.77904503,11.445141 6.91110435,11.3130816 6.91110435,11.1370025 L6.99914389,9.112093 C6.99914389,8.9360139 6.86708458,8.75993481 6.69100548,8.75993481 L0.792355913,8.75993481 C0.572257048,8.75993481 0.440197729,8.89199413 0.396177956,9.112093 Z"></path>
                                    <path d="M14.922703,1.93687001 L9.15611277,1.93687001 C8.98003368,1.93687001 8.80395458,1.80481069 8.84797436,1.58471183 L8.89199413,0.30813841 C8.89199413,0.132059319 9.02405345,0 9.20013254,0 L14.922703,0 C15.0987821,0 15.2308414,0.132059319 15.2308414,0.30813841 L15.2308414,1.58471183 C15.2748612,1.80481069 15.0987821,1.93687001 14.922703,1.93687001 Z"></path>
                                    <path d="M14.9667228,4.97423434 L9.02405345,4.97423434 C8.84797436,4.97423434 8.67189527,4.84217502 8.71591504,4.62207616 L8.80395458,2.99334456 C8.80395458,2.81726547 8.9360139,2.68520615 9.112093,2.68520615 L14.9667228,2.68520615 C15.1428019,2.68520615 15.2748612,2.81726547 15.2748612,2.99334456 L15.2748612,4.62207616 C15.2748612,4.84217502 15.1428019,4.97423434 14.9667228,4.97423434 Z"></path>
                                    <path d="M14.9667228,8.01159867 L8.9360139,8.01159867 C8.75993481,8.01159867 8.58385572,7.87953935 8.62787549,7.65944049 L8.71591504,6.03070889 C8.71591504,5.8546298 8.84797436,5.72257048 9.02405345,5.72257048 L14.9667228,5.72257048 C15.1428019,5.72257048 15.2748612,5.8546298 15.2748612,6.03070889 L15.2748612,7.65944049 C15.2748612,7.87953935 15.1428019,8.01159867 14.9667228,8.01159867 Z"></path>
                                    <path d="M14.9667228,11.445141 L8.84797436,11.445141 C8.67189527,11.445141 8.49581617,11.2690619 8.53983595,11.0929828 L8.62787549,9.06807322 C8.62787549,8.89199413 8.75993481,8.75993481 8.9360139,8.75993481 L14.922703,8.75993481 C15.0987821,8.75993481 15.2308414,8.89199413 15.2308414,9.06807322 L15.2308414,11.0929828 C15.2748612,11.2690619 15.1428019,11.445141 14.9667228,11.445141 Z"></path>
                                    <path d="M22.8902819,1.93687001 L17.1236917,1.93687001 C16.9476126,1.93687001 16.8155533,1.80481069 16.8155533,1.6287316 L16.8155533,0.396177956 C16.8155533,0.220098865 16.9476126,0.0880395458 17.1236917,0.0880395458 L22.8462621,0.0880395458 C23.0223412,0.0880395458 23.1544006,0.220098865 23.1544006,0.396177956 L23.2424401,1.6287316 C23.2424401,1.76079092 23.066361,1.93687001 22.8902819,1.93687001 Z"></path>
                                    <path d="M23.1103808,4.97423434 L17.1236917,4.97423434 C16.9476126,4.97423434 16.8155533,4.84217502 16.8155533,4.66609593 L16.8155533,3.03736433 C16.8155533,2.86128524 16.9476126,2.72922592 17.1236917,2.72922592 L23.0223412,2.72922592 C23.1984203,2.72922592 23.3304796,2.86128524 23.3304796,3.03736433 L23.3744994,4.66609593 C23.4185192,4.84217502 23.2864599,4.97423434 23.1103808,4.97423434 Z"></path>
                                    <path d="M23.1984203,8.01159867 L17.1236917,8.01159867 C16.9476126,8.01159867 16.8155533,7.87953935 16.8155533,7.70346026 L16.8155533,6.07472866 C16.8155533,5.89864957 16.9476126,5.76659025 17.1236917,5.76659025 L23.1103808,5.76659025 C23.2864599,5.76659025 23.4185192,5.89864957 23.4185192,6.07472866 L23.5065587,7.70346026 C23.5065587,7.87953935 23.3744994,8.01159867 23.1984203,8.01159867 Z"></path>
                                    <path d="M23.2864599,11.445141 L17.1236917,11.445141 C16.9476126,11.445141 16.8155533,11.3130816 16.8155533,11.1370025 L16.8155533,9.112093 C16.8155533,8.9360139 16.9476126,8.80395458 17.1236917,8.80395458 L23.2424401,8.80395458 C23.4185192,8.80395458 23.5505785,8.9360139 23.5505785,9.112093 L23.6386181,11.1370025 C23.6386181,11.2690619 23.462539,11.445141 23.2864599,11.445141 Z"></path>
                                </g>
                                <path d="M1.54069205,0.440197729 L1.27657341,1.67275137 C1.23255364,1.89285024 1.40863273,2.06892933 1.58471183,2.06892933 L6.86708458,2.06892933 C7.04316367,2.06892933 7.17522299,1.93687001 7.17522299,1.76079092 L7.26326253,0.528237275 C7.26326253,0.352158183 7.13120321,0.176079092 6.95512412,0.176079092 L1.84883046,0.176079092 C1.71677114,0.176079092 1.58471183,0.264118638 1.54069205,0.440197729 Z" id="Path" fill="#6C7385" fill-rule="nonzero"></path>
                                <path d="M1.18853387,5.10629366 L6.73502526,5.10629366 C6.91110435,5.10629366 7.04316367,4.97423434 7.04316367,4.79815525 L7.13120321,3.16942365 C7.13120321,2.99334456 6.99914389,2.81726547 6.8230648,2.81726547 L1.45265251,2.81726547 C1.27657341,2.81726547 1.1445141,2.94932479 1.1445141,3.0813841 L0.880395458,4.7101157 C0.836375686,4.93021457 1.01245478,5.10629366 1.18853387,5.10629366 Z" id="Path" fill="#6C7385" fill-rule="nonzero"></path>
                                <path d="M0.792355913,6.11874844 L0.528237275,7.74748003 C0.484217502,7.92355913 0.660296594,8.14365799 0.836375686,8.14365799 L6.69100548,8.14365799 C6.86708458,8.14365799 6.99914389,8.01159867 6.99914389,7.83551958 L7.08718344,6.20678798 C7.08718344,6.03070889 6.95512412,5.8546298 6.77904503,5.8546298 L1.10049432,5.8546298 C0.924415231,5.8546298 0.792355913,5.98668912 0.792355913,6.11874844 Z" id="Path" fill="#6C7385" fill-rule="nonzero"></path>
                                <path d="M0.396177956,9.24415231 L0.132059319,11.1370025 C0.0880395458,11.3571014 0.264118638,11.5772003 0.484217502,11.5772003 L6.60296594,11.5772003 C6.77904503,11.5772003 6.91110435,11.445141 6.91110435,11.2690619 L6.99914389,9.24415231 C6.99914389,9.06807322 6.86708458,8.89199413 6.69100548,8.89199413 L0.792355913,8.89199413 C0.572257048,8.89199413 0.440197729,9.02405345 0.396177956,9.24415231 Z" id="Path" fill="#5E6378" fill-rule="nonzero"></path>
                                <path d="M14.922703,2.1129491 L9.15611277,2.1129491 C8.98003368,2.1129491 8.80395458,1.98088978 8.84797436,1.76079092 L8.89199413,0.484217502 C8.89199413,0.30813841 9.02405345,0.176079092 9.20013254,0.176079092 L14.922703,0.176079092 C15.0987821,0.176079092 15.2308414,0.30813841 15.2308414,0.484217502 L15.2308414,1.76079092 C15.2748612,1.93687001 15.0987821,2.1129491 14.922703,2.1129491 Z" id="Path" fill="#6C7385" fill-rule="nonzero"></path>
                                <path d="M14.9667228,5.10629366 L9.02405345,5.10629366 C8.84797436,5.10629366 8.67189527,4.97423434 8.71591504,4.75413548 L8.80395458,3.12540388 C8.80395458,2.94932479 8.9360139,2.81726547 9.112093,2.81726547 L14.9667228,2.81726547 C15.1428019,2.81726547 15.2748612,2.94932479 15.2748612,3.12540388 L15.2748612,4.75413548 C15.2748612,4.97423434 15.1428019,5.10629366 14.9667228,5.10629366 Z" id="Path" fill="#6C7385" fill-rule="nonzero"></path>
                                <path d="M14.9667228,8.14365799 L8.9360139,8.14365799 C8.75993481,8.14365799 8.58385572,8.01159867 8.62787549,7.79149981 L8.71591504,6.16276821 C8.71591504,5.98668912 8.84797436,5.8546298 9.02405345,5.8546298 L14.9667228,5.8546298 C15.1428019,5.8546298 15.2748612,5.98668912 15.2748612,6.16276821 L15.2748612,7.79149981 C15.2748612,8.01159867 15.1428019,8.14365799 14.9667228,8.14365799 Z" id="Path" fill="#6C7385" fill-rule="nonzero"></path>
                                <path d="M14.9667228,11.5772003 L8.84797436,11.5772003 C8.67189527,11.5772003 8.49581617,11.4011212 8.53983595,11.2250421 L8.62787549,9.20013254 C8.62787549,9.02405345 8.75993481,8.89199413 8.9360139,8.89199413 L14.922703,8.89199413 C15.0987821,8.89199413 15.2308414,9.02405345 15.2308414,9.20013254 L15.2308414,11.2250421 C15.2748612,11.4011212 15.1428019,11.5772003 14.9667228,11.5772003 Z" id="Path" fill="#6C7385" fill-rule="nonzero"></path>
                                <path d="M22.8902819,2.06892933 L17.1236917,2.06892933 C16.9476126,2.06892933 16.8155533,1.93687001 16.8155533,1.76079092 L16.8155533,0.528237275 C16.8155533,0.352158183 16.9476126,0.220098865 17.1236917,0.220098865 L22.8462621,0.220098865 C23.0223412,0.220098865 23.1544006,0.352158183 23.1544006,0.528237275 L23.2424401,1.76079092 C23.2424401,1.89285024 23.066361,2.06892933 22.8902819,2.06892933 Z" id="Path" fill="#6C7385" fill-rule="nonzero"></path>
                                <path d="M23.1103808,5.10629366 L17.1236917,5.10629366 C16.9476126,5.10629366 16.8155533,4.97423434 16.8155533,4.79815525 L16.8155533,3.16942365 C16.8155533,2.99334456 16.9476126,2.86128524 17.1236917,2.86128524 L23.0223412,2.86128524 C23.1984203,2.86128524 23.3304796,2.99334456 23.3304796,3.16942365 L23.3744994,4.79815525 C23.4185192,4.97423434 23.2864599,5.10629366 23.1103808,5.10629366 Z" id="Path" fill="#6C7385" fill-rule="nonzero"></path>
                                <path d="M23.1984203,8.14365799 L17.1236917,8.14365799 C16.9476126,8.14365799 16.8155533,8.01159867 16.8155533,7.83551958 L16.8155533,6.20678798 C16.8155533,6.03070889 16.9476126,5.89864957 17.1236917,5.89864957 L23.1103808,5.89864957 C23.2864599,5.89864957 23.4185192,6.03070889 23.4185192,6.20678798 L23.5065587,7.83551958 C23.5065587,8.01159867 23.3744994,8.14365799 23.1984203,8.14365799 Z" id="Path" fill="#6C7385" fill-rule="nonzero"></path>
                                <path d="M23.2864599,11.5772003 L17.1236917,11.5772003 C16.9476126,11.5772003 16.8155533,11.445141 16.8155533,11.2690619 L16.8155533,9.24415231 C16.8155533,9.06807322 16.9476126,8.9360139 17.1236917,8.9360139 L23.2424401,8.9360139 C23.4185192,8.9360139 23.5505785,9.06807322 23.5505785,9.24415231 L23.6386181,11.2690619 C23.6386181,11.4011212 23.462539,11.5772003 23.2864599,11.5772003 Z" id="Path" fill="#5E6378" fill-rule="nonzero"></path>
                                <path d="M34.9076799,0.74833614 L34.9957195,1.49667228 C34.9957195,1.6287316 35.1277788,1.67275137 35.2158183,1.67275137 L36.8885697,1.67275137 C37.020629,1.67275137 37.1526883,1.54069205 37.1086686,1.40863273 L36.9766093,0.660296594 C36.9766093,0.528237275 36.8445499,0.484217502 36.7565104,0.484217502 L35.083759,0.484217502 C34.9957195,0.484217502 34.9076799,0.616276821 34.9076799,0.74833614 Z" id="Path" fill="#5E6378" fill-rule="nonzero"></path>
                                <path d="M35.1277788,3.60962138 L35.2598381,4.44599707 C35.2598381,4.57805638 35.3918974,4.66609593 35.5239567,4.66609593 L37.3727872,4.66609593 C37.5488663,4.66609593 37.6369059,4.53403661 37.6369059,4.35795752 L37.416807,3.52158183 C37.416807,3.38952252 37.2847477,3.30148297 37.1526883,3.30148297 L35.3478777,3.30148297 C35.2158183,3.34550274 35.083759,3.47756206 35.1277788,3.60962138 Z" id="Path" fill="#5E6378" fill-rule="nonzero"></path>
                                <path d="M35.1277788,6.60296594 L35.2598381,7.57140094 C35.2598381,7.70346026 35.3918974,7.83551958 35.5679765,7.83551958 L37.6809256,7.83551958 C37.8570047,7.83551958 37.989064,7.65944049 37.989064,7.4833614 L37.8129849,6.51492639 C37.7689652,6.38286707 37.6809256,6.25080776 37.5048465,6.25080776 L35.3918974,6.25080776 C35.2158183,6.29482753 35.083759,6.42688685 35.1277788,6.60296594 Z" id="Path" fill="#5E6378" fill-rule="nonzero"></path>
                                <path d="M35.3478777,9.86042913 L35.479937,10.8728839 C35.5239567,11.0049432 35.6119963,11.1370025 35.7880754,11.1370025 L38.0771036,11.1370025 C38.2531827,11.1370025 38.4292618,10.9609235 38.385242,10.7848444 L38.2091629,9.72836982 C38.1651431,9.5963105 38.0330838,9.46425118 37.9010245,9.46425118 L35.6560161,9.46425118 C35.4359172,9.50827095 35.3038579,9.68435004 35.3478777,9.86042913 Z" id="Path" fill="#5E6378" fill-rule="nonzero"></path>
                            </g>
                            <g id="Group" stroke="none" stroke-width="1" fill="none" fill-rule="evenodd" transform="translate(39.617796, 166.578157)">
                                <path d="M11.8853387,3.25012656 L11.8853387,4.52669997 L12.8537737,4.52669997 L11.0929828,6.28749089 L9.33219186,4.52669997 L10.2125873,4.52669997 L10.2125873,3.25012656 L11.8853387,3.25012656 Z M5.59051116,0.0366831332 C6.25080776,0.0366831332 6.73502526,0.564920408 6.8230648,1.18119723 L6.8230648,1.18119723 L6.8230648,6.19945134 L2.1129491,6.19945134 L2.1129491,2.41375087 L0.132059319,2.41375087 L0.132059319,1.53335541 C0.132059319,0.696979727 0.792355913,0.0366831332 1.6287316,0.0366831332 L1.6287316,0.0366831332 Z M5.59051116,0.344821544 L2.33304796,0.344821544 L2.33304796,5.9353327 L6.47090662,5.9353327 L6.47090662,1.225217 C6.47090662,0.7409995 6.07472866,0.344821544 5.59051116,0.344821544 L5.59051116,0.344821544 Z M11.5331805,3.55826497 L10.4326862,3.55826497 L10.4326862,4.83483838 L9.94846868,4.83483838 L10.9609235,5.89131293 L12.017398,4.83483838 L11.5331805,4.83483838 L11.5331805,3.55826497 Z M5.81061003,4.13052202 L5.81061003,4.39464065 L2.99334456,4.39464065 L2.99334456,4.13052202 L5.81061003,4.13052202 Z M5.81061003,3.55826497 L5.81061003,3.8223836 L2.99334456,3.8223836 L2.99334456,3.55826497 L5.81061003,3.55826497 Z M5.81061003,2.98600792 L5.81061003,3.25012656 L2.99334456,3.25012656 L2.99334456,2.98600792 L5.81061003,2.98600792 Z M5.81061003,2.41375087 L5.81061003,2.67786951 L2.99334456,2.67786951 L2.99334456,2.41375087 L5.81061003,2.41375087 Z M5.81061003,1.8855136 L5.81061003,2.14963223 L2.99334456,2.14963223 L2.99334456,1.8855136 L5.81061003,1.8855136 Z M2.06892933,0.344821544 L1.6287316,0.344821544 C0.968435004,0.344821544 0.396177956,0.917078592 0.396177956,1.57737519 L0.396177956,1.57737519 L0.396177956,2.14963223 L2.06892933,2.14963223 L2.06892933,0.344821544 Z" id="Combined-Shape" fill="#6C7385" fill-rule="nonzero"></path>
                            </g>
                            <g id="Group" stroke="none" stroke-width="1" fill="none" fill-rule="evenodd" transform="translate(117.469402, 112.424756)">
                                <path d="M2.06892933,0.132059319 C1.01245478,0.132059319 0.0880395458,0.924415231 0.0880395458,1.93687001 L0.0880395458,2.42108751 C0.0880395458,2.50912706 0.176079092,2.5971666 0.264118638,2.5971666 C0.352158183,2.5971666 0.440197729,2.50912706 0.440197729,2.42108751 L0.440197729,1.93687001 C0.440197729,1.1445141 1.18853387,0.484217502 2.06892933,0.484217502 C2.94932479,0.484217502 3.69766093,1.1445141 3.69766093,1.93687001 L3.69766093,5.3704123 C3.69766093,5.45845184 3.78570047,5.54649139 3.87374002,5.54649139 C3.96177956,5.54649139 4.04981911,5.45845184 4.04981911,5.3704123 L4.04981911,1.93687001 C4.04981911,0.924415231 3.12540388,0.132059319 2.06892933,0.132059319 Z M2.06892933,1.10049432 C1.49667228,1.10049432 1.01245478,1.54069205 1.01245478,2.06892933 L1.01245478,5.98668912 C1.01245478,6.07472866 1.10049432,6.16276821 1.18853387,6.16276821 C1.27657341,6.16276821 1.36461296,6.07472866 1.36461296,5.98668912 L1.36461296,2.06892933 C1.36461296,1.71677114 1.71677114,1.40863273 2.1129491,1.40863273 C2.50912706,1.40863273 2.86128524,1.71677114 2.86128524,2.06892933 L2.86128524,3.12540388 C2.86128524,3.21344342 2.94932479,3.30148297 3.03736433,3.30148297 C3.12540388,3.30148297 3.21344342,3.21344342 3.21344342,3.12540388 L3.21344342,2.06892933 C3.16942365,1.54069205 2.64118638,1.10049432 2.06892933,1.10049432 Z M2.06892933,2.02490955 C1.98088978,2.02490955 1.89285024,2.1129491 1.89285024,2.20098865 L1.89285024,4.49001684 C1.89285024,4.57805638 1.98088978,4.66609593 2.06892933,4.66609593 C2.15696887,4.66609593 2.24500842,4.57805638 2.24500842,4.49001684 L2.24500842,2.20098865 C2.24500842,2.1129491 2.15696887,2.02490955 2.06892933,2.02490955 Z M0.30813841,3.0813841 C0.220098865,3.0813841 0.132059319,3.16942365 0.132059319,3.2574632 L0.132059319,5.3704123 C0.132059319,5.45845184 0.220098865,5.54649139 0.30813841,5.54649139 C0.396177956,5.54649139 0.484217502,5.45845184 0.484217502,5.3704123 L0.484217502,3.2574632 C0.440197729,3.16942365 0.352158183,3.0813841 0.30813841,3.0813841 Z M2.99334456,3.82972024 C2.90530501,3.82972024 2.81726547,3.91775979 2.81726547,4.00579934 L2.81726547,6.07472866 C2.81726547,6.16276821 2.90530501,6.25080776 2.99334456,6.25080776 C3.0813841,6.25080776 3.16942365,6.16276821 3.16942365,6.07472866 L3.16942365,4.00579934 C3.16942365,3.87374002 3.0813841,3.82972024 2.99334456,3.82972024 Z M2.06892933,5.19433321 C1.98088978,5.19433321 1.89285024,5.28237275 1.89285024,5.3704123 L1.89285024,6.20678798 C1.89285024,6.29482753 1.98088978,6.38286707 2.06892933,6.38286707 C2.15696887,6.38286707 2.24500842,6.29482753 2.24500842,6.20678798 L2.24500842,5.3704123 C2.24500842,5.28237275 2.15696887,5.19433321 2.06892933,5.19433321 Z" id="Shape" fill="#6C7385" fill-rule="nonzero"></path>
                            </g>
                            <g id="Group" stroke="none" stroke-width="1" fill="none" fill-rule="evenodd" transform="translate(19.696784, 119.069357)">
                                <g fill="#6C7385" fill-rule="nonzero" id="Combined-Shape">
                                    <g transform="translate(0.103856, 0.768282)">
                                        <path d="M6.83132269,0.956203477 C9.64065982,0.956203477 12.0588513,2.80306399 12.804732,5.46026402 L12.7861197,5.40120348 L13.5223282,5.40220054 C13.9263847,5.40220054 14.2524577,5.71180216 14.3039972,6.08715544 L14.3110991,6.19097151 L14.3106674,6.32620054 L14.7548818,6.32661577 C15.1935866,6.32661577 15.611119,6.50542179 15.9134856,6.83183448 L16.0212911,6.96109736 L18.7064973,10.6147385 C18.7917089,10.7306823 18.7667957,10.893751 18.6508519,10.9789626 C18.5542321,11.0499724 18.4248867,11.0445064 18.3351431,10.9736149 L18.2866278,10.9233173 L15.6029294,7.27170696 C15.4237648,7.03282075 15.1629075,6.88734219 14.8781939,6.85470515 L14.7548818,6.84768317 L14.3106674,6.84720054 L14.3106674,7.04220054 L15.3668289,7.63664809 C15.4713372,7.695434 15.519643,7.81554507 15.4920184,7.92652436 L15.4661741,7.99145246 C15.4073882,8.09596075 15.2872771,8.14426655 15.1762978,8.11664193 L15.1113697,8.09079768 L13.009636,6.90821744 C12.7691124,6.78795561 12.5132903,6.84572188 12.3907436,7.01180209 C12.2837798,7.22572981 12.3188732,7.48094323 12.4569602,7.63268859 L12.5223322,7.69096552 L14.2391033,8.83547961 L14.3276136,8.93574254 L14.7700085,9.82064003 C15.1607175,10.6411288 15.9106766,11.2303824 16.8483423,11.4861094 C16.987161,11.5239691 17.0690045,11.6671952 17.0311449,11.8060139 C16.9932852,11.9448325 16.8500591,12.026676 16.7112404,11.9888164 C15.9782396,11.7889071 15.3397145,11.4077587 14.8625106,10.8833154 C14.3988594,11.0579751 13.8783285,11.0628517 13.4048716,10.8964215 L13.2297349,10.8259772 L13.0536558,10.7379377 C12.6112242,10.5167219 12.4131057,10.0238577 12.5796896,9.60969728 L12.5836674,9.60120054 L12.5414344,9.5771723 C11.5943158,11.8503297 9.3673218,13.3626096 6.83132269,13.3626096 C3.38595094,13.3626096 0.628119652,10.6047783 0.628119652,7.15940652 C0.628119652,3.71403476 3.38595094,0.956203477 6.83132269,0.956203477 Z M6.83132269,1.47727087 C3.67372851,1.47727087 1.14918704,4.00181234 1.14918704,7.15940652 C1.14918704,10.3170007 3.67372851,12.8415422 6.83132269,12.8415422 C9.22622961,12.8415422 11.3177535,11.3714997 12.1336726,9.18140095 C12.1436213,9.1546965 12.1574845,9.13059073 12.1743687,9.10949201 C12.1118644,8.93584276 12.1046205,8.74478218 12.1632995,8.56414556 L11.5414384,8.56445431 C11.1373818,8.56445431 10.8113089,8.25485269 10.7597694,7.87949941 L10.7526674,7.77568334 L10.7526674,6.19097151 C10.7526674,5.78691494 11.062269,5.46084203 11.4376223,5.4093025 L11.5414384,5.40220054 L12.2432222,5.4019404 C11.4979771,3.07622501 9.33547669,1.47727087 6.83132269,1.47727087 Z M7.04327551,2.92536227 C7.14502024,2.82361753 7.30998106,2.82361753 7.41172579,2.92536227 C9.75915317,5.27278964 9.80188362,9.04731272 7.49976534,11.349431 C7.3980206,11.4511757 7.23305979,11.4511757 7.13131505,11.349431 C7.02957032,11.2476863 7.02957032,11.0827254 7.13131505,10.9809807 C9.22805326,8.8842425 9.18905724,5.43959429 7.04327551,3.29381255 C6.94153077,3.19206781 6.94153077,3.027107 7.04327551,2.92536227 Z M13.0474222,9.87652195 C13.0322428,10.0015145 13.0896244,10.1332948 13.2082501,10.223288 L13.2866842,10.2718808 L13.4540587,10.3557677 C13.7875769,10.5073668 14.1712494,10.5373421 14.5246013,10.4456935 C14.4411897,10.318399 14.367179,10.1865739 14.3017545,10.0491664 L14.3907074,10.2233003 C14.1454816,10.3313681 13.8616674,10.3314364 13.6217434,10.2143379 L13.5218464,10.1569526 L13.0474222,9.87652195 Z M5.98680096,3.98183682 C6.08854569,3.88009208 6.25350651,3.88009208 6.35525124,3.98183682 C8.13021987,5.75680544 8.1733899,8.56285734 6.44329079,10.2929564 C6.34154605,10.3947012 6.17658524,10.3947012 6.0748405,10.2929564 C5.97309576,10.1912117 5.97309576,10.0262509 6.0748405,9.92450616 C7.59886976,8.4004769 7.56077412,5.92426027 5.98680096,4.3502871 C5.88505622,4.24854236 5.88505622,4.08358155 5.98680096,3.98183682 Z M12.849807,8.53531981 L12.79264,8.55686808 L12.79264,8.55686808 L12.7351197,8.56320348 L12.6920602,8.65328039 C12.6100828,8.79674091 12.643656,8.97006958 12.7559544,9.08431028 L12.8184936,9.13609479 L13.7989056,9.71587507 C13.905054,9.78664071 14.0381535,9.79842831 14.1552309,9.75629828 L13.8924948,9.23064687 L12.849807,8.53531981 Z M4.97062562,4.99808886 C5.07027318,4.89428931 5.23519965,4.89092347 5.3389992,4.99057103 C6.53806705,6.14167616 6.55313336,8.07016477 5.38681624,9.2364819 C5.2850715,9.33822663 5.12011069,9.33822663 5.01836595,9.2364819 C4.91662121,9.13473716 4.91662121,8.96977635 5.01836595,8.86803161 C5.97864747,7.90775009 5.96620411,6.31500068 4.97814345,5.36646244 C4.8743439,5.26681488 4.87097805,5.10188841 4.97062562,4.99808886 Z M3.91844754,6.05076614 C4.02096016,5.94902141 4.18716596,5.94902141 4.28967859,6.05076614 C4.87016713,6.62690646 4.88667329,7.57709236 4.34264932,8.17103613 C4.24512876,8.27750521 4.07911108,8.2853516 3.97183846,8.18856153 C3.86456584,8.09177145 3.85666024,7.92699735 3.9541808,7.82052827 C4.31070501,7.4312893 4.29969705,6.79761014 3.91844754,6.41921643 C3.81593492,6.31747169 3.81593492,6.15251088 3.91844754,6.05076614 Z M13.5223282,5.92326793 L11.5414384,5.92326793 C11.4223036,5.92326793 11.3107197,6.01257898 11.2812699,6.13012711 L11.2737348,6.19097151 L11.2737348,7.77568334 C11.2737348,7.89481814 11.3630459,8.00640203 11.480594,8.03585182 L11.5414384,8.04338692 L12.133268,8.04401862 C11.7966553,7.73323053 11.7113344,7.20604681 11.9457102,6.74385575 C12.2165103,6.36473559 12.6892867,6.23148199 13.1335863,6.39586436 L13.2538798,6.44811422 L13.7896674,6.74920054 L13.7900318,6.19097151 C13.7900318,6.07183671 13.7007207,5.96025282 13.5831726,5.93080303 L13.5223282,5.92326793 Z"></path>
                                    </g>
                                </g>
                            </g>
                        </g>
                    </g>
                </g>
            </g>
        </g>
    </g>
</svg>