<?xml version="1.0" encoding="UTF-8"?>
<svg width="50px" height="50px" viewBox="0 0 50 50" version="1.1" xmlns="http://www.w3.org/2000/svg" xmlns:xlink="http://www.w3.org/1999/xlink">
    <!-- Generator: Sketch 61.2 (89653) - https://sketch.com -->
    <title>Symbol/TiempoAire Copy</title>
    <desc>Created with Sketch.</desc>
    <g id="Symbol/TiempoAire-Copy" stroke="none" stroke-width="1" fill="none" fill-rule="evenodd">
        <path d="M34.8,3 C36.7,3 38.2,4.5 38.2,6.4 L38.2,6.4 L38.2,43.2 C38.2,45.1 36.7,46.6 34.8,46.6 L34.8,46.6 L15,46.6 C13.1,46.6 11.6,45.1 11.6,43.2 L11.6,43.2 L11.6,6.4 C11.6,4.5 13.1,3 15,3 L15,3 Z M28.4,41.6 L21.6,41.6 C20.8,41.6 20.2,42.2 20.2,43 C20.2,43.8 20.8,44.4 21.6,44.4 L21.6,44.4 L28.4,44.4 C29.2,44.4 29.8,43.8 29.8,43 C29.8,42.2 29.2,41.6 28.4,41.6 L28.4,41.6 Z M34.1,5.8 L15.8,5.8 C15,5.8 14.3,6.5 14.3,7.3 L14.3,7.3 L14.3,36.3 C14.3,37.6 15.3,38.6 16.6,38.6 L16.6,38.6 L33.3,38.6 C34.6,38.6 35.6,37.6 35.6,36.3 L35.6,36.3 L35.6,7.3 C35.6,6.5 34.9,5.8 34.1,5.8 L34.1,5.8 Z M5.48529412,13.6588235 C5.78417763,13.0984169 6.48076989,12.8864106 7.04117647,13.1852941 C7.60158305,13.4841776 7.81358939,14.1807699 7.51470588,14.7411765 C5.96181001,17.6528562 5.15,20.8762195 5.15,24.3 C5.15,27.678242 5.88950023,30.8032269 7.32145029,33.5716636 C7.6132424,34.1357951 7.39246777,34.8296582 6.82833636,35.1214503 C6.26420494,35.4132424 5.57034182,35.1924678 5.27854971,34.6283364 C3.67532154,31.5287619 2.85,28.0411128 2.85,24.3 C2.85,20.4973099 3.75538297,16.9024069 5.48529412,13.6588235 Z M42.9588235,13.1852941 C43.5192301,12.8864106 44.2158224,13.0984169 44.5147059,13.6588235 C46.244617,16.9024069 47.15,20.4973099 47.15,24.3 C47.15,28.0411128 46.3246785,31.5287619 44.7214503,34.6283364 C44.4296582,35.1924678 43.7357951,35.4132424 43.1716636,35.1214503 C42.6075322,34.8296582 42.3867576,34.1357951 42.6785497,33.5716636 C44.1104998,30.8032269 44.85,27.678242 44.85,24.3 C44.85,20.8762195 44.03819,17.6528562 42.4852941,14.7411765 C42.1864106,14.1807699 42.3984169,13.4841776 42.9588235,13.1852941 Z" id="Combined-Shape" fill="#FFFFFF"></path>
    </g>
</svg>